{
  "cars": [
    {
      "id": 0,
      "startNode": "dr5rst095ug",
      "destinationID": "dr5reguvzpq"
    },
    {
      "id": 1,
      "startNode": "dr5rsm7eq0t",
      "destinationID": "dr5reguvzpq"
    },
    {
      "id": 2,
      "startNode": "dr5rs4zt7fy",
      "destinationID": "dr5reyjtbu1"
    },
    {
      "id": 3,
      "startNode": "dr5rsm9zunu",
      "destinationID": "dr5rs52hy0u"
    },
    {
      "id": 4,
      "startNode": "dr5rskdshr3",
      "destinationID": "dr5rs5901qk"
    }
  ]
}