{
  "cars": [
    {
      "id": 0,
      "startNode": "dr5rmwkmjdw",
      "destinationID": "dr5rmws334q"
    },
    {
      "id": 1,
      "startNode": "dr5rmy2kqhr",
      "destinationID": "dr5rmw0h8zj"
    },
    {
      "id": 2,
      "startNode": "dr5rmy82ejy",
      "destinationID": "dr5rmw3z54w"
    },
    {
      "id": 3,
      "startNode": "dr5rmwcech0",
      "destinationID": "dr5rmqqpbmp"
    },
    {
      "id": 4,
      "startNode": "dr5rmrzkfc5",
      "destinationID": "dr5rmzcy5sx"
    }
  ]
}