{
  "build": "h1056068_1002",
  "build_number": 1002,
  "channel": "https://conda.anaconda.org/conda-forge/linux-64",
  "constrains": [],
  "depends": [
    "freetype >=2.9.1,<3.0a0",
    "icu >=67.1,<68.0a0",
    "libgcc-ng >=7.3.0",
    "libpng >=1.6.37,<1.7.0a0",
    "libuuid >=2.32.1,<3.0a0",
    "libxml2 >=2.9.10,<2.10.0a0"
  ],
  "extracted_package_dir": "/home/sam/anaconda3/pkgs/fontconfig-2.13.1-h1056068_1002",
  "features": "",
  "files": [
    "bin/fc-cache",
    "bin/fc-cat",
    "bin/fc-conflist",
    "bin/fc-list",
    "bin/fc-match",
    "bin/fc-pattern",
    "bin/fc-query",
    "bin/fc-scan",
    "bin/fc-validate",
    "etc/fonts/conf.d/10-hinting-slight.conf",
    "etc/fonts/conf.d/10-scale-bitmap-fonts.conf",
    "etc/fonts/conf.d/20-unhint-small-vera.conf",
    "etc/fonts/conf.d/30-metric-aliases.conf",
    "etc/fonts/conf.d/40-nonlatin.conf",
    "etc/fonts/conf.d/45-generic.conf",
    "etc/fonts/conf.d/45-latin.conf",
    "etc/fonts/conf.d/49-sansserif.conf",
    "etc/fonts/conf.d/50-user.conf",
    "etc/fonts/conf.d/51-local.conf",
    "etc/fonts/conf.d/60-generic.conf",
    "etc/fonts/conf.d/60-latin.conf",
    "etc/fonts/conf.d/65-fonts-persian.conf",
    "etc/fonts/conf.d/65-nonlatin.conf",
    "etc/fonts/conf.d/69-unifont.conf",
    "etc/fonts/conf.d/80-delicious.conf",
    "etc/fonts/conf.d/90-synthetic.conf",
    "etc/fonts/conf.d/README",
    "etc/fonts/fonts.conf",
    "include/fontconfig/fcfreetype.h",
    "include/fontconfig/fcprivate.h",
    "include/fontconfig/fontconfig.h",
    "lib/libfontconfig.a",
    "lib/libfontconfig.so",
    "lib/libfontconfig.so.1",
    "lib/libfontconfig.so.1.12.0",
    "lib/pkgconfig/fontconfig.pc",
    "share/fontconfig/conf.avail/10-autohint.conf",
    "share/fontconfig/conf.avail/10-hinting-full.conf",
    "share/fontconfig/conf.avail/10-hinting-medium.conf",
    "share/fontconfig/conf.avail/10-hinting-none.conf",
    "share/fontconfig/conf.avail/10-hinting-slight.conf",
    "share/fontconfig/conf.avail/10-no-sub-pixel.conf",
    "share/fontconfig/conf.avail/10-scale-bitmap-fonts.conf",
    "share/fontconfig/conf.avail/10-sub-pixel-bgr.conf",
    "share/fontconfig/conf.avail/10-sub-pixel-rgb.conf",
    "share/fontconfig/conf.avail/10-sub-pixel-vbgr.conf",
    "share/fontconfig/conf.avail/10-sub-pixel-vrgb.conf",
    "share/fontconfig/conf.avail/10-unhinted.conf",
    "share/fontconfig/conf.avail/11-lcdfilter-default.conf",
    "share/fontconfig/conf.avail/11-lcdfilter-legacy.conf",
    "share/fontconfig/conf.avail/11-lcdfilter-light.conf",
    "share/fontconfig/conf.avail/20-unhint-small-vera.conf",
    "share/fontconfig/conf.avail/25-unhint-nonlatin.conf",
    "share/fontconfig/conf.avail/30-metric-aliases.conf",
    "share/fontconfig/conf.avail/40-nonlatin.conf",
    "share/fontconfig/conf.avail/45-generic.conf",
    "share/fontconfig/conf.avail/45-latin.conf",
    "share/fontconfig/conf.avail/49-sansserif.conf",
    "share/fontconfig/conf.avail/50-user.conf",
    "share/fontconfig/conf.avail/51-local.conf",
    "share/fontconfig/conf.avail/60-generic.conf",
    "share/fontconfig/conf.avail/60-latin.conf",
    "share/fontconfig/conf.avail/65-fonts-persian.conf",
    "share/fontconfig/conf.avail/65-khmer.conf",
    "share/fontconfig/conf.avail/65-nonlatin.conf",
    "share/fontconfig/conf.avail/69-unifont.conf",
    "share/fontconfig/conf.avail/70-no-bitmaps.conf",
    "share/fontconfig/conf.avail/70-yes-bitmaps.conf",
    "share/fontconfig/conf.avail/80-delicious.conf",
    "share/fontconfig/conf.avail/90-synthetic.conf",
    "share/gettext/its/fontconfig.its",
    "share/gettext/its/fontconfig.loc",
    "share/locale/zh_CN/LC_MESSAGES/fontconfig-conf.mo",
    "share/locale/zh_CN/LC_MESSAGES/fontconfig.mo",
    "share/xml/fontconfig/fonts.dtd",
    "var/cache/fontconfig/.leave"
  ],
  "fn": "fontconfig-2.13.1-h1056068_1002.tar.bz2",
  "license": "MIT",
  "license_family": "MIT",
  "link": {
    "source": "/home/sam/anaconda3/pkgs/fontconfig-2.13.1-h1056068_1002",
    "type": 1
  },
  "md5": "b78e6489307731a6d5ca9b0bc577bc7c",
  "name": "fontconfig",
  "package_tarball_full_path": "/home/sam/anaconda3/pkgs/fontconfig-2.13.1-h1056068_1002.tar.bz2",
  "paths_data": {
    "paths": [
      {
        "_path": "bin/fc-cache",
        "path_type": "hardlink",
        "sha256": "54c96a3310a99f5eae32159ee96bf8c6e5e454f31219dabb939861bdcfd314c7",
        "sha256_in_prefix": "54c96a3310a99f5eae32159ee96bf8c6e5e454f31219dabb939861bdcfd314c7",
        "size_in_bytes": 26016
      },
      {
        "_path": "bin/fc-cat",
        "path_type": "hardlink",
        "sha256": "a8f2d25660315b5a912699ed989eeaad05fe0f5eeaddd61e63f86af2e3ff4b64",
        "sha256_in_prefix": "a8f2d25660315b5a912699ed989eeaad05fe0f5eeaddd61e63f86af2e3ff4b64",
        "size_in_bytes": 25640
      },
      {
        "_path": "bin/fc-conflist",
        "path_type": "hardlink",
        "sha256": "7b3c4701b99f5714943e030e8d929a5d0438a6a004a8b8437811dc2aa306568f",
        "sha256_in_prefix": "7b3c4701b99f5714943e030e8d929a5d0438a6a004a8b8437811dc2aa306568f",
        "size_in_bytes": 20536
      },
      {
        "_path": "bin/fc-list",
        "path_type": "hardlink",
        "sha256": "ed1f965a0c760364649a0c521222af1d500a9610d64774f37b8b385a60d38c7c",
        "sha256_in_prefix": "ed1f965a0c760364649a0c521222af1d500a9610d64774f37b8b385a60d38c7c",
        "size_in_bytes": 20904
      },
      {
        "_path": "bin/fc-match",
        "path_type": "hardlink",
        "sha256": "d6acdfc224f41da9a084eb6b08753c63601c7eaa3226a2006a2c8a2849247c72",
        "sha256_in_prefix": "d6acdfc224f41da9a084eb6b08753c63601c7eaa3226a2006a2c8a2849247c72",
        "size_in_bytes": 25336
      },
      {
        "_path": "bin/fc-pattern",
        "path_type": "hardlink",
        "sha256": "ecfca62496b13c0a5f7af927ba2c3eeb549f207f023b0ef17129be50fad42474",
        "sha256_in_prefix": "ecfca62496b13c0a5f7af927ba2c3eeb549f207f023b0ef17129be50fad42474",
        "size_in_bytes": 20880
      },
      {
        "_path": "bin/fc-query",
        "path_type": "hardlink",
        "sha256": "075a1c6201c7b354e481b08865b300a83181616454405fb0bcfbdda707892b3e",
        "sha256_in_prefix": "075a1c6201c7b354e481b08865b300a83181616454405fb0bcfbdda707892b3e",
        "size_in_bytes": 20712
      },
      {
        "_path": "bin/fc-scan",
        "path_type": "hardlink",
        "sha256": "e5fb581eaa47c4254166cec5a257ffb11a2236f0e0def86234f893a885ea182f",
        "sha256_in_prefix": "e5fb581eaa47c4254166cec5a257ffb11a2236f0e0def86234f893a885ea182f",
        "size_in_bytes": 20928
      },
      {
        "_path": "bin/fc-validate",
        "path_type": "hardlink",
        "sha256": "15f598a588f0b63164ac1e96cee61021e3719c843b1fe11b68014ce55d7bcabe",
        "sha256_in_prefix": "15f598a588f0b63164ac1e96cee61021e3719c843b1fe11b68014ce55d7bcabe",
        "size_in_bytes": 20968
      },
      {
        "_path": "etc/fonts/conf.d/10-hinting-slight.conf",
        "path_type": "softlink",
        "sha256": "1fac58aa3c865e9b05088f94f7a4684d8a60d134421690cfd04842eb00fe1332",
        "size_in_bytes": 696
      },
      {
        "_path": "etc/fonts/conf.d/10-scale-bitmap-fonts.conf",
        "path_type": "softlink",
        "sha256": "31bc5919577b3c897a850948e2a3ede8bd612e6736afe84e532ec8a6c12a36ca",
        "size_in_bytes": 2228
      },
      {
        "_path": "etc/fonts/conf.d/20-unhint-small-vera.conf",
        "path_type": "softlink",
        "sha256": "e4bc8e2f51fe4becf778c9bf3f977935d4396f42193ee02e9d582c71a212e2b9",
        "size_in_bytes": 1537
      },
      {
        "_path": "etc/fonts/conf.d/30-metric-aliases.conf",
        "path_type": "softlink",
        "sha256": "e424cacbd9d7a5c9646d5bfd11127c66182cb740c644fad0f7990ab742b356ae",
        "size_in_bytes": 13274
      },
      {
        "_path": "etc/fonts/conf.d/40-nonlatin.conf",
        "path_type": "softlink",
        "sha256": "2ded74eda7467f51204dcc4070207dcdff06120c725b4f1c363585c51b253fcb",
        "size_in_bytes": 5424
      },
      {
        "_path": "etc/fonts/conf.d/45-generic.conf",
        "path_type": "softlink",
        "sha256": "48e9b9efb969f77f04d055ad512dd732a8319a655bd93011921c912321b18ac6",
        "size_in_bytes": 3543
      },
      {
        "_path": "etc/fonts/conf.d/45-latin.conf",
        "path_type": "softlink",
        "sha256": "1a17eaeb44bdc367f16939dfb2ca1a00a57a9b788b9057a80c656667fa41721e",
        "size_in_bytes": 6600
      },
      {
        "_path": "etc/fonts/conf.d/49-sansserif.conf",
        "path_type": "softlink",
        "sha256": "8763cdac2dc15bc9ca4722bfc42915caacc585e1b73b1687027999eba1a4859e",
        "size_in_bytes": 799
      },
      {
        "_path": "etc/fonts/conf.d/50-user.conf",
        "path_type": "softlink",
        "sha256": "f8ba8a95fb232a9baf2766e54be0c10b3cde40a276faa6d988e67255992f619f",
        "size_in_bytes": 911
      },
      {
        "_path": "etc/fonts/conf.d/51-local.conf",
        "path_type": "softlink",
        "sha256": "f28ac67ab31540c5b5df3faee9d1d6c6d31ba83ea87e851850f5f9e32341126c",
        "size_in_bytes": 423
      },
      {
        "_path": "etc/fonts/conf.d/60-generic.conf",
        "path_type": "softlink",
        "sha256": "65acf3c836c88d4d4b455d791cb32d5f7f8850e47951de8439cf3c177beea075",
        "size_in_bytes": 2041
      },
      {
        "_path": "etc/fonts/conf.d/60-latin.conf",
        "path_type": "softlink",
        "sha256": "c0e9c3cdf4b785dbd7bb4feeea9e92c164ec452c99385452aca1efbd36817484",
        "size_in_bytes": 2068
      },
      {
        "_path": "etc/fonts/conf.d/65-fonts-persian.conf",
        "path_type": "softlink",
        "sha256": "4d53dc8cc9604e0fec716a5947b5235314b1594d1c09f62a34778e6321dc8f20",
        "size_in_bytes": 10293
      },
      {
        "_path": "etc/fonts/conf.d/65-nonlatin.conf",
        "path_type": "softlink",
        "sha256": "d11a074fe649fba583e5068c0b6bd8eeb2b7ac67024962237260d30bea6011ea",
        "size_in_bytes": 8170
      },
      {
        "_path": "etc/fonts/conf.d/69-unifont.conf",
        "path_type": "softlink",
        "sha256": "eb4f4ce7f09017cc9764ea9979dc01ff21902f5566bc73e7d721a872fcc80cbb",
        "size_in_bytes": 847
      },
      {
        "_path": "etc/fonts/conf.d/80-delicious.conf",
        "path_type": "softlink",
        "sha256": "d3cb327de779ad929b12a501b447e1f9c541f51437e389b3d17edb3ecff83496",
        "size_in_bytes": 597
      },
      {
        "_path": "etc/fonts/conf.d/90-synthetic.conf",
        "path_type": "softlink",
        "sha256": "54a5935ea79c66e07faf743b81f2647eca849800b2b0422e84cd66527a75066a",
        "size_in_bytes": 1917
      },
      {
        "_path": "etc/fonts/conf.d/README",
        "path_type": "hardlink",
        "sha256": "f15acc29263815e7e04144a4b125e826a50557cdfb44dfc20cea5dcd869c6ea1",
        "sha256_in_prefix": "f15acc29263815e7e04144a4b125e826a50557cdfb44dfc20cea5dcd869c6ea1",
        "size_in_bytes": 978
      },
      {
        "_path": "etc/fonts/fonts.conf",
        "file_mode": "text",
        "path_type": "hardlink",
        "prefix_placeholder": "/home/conda/feedstock_root/build_artifacts/fontconfig_1589314519289/_h_env_placehold_placehold_placehold_placehold_placehold_placehold_placehold_placehold_placehold_placehold_placehold_placehold_placehold_placehold_placehold_placehold_placehold_placehold_",
        "sha256": "69bd87a95ebcef9819d993da9dee5298cb0c10696a12895f8598123b5ca48f9f",
        "sha256_in_prefix": "668537f8dd422d08045e8bfb6e5ce2926470a734287a309bf380213727bbf72d",
        "size_in_bytes": 3059
      },
      {
        "_path": "include/fontconfig/fcfreetype.h",
        "path_type": "hardlink",
        "sha256": "c69d08b5e9720e15291ca30fcb706cdc58515dbf21a6cfd4818bbd142976d697",
        "sha256_in_prefix": "c69d08b5e9720e15291ca30fcb706cdc58515dbf21a6cfd4818bbd142976d697",
        "size_in_bytes": 1958
      },
      {
        "_path": "include/fontconfig/fcprivate.h",
        "path_type": "hardlink",
        "sha256": "2d0b07968f4d7d09318d0f284dde0388f0c97f50f67bddd490a6ae5272cabd36",
        "sha256_in_prefix": "2d0b07968f4d7d09318d0f284dde0388f0c97f50f67bddd490a6ae5272cabd36",
        "size_in_bytes": 4489
      },
      {
        "_path": "include/fontconfig/fontconfig.h",
        "path_type": "hardlink",
        "sha256": "fdaf99103c6646485ea5a9ca56dc4ed7d31872287e5508495c51b022f79c0516",
        "sha256_in_prefix": "fdaf99103c6646485ea5a9ca56dc4ed7d31872287e5508495c51b022f79c0516",
        "size_in_bytes": 28461
      },
      {
        "_path": "lib/libfontconfig.a",
        "file_mode": "binary",
        "path_type": "hardlink",
        "prefix_placeholder": "/home/conda/feedstock_root/build_artifacts/fontconfig_1589314519289/_h_env_placehold_placehold_placehold_placehold_placehold_placehold_placehold_placehold_placehold_placehold_placehold_placehold_placehold_placehold_placehold_placehold_placehold_placehold_",
        "sha256": "69bd2485fe73e46c39dad26b2fcd717fe984cce7502231a495389dbf2cbee8ec",
        "sha256_in_prefix": "2c94b8460ed0c0d0c80d9760264b8ba650aa3cacffca737f8df4b5d7d4eb0f95",
        "size_in_bytes": 618738
      },
      {
        "_path": "lib/libfontconfig.so",
        "path_type": "softlink",
        "sha256": "035a65f0345e858c2ffaf4a2966bebf57deb7feb23347e505298aa687f66efe1",
        "size_in_bytes": 333520
      },
      {
        "_path": "lib/libfontconfig.so.1",
        "path_type": "softlink",
        "sha256": "035a65f0345e858c2ffaf4a2966bebf57deb7feb23347e505298aa687f66efe1",
        "size_in_bytes": 333520
      },
      {
        "_path": "lib/libfontconfig.so.1.12.0",
        "file_mode": "binary",
        "path_type": "hardlink",
        "prefix_placeholder": "/home/conda/feedstock_root/build_artifacts/fontconfig_1589314519289/_h_env_placehold_placehold_placehold_placehold_placehold_placehold_placehold_placehold_placehold_placehold_placehold_placehold_placehold_placehold_placehold_placehold_placehold_placehold_",
        "sha256": "035a65f0345e858c2ffaf4a2966bebf57deb7feb23347e505298aa687f66efe1",
        "sha256_in_prefix": "d020e4ccdeadcdd181d739d61b5ede54814c32d332fc43b0e6148f1435b8d996",
        "size_in_bytes": 333520
      },
      {
        "_path": "lib/pkgconfig/fontconfig.pc",
        "file_mode": "text",
        "path_type": "hardlink",
        "prefix_placeholder": "/home/conda/feedstock_root/build_artifacts/fontconfig_1589314519289/_h_env_placehold_placehold_placehold_placehold_placehold_placehold_placehold_placehold_placehold_placehold_placehold_placehold_placehold_placehold_placehold_placehold_placehold_placehold_",
        "sha256": "c75f13e58eb5af8af3a8f428cc6edb645efb98f241743bf687c2a599d8112ab8",
        "sha256_in_prefix": "26e94cc1baab0e0b6c23ad3bc52aaab2d4ecc80ed91b573566b3be96a707d60d",
        "size_in_bytes": 722
      },
      {
        "_path": "share/fontconfig/conf.avail/10-autohint.conf",
        "path_type": "hardlink",
        "sha256": "b60c416c62c59949ce53a0b7bd0c77e76f309c500c767ec59e02587c3726e5bc",
        "sha256_in_prefix": "b60c416c62c59949ce53a0b7bd0c77e76f309c500c767ec59e02587c3726e5bc",
        "size_in_bytes": 706
      },
      {
        "_path": "share/fontconfig/conf.avail/10-hinting-full.conf",
        "path_type": "hardlink",
        "sha256": "0ddfabd0287f73028ad872006389fbe63fab7d7ba2a0f1f85d35c282a0dde6ca",
        "sha256_in_prefix": "0ddfabd0287f73028ad872006389fbe63fab7d7ba2a0f1f85d35c282a0dde6ca",
        "size_in_bytes": 692
      },
      {
        "_path": "share/fontconfig/conf.avail/10-hinting-medium.conf",
        "path_type": "hardlink",
        "sha256": "bf2274bd1e7ee08b16ea6f0e67d073b42076d43c4bc61ed0d1159da905288ad9",
        "sha256_in_prefix": "bf2274bd1e7ee08b16ea6f0e67d073b42076d43c4bc61ed0d1159da905288ad9",
        "size_in_bytes": 696
      },
      {
        "_path": "share/fontconfig/conf.avail/10-hinting-none.conf",
        "path_type": "hardlink",
        "sha256": "938da6a7f533af329510bb3b7bba103639bbd7ff0761d1d6556ee5079d603d36",
        "sha256_in_prefix": "938da6a7f533af329510bb3b7bba103639bbd7ff0761d1d6556ee5079d603d36",
        "size_in_bytes": 692
      },
      {
        "_path": "share/fontconfig/conf.avail/10-hinting-slight.conf",
        "path_type": "hardlink",
        "sha256": "1fac58aa3c865e9b05088f94f7a4684d8a60d134421690cfd04842eb00fe1332",
        "sha256_in_prefix": "1fac58aa3c865e9b05088f94f7a4684d8a60d134421690cfd04842eb00fe1332",
        "size_in_bytes": 696
      },
      {
        "_path": "share/fontconfig/conf.avail/10-no-sub-pixel.conf",
        "path_type": "hardlink",
        "sha256": "db6cc09b48abbec33a6074b04cfc1dc5161b86cf73fd9321e7c7e6853bda875e",
        "sha256_in_prefix": "db6cc09b48abbec33a6074b04cfc1dc5161b86cf73fd9321e7c7e6853bda875e",
        "size_in_bytes": 723
      },
      {
        "_path": "share/fontconfig/conf.avail/10-scale-bitmap-fonts.conf",
        "path_type": "hardlink",
        "sha256": "31bc5919577b3c897a850948e2a3ede8bd612e6736afe84e532ec8a6c12a36ca",
        "sha256_in_prefix": "31bc5919577b3c897a850948e2a3ede8bd612e6736afe84e532ec8a6c12a36ca",
        "size_in_bytes": 2228
      },
      {
        "_path": "share/fontconfig/conf.avail/10-sub-pixel-bgr.conf",
        "path_type": "hardlink",
        "sha256": "133e75ed6eab24cd4b352603b1f3d54d131211e0d95c3a32274b389dacfccd1e",
        "sha256_in_prefix": "133e75ed6eab24cd4b352603b1f3d54d131211e0d95c3a32274b389dacfccd1e",
        "size_in_bytes": 748
      },
      {
        "_path": "share/fontconfig/conf.avail/10-sub-pixel-rgb.conf",
        "path_type": "hardlink",
        "sha256": "12eea6c29a800f58efc25dec0d928779ec344006698902c3a037e0522c4ae126",
        "sha256_in_prefix": "12eea6c29a800f58efc25dec0d928779ec344006698902c3a037e0522c4ae126",
        "size_in_bytes": 748
      },
      {
        "_path": "share/fontconfig/conf.avail/10-sub-pixel-vbgr.conf",
        "path_type": "hardlink",
        "sha256": "c8e81739ef7fb736eebf9251d7caf67fcc931ce894de0b3f5dd46a10f4e146b5",
        "sha256_in_prefix": "c8e81739ef7fb736eebf9251d7caf67fcc931ce894de0b3f5dd46a10f4e146b5",
        "size_in_bytes": 758
      },
      {
        "_path": "share/fontconfig/conf.avail/10-sub-pixel-vrgb.conf",
        "path_type": "hardlink",
        "sha256": "8591239ca7d60fdec74b0701c2b043ec1af6a48bf5089fb050559e599e122c95",
        "sha256_in_prefix": "8591239ca7d60fdec74b0701c2b043ec1af6a48bf5089fb050559e599e122c95",
        "size_in_bytes": 758
      },
      {
        "_path": "share/fontconfig/conf.avail/10-unhinted.conf",
        "path_type": "hardlink",
        "sha256": "177de69285f723ecc71108bc8fcac7d125fcea7945770e5d97d74f0bf5ec989d",
        "sha256_in_prefix": "177de69285f723ecc71108bc8fcac7d125fcea7945770e5d97d74f0bf5ec989d",
        "size_in_bytes": 701
      },
      {
        "_path": "share/fontconfig/conf.avail/11-lcdfilter-default.conf",
        "path_type": "hardlink",
        "sha256": "7b72aa9bbe1559da3931bb4dbb64666aca90fa5b81886cc60ab5c74383ed2756",
        "sha256_in_prefix": "7b72aa9bbe1559da3931bb4dbb64666aca90fa5b81886cc60ab5c74383ed2756",
        "size_in_bytes": 771
      },
      {
        "_path": "share/fontconfig/conf.avail/11-lcdfilter-legacy.conf",
        "path_type": "hardlink",
        "sha256": "5f4e884146127d72f2357b22e175a9f8aeeb2f494355910c1b33bbaadc4e098e",
        "sha256_in_prefix": "5f4e884146127d72f2357b22e175a9f8aeeb2f494355910c1b33bbaadc4e098e",
        "size_in_bytes": 768
      },
      {
        "_path": "share/fontconfig/conf.avail/11-lcdfilter-light.conf",
        "path_type": "hardlink",
        "sha256": "e5d07262e90c1ae756261e26b0a95e937c4e5e81743f6b21eb68e165e232d883",
        "sha256_in_prefix": "e5d07262e90c1ae756261e26b0a95e937c4e5e81743f6b21eb68e165e232d883",
        "size_in_bytes": 765
      },
      {
        "_path": "share/fontconfig/conf.avail/20-unhint-small-vera.conf",
        "path_type": "hardlink",
        "sha256": "e4bc8e2f51fe4becf778c9bf3f977935d4396f42193ee02e9d582c71a212e2b9",
        "sha256_in_prefix": "e4bc8e2f51fe4becf778c9bf3f977935d4396f42193ee02e9d582c71a212e2b9",
        "size_in_bytes": 1537
      },
      {
        "_path": "share/fontconfig/conf.avail/25-unhint-nonlatin.conf",
        "path_type": "hardlink",
        "sha256": "13c34be22daec29f99930aa9e5cdc4b6d4b837d3d0a7ad21b398502a1087d810",
        "sha256_in_prefix": "13c34be22daec29f99930aa9e5cdc4b6d4b837d3d0a7ad21b398502a1087d810",
        "size_in_bytes": 3489
      },
      {
        "_path": "share/fontconfig/conf.avail/30-metric-aliases.conf",
        "path_type": "hardlink",
        "sha256": "e424cacbd9d7a5c9646d5bfd11127c66182cb740c644fad0f7990ab742b356ae",
        "sha256_in_prefix": "e424cacbd9d7a5c9646d5bfd11127c66182cb740c644fad0f7990ab742b356ae",
        "size_in_bytes": 13274
      },
      {
        "_path": "share/fontconfig/conf.avail/40-nonlatin.conf",
        "path_type": "hardlink",
        "sha256": "2ded74eda7467f51204dcc4070207dcdff06120c725b4f1c363585c51b253fcb",
        "sha256_in_prefix": "2ded74eda7467f51204dcc4070207dcdff06120c725b4f1c363585c51b253fcb",
        "size_in_bytes": 5424
      },
      {
        "_path": "share/fontconfig/conf.avail/45-generic.conf",
        "path_type": "hardlink",
        "sha256": "48e9b9efb969f77f04d055ad512dd732a8319a655bd93011921c912321b18ac6",
        "sha256_in_prefix": "48e9b9efb969f77f04d055ad512dd732a8319a655bd93011921c912321b18ac6",
        "size_in_bytes": 3543
      },
      {
        "_path": "share/fontconfig/conf.avail/45-latin.conf",
        "path_type": "hardlink",
        "sha256": "1a17eaeb44bdc367f16939dfb2ca1a00a57a9b788b9057a80c656667fa41721e",
        "sha256_in_prefix": "1a17eaeb44bdc367f16939dfb2ca1a00a57a9b788b9057a80c656667fa41721e",
        "size_in_bytes": 6600
      },
      {
        "_path": "share/fontconfig/conf.avail/49-sansserif.conf",
        "path_type": "hardlink",
        "sha256": "8763cdac2dc15bc9ca4722bfc42915caacc585e1b73b1687027999eba1a4859e",
        "sha256_in_prefix": "8763cdac2dc15bc9ca4722bfc42915caacc585e1b73b1687027999eba1a4859e",
        "size_in_bytes": 799
      },
      {
        "_path": "share/fontconfig/conf.avail/50-user.conf",
        "path_type": "hardlink",
        "sha256": "f8ba8a95fb232a9baf2766e54be0c10b3cde40a276faa6d988e67255992f619f",
        "sha256_in_prefix": "f8ba8a95fb232a9baf2766e54be0c10b3cde40a276faa6d988e67255992f619f",
        "size_in_bytes": 911
      },
      {
        "_path": "share/fontconfig/conf.avail/51-local.conf",
        "path_type": "hardlink",
        "sha256": "f28ac67ab31540c5b5df3faee9d1d6c6d31ba83ea87e851850f5f9e32341126c",
        "sha256_in_prefix": "f28ac67ab31540c5b5df3faee9d1d6c6d31ba83ea87e851850f5f9e32341126c",
        "size_in_bytes": 423
      },
      {
        "_path": "share/fontconfig/conf.avail/60-generic.conf",
        "path_type": "hardlink",
        "sha256": "65acf3c836c88d4d4b455d791cb32d5f7f8850e47951de8439cf3c177beea075",
        "sha256_in_prefix": "65acf3c836c88d4d4b455d791cb32d5f7f8850e47951de8439cf3c177beea075",
        "size_in_bytes": 2041
      },
      {
        "_path": "share/fontconfig/conf.avail/60-latin.conf",
        "path_type": "hardlink",
        "sha256": "c0e9c3cdf4b785dbd7bb4feeea9e92c164ec452c99385452aca1efbd36817484",
        "sha256_in_prefix": "c0e9c3cdf4b785dbd7bb4feeea9e92c164ec452c99385452aca1efbd36817484",
        "size_in_bytes": 2068
      },
      {
        "_path": "share/fontconfig/conf.avail/65-fonts-persian.conf",
        "path_type": "hardlink",
        "sha256": "4d53dc8cc9604e0fec716a5947b5235314b1594d1c09f62a34778e6321dc8f20",
        "sha256_in_prefix": "4d53dc8cc9604e0fec716a5947b5235314b1594d1c09f62a34778e6321dc8f20",
        "size_in_bytes": 10293
      },
      {
        "_path": "share/fontconfig/conf.avail/65-khmer.conf",
        "path_type": "hardlink",
        "sha256": "ab056a77ca1f8bc94117ce99f53fbbdd4516656086b0bb7104de3b58948c3848",
        "sha256_in_prefix": "ab056a77ca1f8bc94117ce99f53fbbdd4516656086b0bb7104de3b58948c3848",
        "size_in_bytes": 464
      },
      {
        "_path": "share/fontconfig/conf.avail/65-nonlatin.conf",
        "path_type": "hardlink",
        "sha256": "d11a074fe649fba583e5068c0b6bd8eeb2b7ac67024962237260d30bea6011ea",
        "sha256_in_prefix": "d11a074fe649fba583e5068c0b6bd8eeb2b7ac67024962237260d30bea6011ea",
        "size_in_bytes": 8170
      },
      {
        "_path": "share/fontconfig/conf.avail/69-unifont.conf",
        "path_type": "hardlink",
        "sha256": "eb4f4ce7f09017cc9764ea9979dc01ff21902f5566bc73e7d721a872fcc80cbb",
        "sha256_in_prefix": "eb4f4ce7f09017cc9764ea9979dc01ff21902f5566bc73e7d721a872fcc80cbb",
        "size_in_bytes": 847
      },
      {
        "_path": "share/fontconfig/conf.avail/70-no-bitmaps.conf",
        "path_type": "hardlink",
        "sha256": "a68f782f773c0a0061b7780b227f221c8b3fc06d66bd8fe654b261617b3dbbe0",
        "sha256_in_prefix": "a68f782f773c0a0061b7780b227f221c8b3fc06d66bd8fe654b261617b3dbbe0",
        "size_in_bytes": 487
      },
      {
        "_path": "share/fontconfig/conf.avail/70-yes-bitmaps.conf",
        "path_type": "hardlink",
        "sha256": "0b795a6a0a08f815cab64bbc7ab0a4cedd40ba7b272e005faebb1a2ab25bf4f6",
        "sha256_in_prefix": "0b795a6a0a08f815cab64bbc7ab0a4cedd40ba7b272e005faebb1a2ab25bf4f6",
        "size_in_bytes": 487
      },
      {
        "_path": "share/fontconfig/conf.avail/80-delicious.conf",
        "path_type": "hardlink",
        "sha256": "d3cb327de779ad929b12a501b447e1f9c541f51437e389b3d17edb3ecff83496",
        "sha256_in_prefix": "d3cb327de779ad929b12a501b447e1f9c541f51437e389b3d17edb3ecff83496",
        "size_in_bytes": 597
      },
      {
        "_path": "share/fontconfig/conf.avail/90-synthetic.conf",
        "path_type": "hardlink",
        "sha256": "54a5935ea79c66e07faf743b81f2647eca849800b2b0422e84cd66527a75066a",
        "sha256_in_prefix": "54a5935ea79c66e07faf743b81f2647eca849800b2b0422e84cd66527a75066a",
        "size_in_bytes": 1917
      },
      {
        "_path": "share/gettext/its/fontconfig.its",
        "path_type": "hardlink",
        "sha256": "9be67d9c7e01925b6eb6af778a67e8988dd84db6ddbc8ee415d0c1fddb5a2f4c",
        "sha256_in_prefix": "9be67d9c7e01925b6eb6af778a67e8988dd84db6ddbc8ee415d0c1fddb5a2f4c",
        "size_in_bytes": 189
      },
      {
        "_path": "share/gettext/its/fontconfig.loc",
        "path_type": "hardlink",
        "sha256": "314405a4186c3ec4086d45e3bffd9c70fc451dccfc0b793fd83f8e281dc18d81",
        "sha256_in_prefix": "314405a4186c3ec4086d45e3bffd9c70fc451dccfc0b793fd83f8e281dc18d81",
        "size_in_bytes": 189
      },
      {
        "_path": "share/locale/zh_CN/LC_MESSAGES/fontconfig-conf.mo",
        "path_type": "hardlink",
        "sha256": "670960c6f1cf6b6a0c36c8cbe6d1453b3640fb1ece5addb09c8d67747b0104bb",
        "sha256_in_prefix": "670960c6f1cf6b6a0c36c8cbe6d1453b3640fb1ece5addb09c8d67747b0104bb",
        "size_in_bytes": 3311
      },
      {
        "_path": "share/locale/zh_CN/LC_MESSAGES/fontconfig.mo",
        "path_type": "hardlink",
        "sha256": "f29749120115bfcd87e6b39c523c8675b977f885433a1874c4ad8371948c11d8",
        "sha256_in_prefix": "f29749120115bfcd87e6b39c523c8675b977f885433a1874c4ad8371948c11d8",
        "size_in_bytes": 14705
      },
      {
        "_path": "share/xml/fontconfig/fonts.dtd",
        "path_type": "hardlink",
        "sha256": "26cac5f99498345c19e7d53aa3b9ab531a57bd0cef0b8e6b9dc0e4e2116ffb3b",
        "sha256_in_prefix": "26cac5f99498345c19e7d53aa3b9ab531a57bd0cef0b8e6b9dc0e4e2116ffb3b",
        "size_in_bytes": 7250
      },
      {
        "_path": "var/cache/fontconfig/.leave",
        "path_type": "hardlink",
        "sha256": "e3b0c44298fc1c149afbf4c8996fb92427ae41e4649b934ca495991b7852b855",
        "sha256_in_prefix": "e3b0c44298fc1c149afbf4c8996fb92427ae41e4649b934ca495991b7852b855",
        "size_in_bytes": 0
      }
    ],
    "paths_version": 1
  },
  "requested_spec": "None",
  "sha256": "eff2c66255c2fa1d01c0d34a28a5d4fcc26ee72f792a044092d137b86aea518b",
  "size": 373796,
  "subdir": "linux-64",
  "timestamp": 1589314685188,
  "track_features": "",
  "url": "https://conda.anaconda.org/conda-forge/linux-64/fontconfig-2.13.1-h1056068_1002.tar.bz2",
  "version": "2.13.1"
}