{
  "build": "he1b5a44_0",
  "build_number": 0,
  "channel": "https://conda.anaconda.org/conda-forge/linux-64",
  "constrains": [],
  "depends": [
    "libgcc-ng >=7.3.0",
    "libstdcxx-ng >=7.3.0"
  ],
  "extracted_package_dir": "/home/sam/anaconda3/pkgs/icu-67.1-he1b5a44_0",
  "features": "",
  "files": [
    "bin/derb",
    "bin/genbrk",
    "bin/gencfu",
    "bin/gencnval",
    "bin/gendict",
    "bin/genrb",
    "bin/icu-config",
    "bin/icuinfo",
    "bin/makeconv",
    "bin/pkgdata",
    "include/unicode/alphaindex.h",
    "include/unicode/appendable.h",
    "include/unicode/basictz.h",
    "include/unicode/brkiter.h",
    "include/unicode/bytestream.h",
    "include/unicode/bytestrie.h",
    "include/unicode/bytestriebuilder.h",
    "include/unicode/calendar.h",
    "include/unicode/caniter.h",
    "include/unicode/casemap.h",
    "include/unicode/char16ptr.h",
    "include/unicode/chariter.h",
    "include/unicode/choicfmt.h",
    "include/unicode/coleitr.h",
    "include/unicode/coll.h",
    "include/unicode/compactdecimalformat.h",
    "include/unicode/curramt.h",
    "include/unicode/currpinf.h",
    "include/unicode/currunit.h",
    "include/unicode/datefmt.h",
    "include/unicode/dbbi.h",
    "include/unicode/dcfmtsym.h",
    "include/unicode/decimfmt.h",
    "include/unicode/docmain.h",
    "include/unicode/dtfmtsym.h",
    "include/unicode/dtintrv.h",
    "include/unicode/dtitvfmt.h",
    "include/unicode/dtitvinf.h",
    "include/unicode/dtptngen.h",
    "include/unicode/dtrule.h",
    "include/unicode/edits.h",
    "include/unicode/enumset.h",
    "include/unicode/errorcode.h",
    "include/unicode/fieldpos.h",
    "include/unicode/filteredbrk.h",
    "include/unicode/fmtable.h",
    "include/unicode/format.h",
    "include/unicode/formattedvalue.h",
    "include/unicode/fpositer.h",
    "include/unicode/gender.h",
    "include/unicode/gregocal.h",
    "include/unicode/icudataver.h",
    "include/unicode/icuplug.h",
    "include/unicode/idna.h",
    "include/unicode/listformatter.h",
    "include/unicode/localebuilder.h",
    "include/unicode/localematcher.h",
    "include/unicode/localpointer.h",
    "include/unicode/locdspnm.h",
    "include/unicode/locid.h",
    "include/unicode/measfmt.h",
    "include/unicode/measunit.h",
    "include/unicode/measure.h",
    "include/unicode/messagepattern.h",
    "include/unicode/msgfmt.h",
    "include/unicode/normalizer2.h",
    "include/unicode/normlzr.h",
    "include/unicode/nounit.h",
    "include/unicode/numberformatter.h",
    "include/unicode/numberrangeformatter.h",
    "include/unicode/numfmt.h",
    "include/unicode/numsys.h",
    "include/unicode/parseerr.h",
    "include/unicode/parsepos.h",
    "include/unicode/platform.h",
    "include/unicode/plurfmt.h",
    "include/unicode/plurrule.h",
    "include/unicode/ptypes.h",
    "include/unicode/putil.h",
    "include/unicode/rbbi.h",
    "include/unicode/rbnf.h",
    "include/unicode/rbtz.h",
    "include/unicode/regex.h",
    "include/unicode/region.h",
    "include/unicode/reldatefmt.h",
    "include/unicode/rep.h",
    "include/unicode/resbund.h",
    "include/unicode/schriter.h",
    "include/unicode/scientificnumberformatter.h",
    "include/unicode/search.h",
    "include/unicode/selfmt.h",
    "include/unicode/simpleformatter.h",
    "include/unicode/simpletz.h",
    "include/unicode/smpdtfmt.h",
    "include/unicode/sortkey.h",
    "include/unicode/std_string.h",
    "include/unicode/strenum.h",
    "include/unicode/stringoptions.h",
    "include/unicode/stringpiece.h",
    "include/unicode/stringtriebuilder.h",
    "include/unicode/stsearch.h",
    "include/unicode/symtable.h",
    "include/unicode/tblcoll.h",
    "include/unicode/timezone.h",
    "include/unicode/tmunit.h",
    "include/unicode/tmutamt.h",
    "include/unicode/tmutfmt.h",
    "include/unicode/translit.h",
    "include/unicode/tzfmt.h",
    "include/unicode/tznames.h",
    "include/unicode/tzrule.h",
    "include/unicode/tztrans.h",
    "include/unicode/ubidi.h",
    "include/unicode/ubiditransform.h",
    "include/unicode/ubrk.h",
    "include/unicode/ucal.h",
    "include/unicode/ucasemap.h",
    "include/unicode/ucat.h",
    "include/unicode/uchar.h",
    "include/unicode/ucharstrie.h",
    "include/unicode/ucharstriebuilder.h",
    "include/unicode/uchriter.h",
    "include/unicode/uclean.h",
    "include/unicode/ucnv.h",
    "include/unicode/ucnv_cb.h",
    "include/unicode/ucnv_err.h",
    "include/unicode/ucnvsel.h",
    "include/unicode/ucol.h",
    "include/unicode/ucoleitr.h",
    "include/unicode/uconfig.h",
    "include/unicode/ucpmap.h",
    "include/unicode/ucptrie.h",
    "include/unicode/ucsdet.h",
    "include/unicode/ucurr.h",
    "include/unicode/udat.h",
    "include/unicode/udata.h",
    "include/unicode/udateintervalformat.h",
    "include/unicode/udatpg.h",
    "include/unicode/udisplaycontext.h",
    "include/unicode/uenum.h",
    "include/unicode/ufieldpositer.h",
    "include/unicode/uformattable.h",
    "include/unicode/uformattedvalue.h",
    "include/unicode/ugender.h",
    "include/unicode/uidna.h",
    "include/unicode/uiter.h",
    "include/unicode/uldnames.h",
    "include/unicode/ulistformatter.h",
    "include/unicode/uloc.h",
    "include/unicode/ulocdata.h",
    "include/unicode/umachine.h",
    "include/unicode/umisc.h",
    "include/unicode/umsg.h",
    "include/unicode/umutablecptrie.h",
    "include/unicode/unifilt.h",
    "include/unicode/unifunct.h",
    "include/unicode/unimatch.h",
    "include/unicode/unirepl.h",
    "include/unicode/uniset.h",
    "include/unicode/unistr.h",
    "include/unicode/unorm.h",
    "include/unicode/unorm2.h",
    "include/unicode/unum.h",
    "include/unicode/unumberformatter.h",
    "include/unicode/unumsys.h",
    "include/unicode/uobject.h",
    "include/unicode/upluralrules.h",
    "include/unicode/uregex.h",
    "include/unicode/uregion.h",
    "include/unicode/ureldatefmt.h",
    "include/unicode/urename.h",
    "include/unicode/urep.h",
    "include/unicode/ures.h",
    "include/unicode/uscript.h",
    "include/unicode/usearch.h",
    "include/unicode/uset.h",
    "include/unicode/usetiter.h",
    "include/unicode/ushape.h",
    "include/unicode/uspoof.h",
    "include/unicode/usprep.h",
    "include/unicode/ustdio.h",
    "include/unicode/ustream.h",
    "include/unicode/ustring.h",
    "include/unicode/ustringtrie.h",
    "include/unicode/utext.h",
    "include/unicode/utf.h",
    "include/unicode/utf16.h",
    "include/unicode/utf32.h",
    "include/unicode/utf8.h",
    "include/unicode/utf_old.h",
    "include/unicode/utmscale.h",
    "include/unicode/utrace.h",
    "include/unicode/utrans.h",
    "include/unicode/utypes.h",
    "include/unicode/uvernum.h",
    "include/unicode/uversion.h",
    "include/unicode/vtzone.h",
    "lib/icu/67.1/Makefile.inc",
    "lib/icu/67.1/pkgdata.inc",
    "lib/icu/Makefile.inc",
    "lib/icu/current",
    "lib/icu/pkgdata.inc",
    "lib/libicudata.so",
    "lib/libicudata.so.67",
    "lib/libicudata.so.67.1",
    "lib/libicui18n.so",
    "lib/libicui18n.so.67",
    "lib/libicui18n.so.67.1",
    "lib/libicuio.so",
    "lib/libicuio.so.67",
    "lib/libicuio.so.67.1",
    "lib/libicutest.so",
    "lib/libicutest.so.67",
    "lib/libicutest.so.67.1",
    "lib/libicutu.so",
    "lib/libicutu.so.67",
    "lib/libicutu.so.67.1",
    "lib/libicuuc.so",
    "lib/libicuuc.so.67",
    "lib/libicuuc.so.67.1",
    "lib/pkgconfig/icu-i18n.pc",
    "lib/pkgconfig/icu-io.pc",
    "lib/pkgconfig/icu-uc.pc",
    "share/icu/67.1/LICENSE",
    "share/icu/67.1/config/mh-linux",
    "share/icu/67.1/install-sh",
    "share/icu/67.1/mkinstalldirs",
    "share/man/man1/derb.1",
    "share/man/man1/genbrk.1",
    "share/man/man1/gencfu.1",
    "share/man/man1/gencnval.1",
    "share/man/man1/gendict.1",
    "share/man/man1/genrb.1",
    "share/man/man1/icu-config.1",
    "share/man/man1/makeconv.1",
    "share/man/man1/pkgdata.1",
    "share/man/man8/genccode.8",
    "share/man/man8/gencmn.8",
    "share/man/man8/gensprep.8",
    "share/man/man8/icupkg.8"
  ],
  "fn": "icu-67.1-he1b5a44_0.tar.bz2",
  "license": "MIT",
  "license_family": "MIT",
  "link": {
    "source": "/home/sam/anaconda3/pkgs/icu-67.1-he1b5a44_0",
    "type": 1
  },
  "md5": "7ced6a5e5c94726af797d2b5a2b09228",
  "name": "icu",
  "package_tarball_full_path": "/home/sam/anaconda3/pkgs/icu-67.1-he1b5a44_0.tar.bz2",
  "paths_data": {
    "paths": [
      {
        "_path": "bin/derb",
        "path_type": "hardlink",
        "sha256": "e5f467dc4396d3355ae851f9e6296f6e9218a2107505d997ac498ab6feb39416",
        "sha256_in_prefix": "e5f467dc4396d3355ae851f9e6296f6e9218a2107505d997ac498ab6feb39416",
        "size_in_bytes": 38960
      },
      {
        "_path": "bin/genbrk",
        "path_type": "hardlink",
        "sha256": "da0d08ad468eb59167652996870c6028d2b57dd2cfb37f04dd18502c5be8d6e6",
        "sha256_in_prefix": "da0d08ad468eb59167652996870c6028d2b57dd2cfb37f04dd18502c5be8d6e6",
        "size_in_bytes": 25968
      },
      {
        "_path": "bin/gencfu",
        "path_type": "hardlink",
        "sha256": "a6165b56a2e86ba61f704547483ff540330dce85cba44689058e00d8c52c1be3",
        "sha256_in_prefix": "a6165b56a2e86ba61f704547483ff540330dce85cba44689058e00d8c52c1be3",
        "size_in_bytes": 21264
      },
      {
        "_path": "bin/gencnval",
        "path_type": "hardlink",
        "sha256": "3adfdeb8d841e925dbf44797979b98497e1d2008f9c7771118de558324cda4f1",
        "sha256_in_prefix": "3adfdeb8d841e925dbf44797979b98497e1d2008f9c7771118de558324cda4f1",
        "size_in_bytes": 38952
      },
      {
        "_path": "bin/gendict",
        "path_type": "hardlink",
        "sha256": "7d2075e0665a23ce6f27f91fc27252745f8664afd1d5fb611c9622f8d1e46ba5",
        "sha256_in_prefix": "7d2075e0665a23ce6f27f91fc27252745f8664afd1d5fb611c9622f8d1e46ba5",
        "size_in_bytes": 41488
      },
      {
        "_path": "bin/genrb",
        "path_type": "hardlink",
        "sha256": "8503fede30cafbac41a273509314d7387e379d5bfefe2010f5db790bd330c763",
        "sha256_in_prefix": "8503fede30cafbac41a273509314d7387e379d5bfefe2010f5db790bd330c763",
        "size_in_bytes": 184216
      },
      {
        "_path": "bin/icu-config",
        "file_mode": "text",
        "path_type": "hardlink",
        "prefix_placeholder": "/home/conda/feedstock_root/build_artifacts/icu_1588856482222/_h_env_placehold_placehold_placehold_placehold_placehold_placehold_placehold_placehold_placehold_placehold_placehold_placehold_placehold_placehold_placehold_placehold_placehold_placehold_placeho",
        "sha256": "3e40d3726b02eaa487817c3d813641836d011193ad220ca8f6cfbd6f7015df51",
        "sha256_in_prefix": "c56f4824cf7139d22cfb3f6c16bb240e80ede64acf557a489d9916b700c81b61",
        "size_in_bytes": 23066
      },
      {
        "_path": "bin/icuinfo",
        "path_type": "hardlink",
        "sha256": "b5a1d5c36781a72c2b3c0c8cfe0bfe8a764550a2a88d7b7056ac892b1aef83e5",
        "sha256_in_prefix": "b5a1d5c36781a72c2b3c0c8cfe0bfe8a764550a2a88d7b7056ac892b1aef83e5",
        "size_in_bytes": 20888
      },
      {
        "_path": "bin/makeconv",
        "path_type": "hardlink",
        "sha256": "aba5053eff1da33b7d1528bcfa2d7eeb77af956d113ee36671c05c490f5ee41c",
        "sha256_in_prefix": "aba5053eff1da33b7d1528bcfa2d7eeb77af956d113ee36671c05c490f5ee41c",
        "size_in_bytes": 75840
      },
      {
        "_path": "bin/pkgdata",
        "path_type": "hardlink",
        "sha256": "7d3f4e77b02737bc6a4e95652e3295803d42391ee404693130a3d29b56e57fa1",
        "sha256_in_prefix": "7d3f4e77b02737bc6a4e95652e3295803d42391ee404693130a3d29b56e57fa1",
        "size_in_bytes": 58912
      },
      {
        "_path": "include/unicode/alphaindex.h",
        "path_type": "hardlink",
        "sha256": "ae71d4bfde0f2f85337f465da9f345659805620b2549b456a145022fea5b36d6",
        "sha256_in_prefix": "ae71d4bfde0f2f85337f465da9f345659805620b2549b456a145022fea5b36d6",
        "size_in_bytes": 27118
      },
      {
        "_path": "include/unicode/appendable.h",
        "path_type": "hardlink",
        "sha256": "9b224a8bc3e4c06b90693c24e032cdc56345a05ef4f7422243bb5186c73fe8b4",
        "sha256_in_prefix": "9b224a8bc3e4c06b90693c24e032cdc56345a05ef4f7422243bb5186c73fe8b4",
        "size_in_bytes": 8694
      },
      {
        "_path": "include/unicode/basictz.h",
        "path_type": "hardlink",
        "sha256": "abdff0f3a96341e73bb307f25811f2948a7a475c827100c6e53037728b873176",
        "sha256_in_prefix": "abdff0f3a96341e73bb307f25811f2948a7a475c827100c6e53037728b873176",
        "size_in_bytes": 9491
      },
      {
        "_path": "include/unicode/brkiter.h",
        "path_type": "hardlink",
        "sha256": "46b67b8d4754a1033306bf3bc7554c6301338e1226a6edfe2fe8a1dc30bfe035",
        "sha256_in_prefix": "46b67b8d4754a1033306bf3bc7554c6301338e1226a6edfe2fe8a1dc30bfe035",
        "size_in_bytes": 28464
      },
      {
        "_path": "include/unicode/bytestream.h",
        "path_type": "hardlink",
        "sha256": "27ca38ae46ae80008806d0be14843b35030d816bcdb4c2b131020fae48847d54",
        "sha256_in_prefix": "27ca38ae46ae80008806d0be14843b35030d816bcdb4c2b131020fae48847d54",
        "size_in_bytes": 11037
      },
      {
        "_path": "include/unicode/bytestrie.h",
        "path_type": "hardlink",
        "sha256": "e64a9fc253feb35a3ea944416c3c895ff5ca9f78cb9f553b49b747e3f8d0fbf9",
        "sha256_in_prefix": "e64a9fc253feb35a3ea944416c3c895ff5ca9f78cb9f553b49b747e3f8d0fbf9",
        "size_in_bytes": 21266
      },
      {
        "_path": "include/unicode/bytestriebuilder.h",
        "path_type": "hardlink",
        "sha256": "3c77088d41f7726ccd4f12b6d9ff134aaf01c3ef7ad554ed491c07629a0a16dd",
        "sha256_in_prefix": "3c77088d41f7726ccd4f12b6d9ff134aaf01c3ef7ad554ed491c07629a0a16dd",
        "size_in_bytes": 7248
      },
      {
        "_path": "include/unicode/calendar.h",
        "path_type": "hardlink",
        "sha256": "4572adad160fd2d49aa5946f74f7b9a6827822d7fd216f879e73b6fecd3c68f9",
        "sha256_in_prefix": "4572adad160fd2d49aa5946f74f7b9a6827822d7fd216f879e73b6fecd3c68f9",
        "size_in_bytes": 108278
      },
      {
        "_path": "include/unicode/caniter.h",
        "path_type": "hardlink",
        "sha256": "4c6926a746ced694d9e83a753b2830724b3c26f84871310a5442f21b35f88f40",
        "sha256_in_prefix": "4c6926a746ced694d9e83a753b2830724b3c26f84871310a5442f21b35f88f40",
        "size_in_bytes": 7611
      },
      {
        "_path": "include/unicode/casemap.h",
        "path_type": "hardlink",
        "sha256": "57090c937a8832ba096204e5ca2b9b14a374838b8230a517965da5025d7e568e",
        "sha256_in_prefix": "57090c937a8832ba096204e5ca2b9b14a374838b8230a517965da5025d7e568e",
        "size_in_bytes": 25933
      },
      {
        "_path": "include/unicode/char16ptr.h",
        "path_type": "hardlink",
        "sha256": "f8b8118d6a6c7d303f0ff6af21fc691e0a156ce3b014b812f9e65894100cf79a",
        "sha256_in_prefix": "f8b8118d6a6c7d303f0ff6af21fc691e0a156ce3b014b812f9e65894100cf79a",
        "size_in_bytes": 7393
      },
      {
        "_path": "include/unicode/chariter.h",
        "path_type": "hardlink",
        "sha256": "fdf0b06a06c215a56a5b2bc244de4e47a2f3a95d1d0d4fbbba4d8a8ae505c401",
        "sha256_in_prefix": "fdf0b06a06c215a56a5b2bc244de4e47a2f3a95d1d0d4fbbba4d8a8ae505c401",
        "size_in_bytes": 24632
      },
      {
        "_path": "include/unicode/choicfmt.h",
        "path_type": "hardlink",
        "sha256": "993c4a20674651b9b5adf72b50e7c2799ea2a4c6e4f5c0703cb37b59e678d9c4",
        "sha256_in_prefix": "993c4a20674651b9b5adf72b50e7c2799ea2a4c6e4f5c0703cb37b59e678d9c4",
        "size_in_bytes": 24482
      },
      {
        "_path": "include/unicode/coleitr.h",
        "path_type": "hardlink",
        "sha256": "9f7e55d0ddded58c2c0feadab4b9c165462fa321ea0904b63c1a98bfb615aa2e",
        "sha256_in_prefix": "9f7e55d0ddded58c2c0feadab4b9c165462fa321ea0904b63c1a98bfb615aa2e",
        "size_in_bytes": 14094
      },
      {
        "_path": "include/unicode/coll.h",
        "path_type": "hardlink",
        "sha256": "f712a9d8e926196e4bdee5e4a0d6272778d79d0c6c5a943b29ee2207f245dc8b",
        "sha256_in_prefix": "f712a9d8e926196e4bdee5e4a0d6272778d79d0c6c5a943b29ee2207f245dc8b",
        "size_in_bytes": 57581
      },
      {
        "_path": "include/unicode/compactdecimalformat.h",
        "path_type": "hardlink",
        "sha256": "d6e10e6994394e26ae66bdc6cda72f1b6af0b1d25e1f03437bbfe9e56a2e2d58",
        "sha256_in_prefix": "d6e10e6994394e26ae66bdc6cda72f1b6af0b1d25e1f03437bbfe9e56a2e2d58",
        "size_in_bytes": 7047
      },
      {
        "_path": "include/unicode/curramt.h",
        "path_type": "hardlink",
        "sha256": "5e1bf361f28dedb274d84f22882dadcc326347815153b7ccd170969b37e8d2cd",
        "sha256_in_prefix": "5e1bf361f28dedb274d84f22882dadcc326347815153b7ccd170969b37e8d2cd",
        "size_in_bytes": 3851
      },
      {
        "_path": "include/unicode/currpinf.h",
        "path_type": "hardlink",
        "sha256": "35ec387e8290402bc6643ed63dcf96637af5597f8dcc35aaa70ed91342ae00a2",
        "sha256_in_prefix": "35ec387e8290402bc6643ed63dcf96637af5597f8dcc35aaa70ed91342ae00a2",
        "size_in_bytes": 7473
      },
      {
        "_path": "include/unicode/currunit.h",
        "path_type": "hardlink",
        "sha256": "7d458b0da3ac5c5798e142efac66a49ec447c0627cc963ae62db6e1c543e04bb",
        "sha256_in_prefix": "7d458b0da3ac5c5798e142efac66a49ec447c0627cc963ae62db6e1c543e04bb",
        "size_in_bytes": 4094
      },
      {
        "_path": "include/unicode/datefmt.h",
        "path_type": "hardlink",
        "sha256": "0791dae9917bb75db4b2ec0d8f2bcaaf957f843c9b8ad184753a402c121720ed",
        "sha256_in_prefix": "0791dae9917bb75db4b2ec0d8f2bcaaf957f843c9b8ad184753a402c121720ed",
        "size_in_bytes": 41641
      },
      {
        "_path": "include/unicode/dbbi.h",
        "path_type": "hardlink",
        "sha256": "e581695e25e5eb36d29444d67efe125a5c59b96d80b69fc590673a4edbc90d82",
        "sha256_in_prefix": "e581695e25e5eb36d29444d67efe125a5c59b96d80b69fc590673a4edbc90d82",
        "size_in_bytes": 1223
      },
      {
        "_path": "include/unicode/dcfmtsym.h",
        "path_type": "hardlink",
        "sha256": "5cc83d9a12d9bd7ab282f5043e04007541ff990570b5f73d03e7766a8202a2f2",
        "sha256_in_prefix": "5cc83d9a12d9bd7ab282f5043e04007541ff990570b5f73d03e7766a8202a2f2",
        "size_in_bytes": 20897
      },
      {
        "_path": "include/unicode/decimfmt.h",
        "path_type": "hardlink",
        "sha256": "670351377e616774122de1d8570e920f3584f04d92ab147be7180cb6d7227deb",
        "sha256_in_prefix": "670351377e616774122de1d8570e920f3584f04d92ab147be7180cb6d7227deb",
        "size_in_bytes": 89278
      },
      {
        "_path": "include/unicode/docmain.h",
        "path_type": "hardlink",
        "sha256": "3733b9c7829e94c0c0453ae97cd1d3e669ad82c446d36eb5c7ce0947841ce659",
        "sha256_in_prefix": "3733b9c7829e94c0c0453ae97cd1d3e669ad82c446d36eb5c7ce0947841ce659",
        "size_in_bytes": 7142
      },
      {
        "_path": "include/unicode/dtfmtsym.h",
        "path_type": "hardlink",
        "sha256": "6548e0c3acd1951f732d5b510d90828bb4d70ffa3c660c90052094b39f8817c8",
        "sha256_in_prefix": "6548e0c3acd1951f732d5b510d90828bb4d70ffa3c660c90052094b39f8817c8",
        "size_in_bytes": 38609
      },
      {
        "_path": "include/unicode/dtintrv.h",
        "path_type": "hardlink",
        "sha256": "3fa278a9a65d6c469e8a82a5948d04bd39c2046511dce5bbfc38d95f9d9b086e",
        "sha256_in_prefix": "3fa278a9a65d6c469e8a82a5948d04bd39c2046511dce5bbfc38d95f9d9b086e",
        "size_in_bytes": 3930
      },
      {
        "_path": "include/unicode/dtitvfmt.h",
        "path_type": "hardlink",
        "sha256": "5577b474cab840ebe3cc6aa4243d21789184f5e8002d4b0c2877c23f5a86f0f9",
        "sha256_in_prefix": "5577b474cab840ebe3cc6aa4243d21789184f5e8002d4b0c2877c23f5a86f0f9",
        "size_in_bytes": 47634
      },
      {
        "_path": "include/unicode/dtitvinf.h",
        "path_type": "hardlink",
        "sha256": "3f83c79624a5e1b1c3d06f2c86de67138c440e5f77732ca2b57de46493a4e093",
        "sha256_in_prefix": "3f83c79624a5e1b1c3d06f2c86de67138c440e5f77732ca2b57de46493a4e093",
        "size_in_bytes": 19064
      },
      {
        "_path": "include/unicode/dtptngen.h",
        "path_type": "hardlink",
        "sha256": "32be3e793124dcd1c51a03ae520f3d01d0cc05f306f2a488e186de4ebadcc823",
        "sha256_in_prefix": "32be3e793124dcd1c51a03ae520f3d01d0cc05f306f2a488e186de4ebadcc823",
        "size_in_bytes": 26419
      },
      {
        "_path": "include/unicode/dtrule.h",
        "path_type": "hardlink",
        "sha256": "47473697cf0eeb9d02ab7c50d9bc33b2593ddb029af7af9f3f3f46e8078925d4",
        "sha256_in_prefix": "47473697cf0eeb9d02ab7c50d9bc33b2593ddb029af7af9f3f3f46e8078925d4",
        "size_in_bytes": 8888
      },
      {
        "_path": "include/unicode/edits.h",
        "path_type": "hardlink",
        "sha256": "3d46a5c0ea85c3ce8c4c73c5357bc17bb0e0c1182466744e6261d0f6bf5a81d4",
        "sha256_in_prefix": "3d46a5c0ea85c3ce8c4c73c5357bc17bb0e0c1182466744e6261d0f6bf5a81d4",
        "size_in_bytes": 21237
      },
      {
        "_path": "include/unicode/enumset.h",
        "path_type": "hardlink",
        "sha256": "714e52368f8c204a118440c04587c6ed953a3000e2243004631ec5522bfaef04",
        "sha256_in_prefix": "714e52368f8c204a118440c04587c6ed953a3000e2243004631ec5522bfaef04",
        "size_in_bytes": 2130
      },
      {
        "_path": "include/unicode/errorcode.h",
        "path_type": "hardlink",
        "sha256": "e299e97e2f11f8ead9c3e7cfe24a785a98bab94ef86500a97f0b1df55efc5d1d",
        "sha256_in_prefix": "e299e97e2f11f8ead9c3e7cfe24a785a98bab94ef86500a97f0b1df55efc5d1d",
        "size_in_bytes": 4956
      },
      {
        "_path": "include/unicode/fieldpos.h",
        "path_type": "hardlink",
        "sha256": "a0df6ed8af74e710b055c9fab1a7482ba478de98bf504135c29a04f3b5097356",
        "sha256_in_prefix": "a0df6ed8af74e710b055c9fab1a7482ba478de98bf504135c29a04f3b5097356",
        "size_in_bytes": 8899
      },
      {
        "_path": "include/unicode/filteredbrk.h",
        "path_type": "hardlink",
        "sha256": "4019a321dd10976ab6e0c49e52e5ff6bf22e0622bd79b073bee06f49a97d0285",
        "sha256_in_prefix": "4019a321dd10976ab6e0c49e52e5ff6bf22e0622bd79b073bee06f49a97d0285",
        "size_in_bytes": 5501
      },
      {
        "_path": "include/unicode/fmtable.h",
        "path_type": "hardlink",
        "sha256": "a14d0c6d321069f4bcf011c3590ac9f391f512ae66afab79e7632d3f6cb07b3c",
        "sha256_in_prefix": "a14d0c6d321069f4bcf011c3590ac9f391f512ae66afab79e7632d3f6cb07b3c",
        "size_in_bytes": 25007
      },
      {
        "_path": "include/unicode/format.h",
        "path_type": "hardlink",
        "sha256": "62a07671426b27a4503863c4b637f0516205a9222776e62fbdbb6cec0fd9118e",
        "sha256_in_prefix": "62a07671426b27a4503863c4b637f0516205a9222776e62fbdbb6cec0fd9118e",
        "size_in_bytes": 12802
      },
      {
        "_path": "include/unicode/formattedvalue.h",
        "path_type": "hardlink",
        "sha256": "30e077fb0b26e39cc6d1e25daad5d19ddf0d893ca76ddc168e566c70ce76df55",
        "sha256_in_prefix": "30e077fb0b26e39cc6d1e25daad5d19ddf0d893ca76ddc168e566c70ce76df55",
        "size_in_bytes": 9987
      },
      {
        "_path": "include/unicode/fpositer.h",
        "path_type": "hardlink",
        "sha256": "a9140f593be2b04c67d0de58c25f79f98ac2f4faff80d013580a97fbba80dc19",
        "sha256_in_prefix": "a9140f593be2b04c67d0de58c25f79f98ac2f4faff80d013580a97fbba80dc19",
        "size_in_bytes": 3109
      },
      {
        "_path": "include/unicode/gender.h",
        "path_type": "hardlink",
        "sha256": "30e732583aa034e65f74c19ba751dc90179051917d974f6825f0085a267c29b3",
        "sha256_in_prefix": "30e732583aa034e65f74c19ba751dc90179051917d974f6825f0085a267c29b3",
        "size_in_bytes": 3408
      },
      {
        "_path": "include/unicode/gregocal.h",
        "path_type": "hardlink",
        "sha256": "e3f14fd0d7e6323a707bf24eb80604653ad51bdb9cc7477a246beb25484cb4f4",
        "sha256_in_prefix": "e3f14fd0d7e6323a707bf24eb80604653ad51bdb9cc7477a246beb25484cb4f4",
        "size_in_bytes": 32472
      },
      {
        "_path": "include/unicode/icudataver.h",
        "path_type": "hardlink",
        "sha256": "166ed096ac88e7e186da3ea5305be2487dfb56bdaab2c0e7deedfbe86e30101a",
        "sha256_in_prefix": "166ed096ac88e7e186da3ea5305be2487dfb56bdaab2c0e7deedfbe86e30101a",
        "size_in_bytes": 1051
      },
      {
        "_path": "include/unicode/icuplug.h",
        "path_type": "hardlink",
        "sha256": "d341adebf72119a7eb520ad01a9323213c1f3e971598d8d725b2a52ef16572c8",
        "sha256_in_prefix": "d341adebf72119a7eb520ad01a9323213c1f3e971598d8d725b2a52ef16572c8",
        "size_in_bytes": 12166
      },
      {
        "_path": "include/unicode/idna.h",
        "path_type": "hardlink",
        "sha256": "5154dab6cf7310190f92de1bb66de84d4450ac9e2b406b5c7c3daff93ea186f1",
        "sha256_in_prefix": "5154dab6cf7310190f92de1bb66de84d4450ac9e2b406b5c7c3daff93ea186f1",
        "size_in_bytes": 13000
      },
      {
        "_path": "include/unicode/listformatter.h",
        "path_type": "hardlink",
        "sha256": "d261869b99925dee741d6ed48deb47e42a7b5ce6ce61b47bddac34595216e2b2",
        "sha256_in_prefix": "d261869b99925dee741d6ed48deb47e42a7b5ce6ce61b47bddac34595216e2b2",
        "size_in_bytes": 9493
      },
      {
        "_path": "include/unicode/localebuilder.h",
        "path_type": "hardlink",
        "sha256": "0988d80b57840f92d83c89d9c99be45bb7104a25cd56a82cb65639c1901b6ea0",
        "sha256_in_prefix": "0988d80b57840f92d83c89d9c99be45bb7104a25cd56a82cb65639c1901b6ea0",
        "size_in_bytes": 11502
      },
      {
        "_path": "include/unicode/localematcher.h",
        "path_type": "hardlink",
        "sha256": "4e46747dc3b0b6946e2dcfb610fd82dea694e2e191260b0d4495136a8619dca2",
        "sha256_in_prefix": "4e46747dc3b0b6946e2dcfb610fd82dea694e2e191260b0d4495136a8619dca2",
        "size_in_bytes": 25147
      },
      {
        "_path": "include/unicode/localpointer.h",
        "path_type": "hardlink",
        "sha256": "83598e7d915bf64daf265c7c38cf158e2ecd7ea8c8eee5f50c47483fbc156ecd",
        "sha256_in_prefix": "83598e7d915bf64daf265c7c38cf158e2ecd7ea8c8eee5f50c47483fbc156ecd",
        "size_in_bytes": 19829
      },
      {
        "_path": "include/unicode/locdspnm.h",
        "path_type": "hardlink",
        "sha256": "823ddebeaea6229b9d9cf85e8cf3ced7afb53476c8bbccd5bcf3c15c0d967e2c",
        "sha256_in_prefix": "823ddebeaea6229b9d9cf85e8cf3ced7afb53476c8bbccd5bcf3c15c0d967e2c",
        "size_in_bytes": 7292
      },
      {
        "_path": "include/unicode/locid.h",
        "path_type": "hardlink",
        "sha256": "4d4b5ab95db16769d74d78811b37cec10b82bc5278a3143017a3876d491cbbc2",
        "sha256_in_prefix": "4d4b5ab95db16769d74d78811b37cec10b82bc5278a3143017a3876d491cbbc2",
        "size_in_bytes": 48821
      },
      {
        "_path": "include/unicode/measfmt.h",
        "path_type": "hardlink",
        "sha256": "390610a8b5958d9819f2bd62f020a606b500793df0cdcaf228fa246790362c24",
        "sha256_in_prefix": "390610a8b5958d9819f2bd62f020a606b500793df0cdcaf228fa246790362c24",
        "size_in_bytes": 11603
      },
      {
        "_path": "include/unicode/measunit.h",
        "path_type": "hardlink",
        "sha256": "ede70df0513a7955d26b27067df67bcf0f3588234c8f48142781bd484da96ac9",
        "sha256_in_prefix": "ede70df0513a7955d26b27067df67bcf0f3588234c8f48142781bd484da96ac9",
        "size_in_bytes": 97563
      },
      {
        "_path": "include/unicode/measure.h",
        "path_type": "hardlink",
        "sha256": "0c8e52cc81552331803a9ba43b7d9f0321dbd96e44daf8123ee1de6d000e8aea",
        "sha256_in_prefix": "0c8e52cc81552331803a9ba43b7d9f0321dbd96e44daf8123ee1de6d000e8aea",
        "size_in_bytes": 4423
      },
      {
        "_path": "include/unicode/messagepattern.h",
        "path_type": "hardlink",
        "sha256": "5367d5b1c8379d7556bb95c6054b7468a7755a330c05d04779533f16559d12a0",
        "sha256_in_prefix": "5367d5b1c8379d7556bb95c6054b7468a7755a330c05d04779533f16559d12a0",
        "size_in_bytes": 34521
      },
      {
        "_path": "include/unicode/msgfmt.h",
        "path_type": "hardlink",
        "sha256": "a8238fa075473b293f232ac8b2cc9d305e2cd5860c8f765bde72042e8a08bf23",
        "sha256_in_prefix": "a8238fa075473b293f232ac8b2cc9d305e2cd5860c8f765bde72042e8a08bf23",
        "size_in_bytes": 45168
      },
      {
        "_path": "include/unicode/normalizer2.h",
        "path_type": "hardlink",
        "sha256": "5dedc1afcda29f9a842f52d2cfbcf2584057e658d513cdee5d8f7e7fc155d7fa",
        "sha256_in_prefix": "5dedc1afcda29f9a842f52d2cfbcf2584057e658d513cdee5d8f7e7fc155d7fa",
        "size_in_bytes": 34851
      },
      {
        "_path": "include/unicode/normlzr.h",
        "path_type": "hardlink",
        "sha256": "a9545b473e199bb86c16f62f2b864ef404969f9882a79049f73401088ca0f426",
        "sha256_in_prefix": "a9545b473e199bb86c16f62f2b864ef404969f9882a79049f73401088ca0f426",
        "size_in_bytes": 31682
      },
      {
        "_path": "include/unicode/nounit.h",
        "path_type": "hardlink",
        "sha256": "d3fcb0eabf072e24f5ade06dff89bc6c19b4177743316cfff514a325eb2ace31",
        "sha256_in_prefix": "d3fcb0eabf072e24f5ade06dff89bc6c19b4177743316cfff514a325eb2ace31",
        "size_in_bytes": 2754
      },
      {
        "_path": "include/unicode/numberformatter.h",
        "path_type": "hardlink",
        "sha256": "a1c037935104495791dd1c8c00db714803a3a00f62f6e9abdc64039fbe01371c",
        "sha256_in_prefix": "a1c037935104495791dd1c8c00db714803a3a00f62f6e9abdc64039fbe01371c",
        "size_in_bytes": 86276
      },
      {
        "_path": "include/unicode/numberrangeformatter.h",
        "path_type": "hardlink",
        "sha256": "e9906e112383d8ce16e4f66b6da6139a85c215708aa6a8d0a702b87ed52378f2",
        "sha256_in_prefix": "e9906e112383d8ce16e4f66b6da6139a85c215708aa6a8d0a702b87ed52378f2",
        "size_in_bytes": 28617
      },
      {
        "_path": "include/unicode/numfmt.h",
        "path_type": "hardlink",
        "sha256": "d1a4ff934a35cc8720957f8e4b8588c8cc29b96cc73a174ba5da583ea50fa9b1",
        "sha256_in_prefix": "d1a4ff934a35cc8720957f8e4b8588c8cc29b96cc73a174ba5da583ea50fa9b1",
        "size_in_bytes": 50950
      },
      {
        "_path": "include/unicode/numsys.h",
        "path_type": "hardlink",
        "sha256": "71b51cd8c015989c80377647323f833bcfe35f96484498ef4371e5e34777648a",
        "sha256_in_prefix": "71b51cd8c015989c80377647323f833bcfe35f96484498ef4371e5e34777648a",
        "size_in_bytes": 7500
      },
      {
        "_path": "include/unicode/parseerr.h",
        "path_type": "hardlink",
        "sha256": "85336d61449740ae90a0c2c36cfd671e0aa3200c92d94e07afc3e82aacb19b35",
        "sha256_in_prefix": "85336d61449740ae90a0c2c36cfd671e0aa3200c92d94e07afc3e82aacb19b35",
        "size_in_bytes": 3155
      },
      {
        "_path": "include/unicode/parsepos.h",
        "path_type": "hardlink",
        "sha256": "4836eab7f134ff05a19f11d4ffeb10d11f2f2898ced3bb5bb8e899ac321f421c",
        "sha256_in_prefix": "4836eab7f134ff05a19f11d4ffeb10d11f2f2898ced3bb5bb8e899ac321f421c",
        "size_in_bytes": 5692
      },
      {
        "_path": "include/unicode/platform.h",
        "path_type": "hardlink",
        "sha256": "67ed9b8a6caf33a929e4a957a3ce32cfd86c43ee9411388c5b8fd793f32dfd19",
        "sha256_in_prefix": "67ed9b8a6caf33a929e4a957a3ce32cfd86c43ee9411388c5b8fd793f32dfd19",
        "size_in_bytes": 28751
      },
      {
        "_path": "include/unicode/plurfmt.h",
        "path_type": "hardlink",
        "sha256": "7323b9cc91c7be7c54c46b22877cee6e105d62c07ecd85da2d9fa1530df9ecab",
        "sha256_in_prefix": "7323b9cc91c7be7c54c46b22877cee6e105d62c07ecd85da2d9fa1530df9ecab",
        "size_in_bytes": 25800
      },
      {
        "_path": "include/unicode/plurrule.h",
        "path_type": "hardlink",
        "sha256": "7d262757181a983687489a7fd00f736376e13d272b5bd95ee5de8156c5593bd3",
        "sha256_in_prefix": "7d262757181a983687489a7fd00f736376e13d272b5bd95ee5de8156c5593bd3",
        "size_in_bytes": 18780
      },
      {
        "_path": "include/unicode/ptypes.h",
        "path_type": "hardlink",
        "sha256": "08ea1afce826da8dae3019bdd733682ec73ed1b3bb3bbd0fe730ebae006bbfb4",
        "sha256_in_prefix": "08ea1afce826da8dae3019bdd733682ec73ed1b3bb3bbd0fe730ebae006bbfb4",
        "size_in_bytes": 3577
      },
      {
        "_path": "include/unicode/putil.h",
        "path_type": "hardlink",
        "sha256": "45697b7c65738e8151267c1045b4b129ddc00ce8359f1800738a965ee6bab0a9",
        "sha256_in_prefix": "45697b7c65738e8151267c1045b4b129ddc00ce8359f1800738a965ee6bab0a9",
        "size_in_bytes": 6487
      },
      {
        "_path": "include/unicode/rbbi.h",
        "path_type": "hardlink",
        "sha256": "b287c041218ff73156d6c6006251dcefc5aad066aade11d32a601aba6cf56c7d",
        "sha256_in_prefix": "b287c041218ff73156d6c6006251dcefc5aad066aade11d32a601aba6cf56c7d",
        "size_in_bytes": 27218
      },
      {
        "_path": "include/unicode/rbnf.h",
        "path_type": "hardlink",
        "sha256": "a155a7993458867bbcaf4422d9d2f0463cf8197b8fab2b0db08303f1e044115e",
        "sha256_in_prefix": "a155a7993458867bbcaf4422d9d2f0463cf8197b8fab2b0db08303f1e044115e",
        "size_in_bytes": 49899
      },
      {
        "_path": "include/unicode/rbtz.h",
        "path_type": "hardlink",
        "sha256": "24259d85e359d251a6218c0a12afefa15f190c554126137e01910decdfe8aa21",
        "sha256_in_prefix": "24259d85e359d251a6218c0a12afefa15f190c554126137e01910decdfe8aa21",
        "size_in_bytes": 15979
      },
      {
        "_path": "include/unicode/regex.h",
        "path_type": "hardlink",
        "sha256": "f1886e11cb68e09e687fa78a117fa12c9908861403a726f1a6192064a24c28d3",
        "sha256_in_prefix": "f1886e11cb68e09e687fa78a117fa12c9908861403a726f1a6192064a24c28d3",
        "size_in_bytes": 86367
      },
      {
        "_path": "include/unicode/region.h",
        "path_type": "hardlink",
        "sha256": "5a06631ca6165b12c27d305ddf8d6877685cd265dbb9e5713f0af2c0d993e3ad",
        "sha256_in_prefix": "5a06631ca6165b12c27d305ddf8d6877685cd265dbb9e5713f0af2c0d993e3ad",
        "size_in_bytes": 9404
      },
      {
        "_path": "include/unicode/reldatefmt.h",
        "path_type": "hardlink",
        "sha256": "ee819d5f7ca81ce5061a382f5df6cbc5429e8202fd6096c26dd9e83b215d9c1c",
        "sha256_in_prefix": "ee819d5f7ca81ce5061a382f5df6cbc5429e8202fd6096c26dd9e83b215d9c1c",
        "size_in_bytes": 22801
      },
      {
        "_path": "include/unicode/rep.h",
        "path_type": "hardlink",
        "sha256": "4c5ddf1c469029e8f73f56b77b163f55fd4fd4d15683847e02c737eacb012a12",
        "sha256_in_prefix": "4c5ddf1c469029e8f73f56b77b163f55fd4fd4d15683847e02c737eacb012a12",
        "size_in_bytes": 9599
      },
      {
        "_path": "include/unicode/resbund.h",
        "path_type": "hardlink",
        "sha256": "e2a52ee3dac104d78778bb49f3f303a91c3c87e96c296ff4b2f7824998fa7e52",
        "sha256_in_prefix": "e2a52ee3dac104d78778bb49f3f303a91c3c87e96c296ff4b2f7824998fa7e52",
        "size_in_bytes": 18503
      },
      {
        "_path": "include/unicode/schriter.h",
        "path_type": "hardlink",
        "sha256": "ba43311862d93752c6ac39cf93a5d86d2c1e0772a81c36c95b22f84ba76606ce",
        "sha256_in_prefix": "ba43311862d93752c6ac39cf93a5d86d2c1e0772a81c36c95b22f84ba76606ce",
        "size_in_bytes": 6475
      },
      {
        "_path": "include/unicode/scientificnumberformatter.h",
        "path_type": "hardlink",
        "sha256": "0f13abd13555f7050ecf15a851ebe2264ab46f273cec41b255e1e4d63e35eda9",
        "sha256_in_prefix": "0f13abd13555f7050ecf15a851ebe2264ab46f273cec41b255e1e4d63e35eda9",
        "size_in_bytes": 6553
      },
      {
        "_path": "include/unicode/search.h",
        "path_type": "hardlink",
        "sha256": "4a4242d2281fc5b1f50d2e9ee3dc49cd4f68a81a9c19a2007196875ada317547",
        "sha256_in_prefix": "4a4242d2281fc5b1f50d2e9ee3dc49cd4f68a81a9c19a2007196875ada317547",
        "size_in_bytes": 22757
      },
      {
        "_path": "include/unicode/selfmt.h",
        "path_type": "hardlink",
        "sha256": "bd3e2e4c2a08d01fc30ba2154878de479d6c2ca035176eae1483f5202bbe7907",
        "sha256_in_prefix": "bd3e2e4c2a08d01fc30ba2154878de479d6c2ca035176eae1483f5202bbe7907",
        "size_in_bytes": 14643
      },
      {
        "_path": "include/unicode/simpleformatter.h",
        "path_type": "hardlink",
        "sha256": "b3d01ff53be066c1ca59e1eed2ae6e2f9fa09f87665fa2346179fc5b886d76f2",
        "sha256_in_prefix": "b3d01ff53be066c1ca59e1eed2ae6e2f9fa09f87665fa2346179fc5b886d76f2",
        "size_in_bytes": 12888
      },
      {
        "_path": "include/unicode/simpletz.h",
        "path_type": "hardlink",
        "sha256": "a410c72ce1b88de04b8538af851723490fccd4f94dc396f00347615997a92132",
        "sha256_in_prefix": "a410c72ce1b88de04b8538af851723490fccd4f94dc396f00347615997a92132",
        "size_in_bytes": 46527
      },
      {
        "_path": "include/unicode/smpdtfmt.h",
        "path_type": "hardlink",
        "sha256": "653db2978bcb5ae62bc0ace55e4fbfbbca1cbde466a3830770da35990131be3e",
        "sha256_in_prefix": "653db2978bcb5ae62bc0ace55e4fbfbbca1cbde466a3830770da35990131be3e",
        "size_in_bytes": 72713
      },
      {
        "_path": "include/unicode/sortkey.h",
        "path_type": "hardlink",
        "sha256": "98d3366c5ad3dedae1c6df7f15607d0eb17fd0fac3db5a50a7786787398663c4",
        "sha256_in_prefix": "98d3366c5ad3dedae1c6df7f15607d0eb17fd0fac3db5a50a7786787398663c4",
        "size_in_bytes": 11444
      },
      {
        "_path": "include/unicode/std_string.h",
        "path_type": "hardlink",
        "sha256": "2f5197b3e654925b3aeddae520a362f2544dd95242c140d3cf32b67ca83f6489",
        "sha256_in_prefix": "2f5197b3e654925b3aeddae520a362f2544dd95242c140d3cf32b67ca83f6489",
        "size_in_bytes": 1076
      },
      {
        "_path": "include/unicode/strenum.h",
        "path_type": "hardlink",
        "sha256": "998b439478cbd29b05c87b5a6ecc8a1b2be606e0eae6084cde01499bde2ed413",
        "sha256_in_prefix": "998b439478cbd29b05c87b5a6ecc8a1b2be606e0eae6084cde01499bde2ed413",
        "size_in_bytes": 10158
      },
      {
        "_path": "include/unicode/stringoptions.h",
        "path_type": "hardlink",
        "sha256": "931533a849801ebb07e324f877f9e5d65c16b782d708d678f4918bf7fa206908",
        "sha256_in_prefix": "931533a849801ebb07e324f877f9e5d65c16b782d708d678f4918bf7fa206908",
        "size_in_bytes": 5926
      },
      {
        "_path": "include/unicode/stringpiece.h",
        "path_type": "hardlink",
        "sha256": "9ce4da29a9a997fe79aa1e0db565b333a03e587c7f416afadab28ac5e14767c9",
        "sha256_in_prefix": "9ce4da29a9a997fe79aa1e0db565b333a03e587c7f416afadab28ac5e14767c9",
        "size_in_bytes": 10597
      },
      {
        "_path": "include/unicode/stringtriebuilder.h",
        "path_type": "hardlink",
        "sha256": "97ff222c2dd62a2b93943244284dfd43f4048fa0ebd99b29724a5e07b968277f",
        "sha256_in_prefix": "97ff222c2dd62a2b93943244284dfd43f4048fa0ebd99b29724a5e07b968277f",
        "size_in_bytes": 15698
      },
      {
        "_path": "include/unicode/stsearch.h",
        "path_type": "hardlink",
        "sha256": "d9d6dd8a2b0d0c21b5fe47d2ac33d8d093986963ea615f46a15271f42d934c50",
        "sha256_in_prefix": "d9d6dd8a2b0d0c21b5fe47d2ac33d8d093986963ea615f46a15271f42d934c50",
        "size_in_bytes": 21810
      },
      {
        "_path": "include/unicode/symtable.h",
        "path_type": "hardlink",
        "sha256": "0ecc90ea2290ead7eec1abb713ae3c97fd4f2c9e561b22cf3428a75750b541ed",
        "sha256_in_prefix": "0ecc90ea2290ead7eec1abb713ae3c97fd4f2c9e561b22cf3428a75750b541ed",
        "size_in_bytes": 4374
      },
      {
        "_path": "include/unicode/tblcoll.h",
        "path_type": "hardlink",
        "sha256": "a6e9137da0e391977cf3fa04c0fffa083a532c841c48ce64f4aa7c0113ab652f",
        "sha256_in_prefix": "a6e9137da0e391977cf3fa04c0fffa083a532c841c48ce64f4aa7c0113ab652f",
        "size_in_bytes": 37489
      },
      {
        "_path": "include/unicode/timezone.h",
        "path_type": "hardlink",
        "sha256": "0b9f2bcf0a3140a0d40ad163ed46c8aaef18c08f9c3bb43c75025a699ed624b7",
        "sha256_in_prefix": "0b9f2bcf0a3140a0d40ad163ed46c8aaef18c08f9c3bb43c75025a699ed624b7",
        "size_in_bytes": 42005
      },
      {
        "_path": "include/unicode/tmunit.h",
        "path_type": "hardlink",
        "sha256": "559a6f81af6f95bb511e8742fa071984220703547f995441d71cbcc1ffac8f17",
        "sha256_in_prefix": "559a6f81af6f95bb511e8742fa071984220703547f995441d71cbcc1ffac8f17",
        "size_in_bytes": 3461
      },
      {
        "_path": "include/unicode/tmutamt.h",
        "path_type": "hardlink",
        "sha256": "f776ed4e8a8fa4a5f1a859aa42e79039977f847e640671a22e1b38e929795af6",
        "sha256_in_prefix": "f776ed4e8a8fa4a5f1a859aa42e79039977f847e640671a22e1b38e929795af6",
        "size_in_bytes": 5015
      },
      {
        "_path": "include/unicode/tmutfmt.h",
        "path_type": "hardlink",
        "sha256": "e7359e39bc454aa2ce755e9b0ba8252f6fcb68797d2f0c3a11d5332fecc322eb",
        "sha256_in_prefix": "e7359e39bc454aa2ce755e9b0ba8252f6fcb68797d2f0c3a11d5332fecc322eb",
        "size_in_bytes": 8042
      },
      {
        "_path": "include/unicode/translit.h",
        "path_type": "hardlink",
        "sha256": "743dfe3d5f6d14194875f90ab9c3f7b4d1bb92dbd2deb0e86468caaf2a0340e3",
        "sha256_in_prefix": "743dfe3d5f6d14194875f90ab9c3f7b4d1bb92dbd2deb0e86468caaf2a0340e3",
        "size_in_bytes": 67400
      },
      {
        "_path": "include/unicode/tzfmt.h",
        "path_type": "hardlink",
        "sha256": "1dd947f4c406394b4ae461e0733cb47bce013d145e78b8ece0763db432a3be5c",
        "sha256_in_prefix": "1dd947f4c406394b4ae461e0733cb47bce013d145e78b8ece0763db432a3be5c",
        "size_in_bytes": 43916
      },
      {
        "_path": "include/unicode/tznames.h",
        "path_type": "hardlink",
        "sha256": "a093d8efcc9f8ee23717192dd23ebf1dd9ac0dde85291a6fb16ba8f95cfb9c8f",
        "sha256_in_prefix": "a093d8efcc9f8ee23717192dd23ebf1dd9ac0dde85291a6fb16ba8f95cfb9c8f",
        "size_in_bytes": 17252
      },
      {
        "_path": "include/unicode/tzrule.h",
        "path_type": "hardlink",
        "sha256": "9effe6730cba569176ab7b56a60d31c4e17454d388a90e898b6da6bb3bd23593",
        "sha256_in_prefix": "9effe6730cba569176ab7b56a60d31c4e17454d388a90e898b6da6bb3bd23593",
        "size_in_bytes": 36215
      },
      {
        "_path": "include/unicode/tztrans.h",
        "path_type": "hardlink",
        "sha256": "87345a39ac47a17b1a06bf7f2c8b3edee81014e3deb78fbbb600ad46fb1e8349",
        "sha256_in_prefix": "87345a39ac47a17b1a06bf7f2c8b3edee81014e3deb78fbbb600ad46fb1e8349",
        "size_in_bytes": 6271
      },
      {
        "_path": "include/unicode/ubidi.h",
        "path_type": "hardlink",
        "sha256": "329b16ab49d5b0131f04aa95cfd04460e5e3ac4ff6e383769ca0cce5b2a854f2",
        "sha256_in_prefix": "329b16ab49d5b0131f04aa95cfd04460e5e3ac4ff6e383769ca0cce5b2a854f2",
        "size_in_bytes": 91711
      },
      {
        "_path": "include/unicode/ubiditransform.h",
        "path_type": "hardlink",
        "sha256": "d5dd148371cd7c33d55bf162b4b0db9a63e2cc2f21a2a3136ab5063492455295",
        "sha256_in_prefix": "d5dd148371cd7c33d55bf162b4b0db9a63e2cc2f21a2a3136ab5063492455295",
        "size_in_bytes": 12950
      },
      {
        "_path": "include/unicode/ubrk.h",
        "path_type": "hardlink",
        "sha256": "aa2857ac0d89e5308bbaad90f3885e8b9712a06f65b4480d62bae2fd91649e68",
        "sha256_in_prefix": "aa2857ac0d89e5308bbaad90f3885e8b9712a06f65b4480d62bae2fd91649e68",
        "size_in_bytes": 24547
      },
      {
        "_path": "include/unicode/ucal.h",
        "path_type": "hardlink",
        "sha256": "c39c2bd7fc4792692f9396bdd437ffedcb116782857d90b040b68b30635bc5d8",
        "sha256_in_prefix": "c39c2bd7fc4792692f9396bdd437ffedcb116782857d90b040b68b30635bc5d8",
        "size_in_bytes": 58265
      },
      {
        "_path": "include/unicode/ucasemap.h",
        "path_type": "hardlink",
        "sha256": "3d1d9e0b7d8098d0d33a5e1cf4fd1698d149f83a5fdc080f87723007c1ec95ee",
        "sha256_in_prefix": "3d1d9e0b7d8098d0d33a5e1cf4fd1698d149f83a5fdc080f87723007c1ec95ee",
        "size_in_bytes": 15546
      },
      {
        "_path": "include/unicode/ucat.h",
        "path_type": "hardlink",
        "sha256": "5b40c13daf19c4aee2e49d2c9711bd06a75998c3c0879c0b70bc8220af00745b",
        "sha256_in_prefix": "5b40c13daf19c4aee2e49d2c9711bd06a75998c3c0879c0b70bc8220af00745b",
        "size_in_bytes": 5484
      },
      {
        "_path": "include/unicode/uchar.h",
        "path_type": "hardlink",
        "sha256": "544b42b3517cc440728d2dfd38f876aa8292a193b163448230b09a47dede1fbc",
        "sha256_in_prefix": "544b42b3517cc440728d2dfd38f876aa8292a193b163448230b09a47dede1fbc",
        "size_in_bytes": 144630
      },
      {
        "_path": "include/unicode/ucharstrie.h",
        "path_type": "hardlink",
        "sha256": "282cce832a1811d4095d6fc9caaaec94db60c5e7778d58eb9bbda7536fc801f3",
        "sha256_in_prefix": "282cce832a1811d4095d6fc9caaaec94db60c5e7778d58eb9bbda7536fc801f3",
        "size_in_bytes": 23120
      },
      {
        "_path": "include/unicode/ucharstriebuilder.h",
        "path_type": "hardlink",
        "sha256": "392c6828a3a3a48bfecb63113d00bf93f5b110a0592e47c414d13183cec267cb",
        "sha256_in_prefix": "392c6828a3a3a48bfecb63113d00bf93f5b110a0592e47c414d13183cec267cb",
        "size_in_bytes": 7378
      },
      {
        "_path": "include/unicode/uchriter.h",
        "path_type": "hardlink",
        "sha256": "6f4ce455a4c9bbc26fdd77ed2d05423fe27bbb783e46edc61df8d1e2c5d52294",
        "sha256_in_prefix": "6f4ce455a4c9bbc26fdd77ed2d05423fe27bbb783e46edc61df8d1e2c5d52294",
        "size_in_bytes": 13521
      },
      {
        "_path": "include/unicode/uclean.h",
        "path_type": "hardlink",
        "sha256": "2459f343c49f76ba6125d0a5865e2ed82047ac479c7e910904b259b705f123e0",
        "sha256_in_prefix": "2459f343c49f76ba6125d0a5865e2ed82047ac479c7e910904b259b705f123e0",
        "size_in_bytes": 11474
      },
      {
        "_path": "include/unicode/ucnv.h",
        "path_type": "hardlink",
        "sha256": "4939f1f15df5a66dcfb0167c08f679160f974e3b3e5f67d97bb0bfb74db505c6",
        "sha256_in_prefix": "4939f1f15df5a66dcfb0167c08f679160f974e3b3e5f67d97bb0bfb74db505c6",
        "size_in_bytes": 85085
      },
      {
        "_path": "include/unicode/ucnv_cb.h",
        "path_type": "hardlink",
        "sha256": "4e76e049300b10d2a41c5db6ebb534f13300e57a49d8feaf68754ae6dd820262",
        "sha256_in_prefix": "4e76e049300b10d2a41c5db6ebb534f13300e57a49d8feaf68754ae6dd820262",
        "size_in_bytes": 6748
      },
      {
        "_path": "include/unicode/ucnv_err.h",
        "path_type": "hardlink",
        "sha256": "e3dfb2a3bfce30f1a008d46ab5c9eb344934bbd13e1ea3c0198142ea8c544d8b",
        "sha256_in_prefix": "e3dfb2a3bfce30f1a008d46ab5c9eb344934bbd13e1ea3c0198142ea8c544d8b",
        "size_in_bytes": 21492
      },
      {
        "_path": "include/unicode/ucnvsel.h",
        "path_type": "hardlink",
        "sha256": "1b635686118cf0dd54cd8944374a2b0a47a86c28f2e7752e51809e63818901a0",
        "sha256_in_prefix": "1b635686118cf0dd54cd8944374a2b0a47a86c28f2e7752e51809e63818901a0",
        "size_in_bytes": 6283
      },
      {
        "_path": "include/unicode/ucol.h",
        "path_type": "hardlink",
        "sha256": "2cdac5a59e1b74a09e21f4e2f01c5b1a5908b03521550e6952d1103ce8b211b1",
        "sha256_in_prefix": "2cdac5a59e1b74a09e21f4e2f01c5b1a5908b03521550e6952d1103ce8b211b1",
        "size_in_bytes": 62939
      },
      {
        "_path": "include/unicode/ucoleitr.h",
        "path_type": "hardlink",
        "sha256": "505085474889e380372f3012c4eb4cdc284989531b84a508e6f97a0a939d6885",
        "sha256_in_prefix": "505085474889e380372f3012c4eb4cdc284989531b84a508e6f97a0a939d6885",
        "size_in_bytes": 9684
      },
      {
        "_path": "include/unicode/uconfig.h",
        "path_type": "hardlink",
        "sha256": "9c00f86c06dfbc561cdf45f948394c08b6b5136d4212d13cd720a70a29440f5a",
        "sha256_in_prefix": "9c00f86c06dfbc561cdf45f948394c08b6b5136d4212d13cd720a70a29440f5a",
        "size_in_bytes": 12356
      },
      {
        "_path": "include/unicode/ucpmap.h",
        "path_type": "hardlink",
        "sha256": "52d290f1f6b0d9be08392df783e77fa1080b6e0c8eb158683dff6203b15268bf",
        "sha256_in_prefix": "52d290f1f6b0d9be08392df783e77fa1080b6e0c8eb158683dff6203b15268bf",
        "size_in_bytes": 5663
      },
      {
        "_path": "include/unicode/ucptrie.h",
        "path_type": "hardlink",
        "sha256": "d97606387f39e1d29d3c5b420233c05fa3d3c97e974f2c65e4c93476b8f26e35",
        "sha256_in_prefix": "d97606387f39e1d29d3c5b420233c05fa3d3c97e974f2c65e4c93476b8f26e35",
        "size_in_bytes": 23002
      },
      {
        "_path": "include/unicode/ucsdet.h",
        "path_type": "hardlink",
        "sha256": "1ffcf5092efa50b9c8b86362fc246e16cef1463380bd2e6efd28f46311d247a6",
        "sha256_in_prefix": "1ffcf5092efa50b9c8b86362fc246e16cef1463380bd2e6efd28f46311d247a6",
        "size_in_bytes": 15018
      },
      {
        "_path": "include/unicode/ucurr.h",
        "path_type": "hardlink",
        "sha256": "65597ac4ccf32b4e83c98496bf7312833c911ab8e1bbe0848da319169c907349",
        "sha256_in_prefix": "65597ac4ccf32b4e83c98496bf7312833c911ab8e1bbe0848da319169c907349",
        "size_in_bytes": 16507
      },
      {
        "_path": "include/unicode/udat.h",
        "path_type": "hardlink",
        "sha256": "d4f13dc1c22a25fee76d42602558f9adf87121a1de6ff38aa5d3c6dd8a8713fe",
        "sha256_in_prefix": "d4f13dc1c22a25fee76d42602558f9adf87121a1de6ff38aa5d3c6dd8a8713fe",
        "size_in_bytes": 62851
      },
      {
        "_path": "include/unicode/udata.h",
        "path_type": "hardlink",
        "sha256": "731adaa1089ad92c5dc4dd98239f73f60971fdb499de462a60daad12bdbed236",
        "sha256_in_prefix": "731adaa1089ad92c5dc4dd98239f73f60971fdb499de462a60daad12bdbed236",
        "size_in_bytes": 15930
      },
      {
        "_path": "include/unicode/udateintervalformat.h",
        "path_type": "hardlink",
        "sha256": "c7cfb7482200618d5c071352888ff6ecb52733547b7c32365381cecf2e67f849",
        "sha256_in_prefix": "c7cfb7482200618d5c071352888ff6ecb52733547b7c32365381cecf2e67f849",
        "size_in_bytes": 10995
      },
      {
        "_path": "include/unicode/udatpg.h",
        "path_type": "hardlink",
        "sha256": "dd3c8457187f3df5779d758c8c80b7cf12b8f56b2e156db157e76ca3b822c3b5",
        "sha256_in_prefix": "dd3c8457187f3df5779d758c8c80b7cf12b8f56b2e156db157e76ca3b822c3b5",
        "size_in_bytes": 27447
      },
      {
        "_path": "include/unicode/udisplaycontext.h",
        "path_type": "hardlink",
        "sha256": "7e90b6879415900e57950665b2262f652db8c2fbe94f450a380acddb71274a65",
        "sha256_in_prefix": "7e90b6879415900e57950665b2262f652db8c2fbe94f450a380acddb71274a65",
        "size_in_bytes": 6029
      },
      {
        "_path": "include/unicode/uenum.h",
        "path_type": "hardlink",
        "sha256": "337af2aea79dffed98bca55735c7a5e0dd8a50750802bc6ce94740ba2f2ae7fc",
        "sha256_in_prefix": "337af2aea79dffed98bca55735c7a5e0dd8a50750802bc6ce94740ba2f2ae7fc",
        "size_in_bytes": 7970
      },
      {
        "_path": "include/unicode/ufieldpositer.h",
        "path_type": "hardlink",
        "sha256": "87b79e842f212a333d2f523338033dd6d29683d50f9a8b6929695525ed82f3b5",
        "sha256_in_prefix": "87b79e842f212a333d2f523338033dd6d29683d50f9a8b6929695525ed82f3b5",
        "size_in_bytes": 4461
      },
      {
        "_path": "include/unicode/uformattable.h",
        "path_type": "hardlink",
        "sha256": "77ef6418c3ffb3dd7208329ee4ced716ac715ee2c416ef85c4c0ae788f232fd3",
        "sha256_in_prefix": "77ef6418c3ffb3dd7208329ee4ced716ac715ee2c416ef85c4c0ae788f232fd3",
        "size_in_bytes": 11198
      },
      {
        "_path": "include/unicode/uformattedvalue.h",
        "path_type": "hardlink",
        "sha256": "8daef98b8ecbe390e05bca7c219f8d1d49ef56fc29b3213f872ffe451ba12588",
        "sha256_in_prefix": "8daef98b8ecbe390e05bca7c219f8d1d49ef56fc29b3213f872ffe451ba12588",
        "size_in_bytes": 12413
      },
      {
        "_path": "include/unicode/ugender.h",
        "path_type": "hardlink",
        "sha256": "0f04eca52db0bb19937f56831d781635878d2031c0d26bab9b7dcc2060480852",
        "sha256_in_prefix": "0f04eca52db0bb19937f56831d781635878d2031c0d26bab9b7dcc2060480852",
        "size_in_bytes": 2052
      },
      {
        "_path": "include/unicode/uidna.h",
        "path_type": "hardlink",
        "sha256": "659840f95cf293df66dda2c0721fcb0791cd1ecb5c138849025ba540065867ba",
        "sha256_in_prefix": "659840f95cf293df66dda2c0721fcb0791cd1ecb5c138849025ba540065867ba",
        "size_in_bytes": 34169
      },
      {
        "_path": "include/unicode/uiter.h",
        "path_type": "hardlink",
        "sha256": "7349909024f947977ff8644813bc62d42780a57969d3134ca4544080643cbfa9",
        "sha256_in_prefix": "7349909024f947977ff8644813bc62d42780a57969d3134ca4544080643cbfa9",
        "size_in_bytes": 23319
      },
      {
        "_path": "include/unicode/uldnames.h",
        "path_type": "hardlink",
        "sha256": "aa41ef160a0e8a022d771af79ddee80d2cd5cd9cabe29fadb968466669388d03",
        "sha256_in_prefix": "aa41ef160a0e8a022d771af79ddee80d2cd5cd9cabe29fadb968466669388d03",
        "size_in_bytes": 10702
      },
      {
        "_path": "include/unicode/ulistformatter.h",
        "path_type": "hardlink",
        "sha256": "cddd66e9eff55195e1ccd2514203424bfc1c67a415d29830d0e127e945c5370b",
        "sha256_in_prefix": "cddd66e9eff55195e1ccd2514203424bfc1c67a415d29830d0e127e945c5370b",
        "size_in_bytes": 11086
      },
      {
        "_path": "include/unicode/uloc.h",
        "path_type": "hardlink",
        "sha256": "a2c41dab1d63016b36400b60bc226e298c563f3d87bda9c70439e7e09cac9a28",
        "sha256_in_prefix": "a2c41dab1d63016b36400b60bc226e298c563f3d87bda9c70439e7e09cac9a28",
        "size_in_bytes": 54432
      },
      {
        "_path": "include/unicode/ulocdata.h",
        "path_type": "hardlink",
        "sha256": "52deb53b80695d20e192ac9302ed94f45468fbd593aaaf95331f3f9c707b130d",
        "sha256_in_prefix": "52deb53b80695d20e192ac9302ed94f45468fbd593aaaf95331f3f9c707b130d",
        "size_in_bytes": 11533
      },
      {
        "_path": "include/unicode/umachine.h",
        "path_type": "hardlink",
        "sha256": "d815fac0ec6aa6cb294524c8115c84a21e9b03b2d4bd645546bfb0156c5f4b51",
        "sha256_in_prefix": "d815fac0ec6aa6cb294524c8115c84a21e9b03b2d4bd645546bfb0156c5f4b51",
        "size_in_bytes": 14884
      },
      {
        "_path": "include/unicode/umisc.h",
        "path_type": "hardlink",
        "sha256": "e1c0aef25cc4fe4cf8bcba885783512fd893086fee86fd64bf03f8cb3d110080",
        "sha256_in_prefix": "e1c0aef25cc4fe4cf8bcba885783512fd893086fee86fd64bf03f8cb3d110080",
        "size_in_bytes": 1365
      },
      {
        "_path": "include/unicode/umsg.h",
        "path_type": "hardlink",
        "sha256": "869eab7623d20c289873efc012469901bcce9082ee7d0ee31a1f0a0031e6f120",
        "sha256_in_prefix": "869eab7623d20c289873efc012469901bcce9082ee7d0ee31a1f0a0031e6f120",
        "size_in_bytes": 24812
      },
      {
        "_path": "include/unicode/umutablecptrie.h",
        "path_type": "hardlink",
        "sha256": "9f493ca95aeaec32344235ab123cb7d7190ccb2f48b81d25ea495b205c3cd342",
        "sha256_in_prefix": "9f493ca95aeaec32344235ab123cb7d7190ccb2f48b81d25ea495b205c3cd342",
        "size_in_bytes": 8435
      },
      {
        "_path": "include/unicode/unifilt.h",
        "path_type": "hardlink",
        "sha256": "d26fd3830d953527a68fa0e05c7b157b681e86f83cc90be454982992be505d90",
        "sha256_in_prefix": "d26fd3830d953527a68fa0e05c7b157b681e86f83cc90be454982992be505d90",
        "size_in_bytes": 4055
      },
      {
        "_path": "include/unicode/unifunct.h",
        "path_type": "hardlink",
        "sha256": "6762e17f5cce5212a4dde8cd9221364b9928aa07534231af533afe758150f891",
        "sha256_in_prefix": "6762e17f5cce5212a4dde8cd9221364b9928aa07534231af533afe758150f891",
        "size_in_bytes": 4141
      },
      {
        "_path": "include/unicode/unimatch.h",
        "path_type": "hardlink",
        "sha256": "c734cfc02c848c839d769e636b4524f1ef85c13317c3de94e69c733e177edc1b",
        "sha256_in_prefix": "c734cfc02c848c839d769e636b4524f1ef85c13317c3de94e69c733e177edc1b",
        "size_in_bytes": 6244
      },
      {
        "_path": "include/unicode/unirepl.h",
        "path_type": "hardlink",
        "sha256": "74c6aed4e1d2edeaf391684f31d7305bafa2b0c62743b920165d6e3f10259dd7",
        "sha256_in_prefix": "74c6aed4e1d2edeaf391684f31d7305bafa2b0c62743b920165d6e3f10259dd7",
        "size_in_bytes": 3464
      },
      {
        "_path": "include/unicode/uniset.h",
        "path_type": "hardlink",
        "sha256": "3f2f6b9537a3d12a900ce2ecfd2e908b14abdc24305c99fd88c1e63a4424beb6",
        "sha256_in_prefix": "3f2f6b9537a3d12a900ce2ecfd2e908b14abdc24305c99fd88c1e63a4424beb6",
        "size_in_bytes": 66459
      },
      {
        "_path": "include/unicode/unistr.h",
        "path_type": "hardlink",
        "sha256": "0ebaeaac9209750e1bc0734b4818fc6cc1edd3d54924401ece0157a8ceefab45",
        "sha256_in_prefix": "0ebaeaac9209750e1bc0734b4818fc6cc1edd3d54924401ece0157a8ceefab45",
        "size_in_bytes": 174523
      },
      {
        "_path": "include/unicode/unorm.h",
        "path_type": "hardlink",
        "sha256": "db046929d52184cbbed9b5cc4f82684ec8d102b386b659f29a8e7779c05176d7",
        "sha256_in_prefix": "db046929d52184cbbed9b5cc4f82684ec8d102b386b659f29a8e7779c05176d7",
        "size_in_bytes": 21015
      },
      {
        "_path": "include/unicode/unorm2.h",
        "path_type": "hardlink",
        "sha256": "0569fc4ade9aa03cd319e4992bf87daa8d69d205d79c54e257fdaf084a976534",
        "sha256_in_prefix": "0569fc4ade9aa03cd319e4992bf87daa8d69d205d79c54e257fdaf084a976534",
        "size_in_bytes": 25254
      },
      {
        "_path": "include/unicode/unum.h",
        "path_type": "hardlink",
        "sha256": "241835677c97d02a53fb4ca93d6ec1268e958d38187f31762f558694ef93733a",
        "sha256_in_prefix": "241835677c97d02a53fb4ca93d6ec1268e958d38187f31762f558694ef93733a",
        "size_in_bytes": 54743
      },
      {
        "_path": "include/unicode/unumberformatter.h",
        "path_type": "hardlink",
        "sha256": "f70a982d000bf06d24b0967f75003dad256b2f43ac376b22ae26fe168875223c",
        "sha256_in_prefix": "f70a982d000bf06d24b0967f75003dad256b2f43ac376b22ae26fe168875223c",
        "size_in_bytes": 25824
      },
      {
        "_path": "include/unicode/unumsys.h",
        "path_type": "hardlink",
        "sha256": "ef0696f58b4ce32e78f27588bec6bb2675acf2af9f9c301a899c758c9e4b20a1",
        "sha256_in_prefix": "ef0696f58b4ce32e78f27588bec6bb2675acf2af9f9c301a899c758c9e4b20a1",
        "size_in_bytes": 7387
      },
      {
        "_path": "include/unicode/uobject.h",
        "path_type": "hardlink",
        "sha256": "2730c82e66161dd9e70ece26aac597eab48c3bad8de22e7f85aba473e632a9a5",
        "sha256_in_prefix": "2730c82e66161dd9e70ece26aac597eab48c3bad8de22e7f85aba473e632a9a5",
        "size_in_bytes": 10936
      },
      {
        "_path": "include/unicode/upluralrules.h",
        "path_type": "hardlink",
        "sha256": "6536507195a059445b173e4810f6d7cd192c9aea21a1d0f1d50760f11b48e541",
        "sha256_in_prefix": "6536507195a059445b173e4810f6d7cd192c9aea21a1d0f1d50760f11b48e541",
        "size_in_bytes": 8013
      },
      {
        "_path": "include/unicode/uregex.h",
        "path_type": "hardlink",
        "sha256": "941a08755d10f2bb2b967dd26988c7029b9f4ae200be86323fc4b7787499abdf",
        "sha256_in_prefix": "941a08755d10f2bb2b967dd26988c7029b9f4ae200be86323fc4b7787499abdf",
        "size_in_bytes": 73784
      },
      {
        "_path": "include/unicode/uregion.h",
        "path_type": "hardlink",
        "sha256": "f13de170f152f91d47888d1553eb2cc8423bf7a508bf7524c2c0d3cc16bdbcb4",
        "sha256_in_prefix": "f13de170f152f91d47888d1553eb2cc8423bf7a508bf7524c2c0d3cc16bdbcb4",
        "size_in_bytes": 10073
      },
      {
        "_path": "include/unicode/ureldatefmt.h",
        "path_type": "hardlink",
        "sha256": "e550d710b10846bc831a9d079768bede9e889b9c30fc5783f10a61b0fca3a8bd",
        "sha256_in_prefix": "e550d710b10846bc831a9d079768bede9e889b9c30fc5783f10a61b0fca3a8bd",
        "size_in_bytes": 17409
      },
      {
        "_path": "include/unicode/urename.h",
        "path_type": "hardlink",
        "sha256": "5cd3fe2af6a32aadcd3b22262b5e7a23926eb13477e25ef730b946e3440eb42d",
        "sha256_in_prefix": "5cd3fe2af6a32aadcd3b22262b5e7a23926eb13477e25ef730b946e3440eb42d",
        "size_in_bytes": 134449
      },
      {
        "_path": "include/unicode/urep.h",
        "path_type": "hardlink",
        "sha256": "45327525a9a08ac044f401d7edcf60c7574a7cdbc29d2930d533987d6a214a48",
        "sha256_in_prefix": "45327525a9a08ac044f401d7edcf60c7574a7cdbc29d2930d533987d6a214a48",
        "size_in_bytes": 5507
      },
      {
        "_path": "include/unicode/ures.h",
        "path_type": "hardlink",
        "sha256": "a8e3b0f089e2aa6db9d08eef9e70e774b18d304d5e71e44e6b92c8f6846f4d47",
        "sha256_in_prefix": "a8e3b0f089e2aa6db9d08eef9e70e774b18d304d5e71e44e6b92c8f6846f4d47",
        "size_in_bytes": 37415
      },
      {
        "_path": "include/unicode/uscript.h",
        "path_type": "hardlink",
        "sha256": "ab82f90a5fdfbbdcd6b730a3198fb342c2523ae8ddf142ed0bc92038ec87a142",
        "sha256_in_prefix": "ab82f90a5fdfbbdcd6b730a3198fb342c2523ae8ddf142ed0bc92038ec87a142",
        "size_in_bytes": 27867
      },
      {
        "_path": "include/unicode/usearch.h",
        "path_type": "hardlink",
        "sha256": "4436a08211a1b3a7ec3d809df597ee1bd8ebaa39c2ea6fd79c68c840a8caa351",
        "sha256_in_prefix": "4436a08211a1b3a7ec3d809df597ee1bd8ebaa39c2ea6fd79c68c840a8caa351",
        "size_in_bytes": 39039
      },
      {
        "_path": "include/unicode/uset.h",
        "path_type": "hardlink",
        "sha256": "e286ef5b9a911f6f5defb95e4138693ef61697f129c5deac61758e48e0ad6365",
        "sha256_in_prefix": "e286ef5b9a911f6f5defb95e4138693ef61697f129c5deac61758e48e0ad6365",
        "size_in_bytes": 40958
      },
      {
        "_path": "include/unicode/usetiter.h",
        "path_type": "hardlink",
        "sha256": "c4b53899a6e3cd5a987851b0e38997656514151cb6447cc449e7bc3b05b08965",
        "sha256_in_prefix": "c4b53899a6e3cd5a987851b0e38997656514151cb6447cc449e7bc3b05b08965",
        "size_in_bytes": 9781
      },
      {
        "_path": "include/unicode/ushape.h",
        "path_type": "hardlink",
        "sha256": "c90c003dc71c5624130b73ff7cd88b715f4cb3a28044e0d802a697870374aba1",
        "sha256_in_prefix": "c90c003dc71c5624130b73ff7cd88b715f4cb3a28044e0d802a697870374aba1",
        "size_in_bytes": 18432
      },
      {
        "_path": "include/unicode/uspoof.h",
        "path_type": "hardlink",
        "sha256": "7e86d7439fcb3133b9cd98e102ebe90ead11b521b436d31e352bf4613fc5bc0d",
        "sha256_in_prefix": "7e86d7439fcb3133b9cd98e102ebe90ead11b521b436d31e352bf4613fc5bc0d",
        "size_in_bytes": 67480
      },
      {
        "_path": "include/unicode/usprep.h",
        "path_type": "hardlink",
        "sha256": "56e6ac57b1011a817c0c9cbf38f2041be95ff2738ebcaee1522b58dd0538fb0c",
        "sha256_in_prefix": "56e6ac57b1011a817c0c9cbf38f2041be95ff2738ebcaee1522b58dd0538fb0c",
        "size_in_bytes": 8331
      },
      {
        "_path": "include/unicode/ustdio.h",
        "path_type": "hardlink",
        "sha256": "4d89cd64e7cefcdd652f9b1e4d0eecd2e2fe4e5bca6ad953298ea4a0b87511f8",
        "sha256_in_prefix": "4d89cd64e7cefcdd652f9b1e4d0eecd2e2fe4e5bca6ad953298ea4a0b87511f8",
        "size_in_bytes": 39469
      },
      {
        "_path": "include/unicode/ustream.h",
        "path_type": "hardlink",
        "sha256": "7843c061c7b88335e8afe4e719577444ba69de8a6d23873060f722b69dca3c5a",
        "sha256_in_prefix": "7843c061c7b88335e8afe4e719577444ba69de8a6d23873060f722b69dca3c5a",
        "size_in_bytes": 1934
      },
      {
        "_path": "include/unicode/ustring.h",
        "path_type": "hardlink",
        "sha256": "c2044673e6d0c19920a3eea2b45b2d316ba08261367317d2db6bdc50d1421ea2",
        "sha256_in_prefix": "c2044673e6d0c19920a3eea2b45b2d316ba08261367317d2db6bdc50d1421ea2",
        "size_in_bytes": 74211
      },
      {
        "_path": "include/unicode/ustringtrie.h",
        "path_type": "hardlink",
        "sha256": "5c9caacdad2a74a72890e24071fa6b1a96cd0ebb774452afba79e1d1ff7aa4eb",
        "sha256_in_prefix": "5c9caacdad2a74a72890e24071fa6b1a96cd0ebb774452afba79e1d1ff7aa4eb",
        "size_in_bytes": 3224
      },
      {
        "_path": "include/unicode/utext.h",
        "path_type": "hardlink",
        "sha256": "94c2f7736c56808af3cc8c07dfc3b5d9348826a7270e3677c46fd509d993a0f5",
        "sha256_in_prefix": "94c2f7736c56808af3cc8c07dfc3b5d9348826a7270e3677c46fd509d993a0f5",
        "size_in_bytes": 59527
      },
      {
        "_path": "include/unicode/utf.h",
        "path_type": "hardlink",
        "sha256": "dfd6c21cf46ec983944d165b6446c1853f47bce992ba96b9364af5d7d0ae4b58",
        "sha256_in_prefix": "dfd6c21cf46ec983944d165b6446c1853f47bce992ba96b9364af5d7d0ae4b58",
        "size_in_bytes": 8046
      },
      {
        "_path": "include/unicode/utf16.h",
        "path_type": "hardlink",
        "sha256": "c370d9069f37fad2b53981c06dc648bbc21923db1655517a31bb237df4fba041",
        "sha256_in_prefix": "c370d9069f37fad2b53981c06dc648bbc21923db1655517a31bb237df4fba041",
        "size_in_bytes": 23878
      },
      {
        "_path": "include/unicode/utf32.h",
        "path_type": "hardlink",
        "sha256": "5d011b08161a4ad3cbe0d31bfeb0c76fffb6c6fe832eb9c76f4d2fde1e00b1c6",
        "sha256_in_prefix": "5d011b08161a4ad3cbe0d31bfeb0c76fffb6c6fe832eb9c76f4d2fde1e00b1c6",
        "size_in_bytes": 763
      },
      {
        "_path": "include/unicode/utf8.h",
        "path_type": "hardlink",
        "sha256": "42ec5f63808ac44cd0b01abba7dbffbb5a890a29290eb8d15249e3646f66ad08",
        "sha256_in_prefix": "42ec5f63808ac44cd0b01abba7dbffbb5a890a29290eb8d15249e3646f66ad08",
        "size_in_bytes": 31700
      },
      {
        "_path": "include/unicode/utf_old.h",
        "path_type": "hardlink",
        "sha256": "f75da7e0f28ebceb7c99b2445df479e1fca67cc2fa3dc0a807d731a413711b08",
        "sha256_in_prefix": "f75da7e0f28ebceb7c99b2445df479e1fca67cc2fa3dc0a807d731a413711b08",
        "size_in_bytes": 46929
      },
      {
        "_path": "include/unicode/utmscale.h",
        "path_type": "hardlink",
        "sha256": "b76350fbcfcca02332beffbacfc0a94576293b7bd5b2e9855dcbdcd583f0ad86",
        "sha256_in_prefix": "b76350fbcfcca02332beffbacfc0a94576293b7bd5b2e9855dcbdcd583f0ad86",
        "size_in_bytes": 14113
      },
      {
        "_path": "include/unicode/utrace.h",
        "path_type": "hardlink",
        "sha256": "2e4b0a9f6f526f96c8603ae6760ddc473c00340a9db5118864b7647a5f905f0a",
        "sha256_in_prefix": "2e4b0a9f6f526f96c8603ae6760ddc473c00340a9db5118864b7647a5f905f0a",
        "size_in_bytes": 17706
      },
      {
        "_path": "include/unicode/utrans.h",
        "path_type": "hardlink",
        "sha256": "25ea789d0eeafb41a55ade8fecaa98d436637105a6daab5d2881d89d12e44fbf",
        "sha256_in_prefix": "25ea789d0eeafb41a55ade8fecaa98d436637105a6daab5d2881d89d12e44fbf",
        "size_in_bytes": 26130
      },
      {
        "_path": "include/unicode/utypes.h",
        "path_type": "hardlink",
        "sha256": "4d0ef2890a0bf7787301f7c015ac3f29fcf231bb7fec54894fb96f7433c0e270",
        "sha256_in_prefix": "4d0ef2890a0bf7787301f7c015ac3f29fcf231bb7fec54894fb96f7433c0e270",
        "size_in_bytes": 31481
      },
      {
        "_path": "include/unicode/uvernum.h",
        "path_type": "hardlink",
        "sha256": "b1a313f7116cf9f128d1987678d6751e8ef7de08b1395cecf75bd487c4b5ea39",
        "sha256_in_prefix": "b1a313f7116cf9f128d1987678d6751e8ef7de08b1395cecf75bd487c4b5ea39",
        "size_in_bytes": 6832
      },
      {
        "_path": "include/unicode/uversion.h",
        "path_type": "hardlink",
        "sha256": "2a472cf9d81a2c2b81ac0e6fa32b0a9097f8b111dfd95a7ff30506e298d1660f",
        "sha256_in_prefix": "2a472cf9d81a2c2b81ac0e6fa32b0a9097f8b111dfd95a7ff30506e298d1660f",
        "size_in_bytes": 6145
      },
      {
        "_path": "include/unicode/vtzone.h",
        "path_type": "hardlink",
        "sha256": "8b8b2d669fa38f2124dade8ee7a4cb2e138f86a2c9b1e212e4169d9df29850ff",
        "sha256_in_prefix": "8b8b2d669fa38f2124dade8ee7a4cb2e138f86a2c9b1e212e4169d9df29850ff",
        "size_in_bytes": 20784
      },
      {
        "_path": "lib/icu/67.1/Makefile.inc",
        "file_mode": "text",
        "path_type": "hardlink",
        "prefix_placeholder": "/home/conda/feedstock_root/build_artifacts/icu_1588856482222/_h_env_placehold_placehold_placehold_placehold_placehold_placehold_placehold_placehold_placehold_placehold_placehold_placehold_placehold_placehold_placehold_placehold_placehold_placehold_placeho",
        "sha256": "b9cc96479db76c4e92b171fb71491740cbf362842300c56c911b9365e0ad2e71",
        "sha256_in_prefix": "9ab58216d32f2ac2a5c48df37a614a21c3e812d8b27d7cfad50ab714585409d3",
        "size_in_bytes": 10580
      },
      {
        "_path": "lib/icu/67.1/pkgdata.inc",
        "file_mode": "text",
        "path_type": "hardlink",
        "prefix_placeholder": "/home/conda/feedstock_root/build_artifacts/icu_1588856482222/_h_env_placehold_placehold_placehold_placehold_placehold_placehold_placehold_placehold_placehold_placehold_placehold_placehold_placehold_placehold_placehold_placehold_placehold_placehold_placeho",
        "sha256": "ff9e8b5380b3bf2d5ebafdfa5bd70d754b280b518022abbb20538cc8367be116",
        "sha256_in_prefix": "91cd90b5d9ccef40025403988e16ceaa487be30d175c0212eb4ed72b1e2a9816",
        "size_in_bytes": 4137
      },
      {
        "_path": "lib/icu/Makefile.inc",
        "path_type": "softlink",
        "sha256": "b9cc96479db76c4e92b171fb71491740cbf362842300c56c911b9365e0ad2e71",
        "size_in_bytes": 10580
      },
      {
        "_path": "lib/icu/current",
        "path_type": "softlink",
        "sha256": "e3b0c44298fc1c149afbf4c8996fb92427ae41e4649b934ca495991b7852b855",
        "size_in_bytes": 0
      },
      {
        "_path": "lib/icu/pkgdata.inc",
        "path_type": "softlink",
        "sha256": "ff9e8b5380b3bf2d5ebafdfa5bd70d754b280b518022abbb20538cc8367be116",
        "size_in_bytes": 4137
      },
      {
        "_path": "lib/libicudata.so",
        "path_type": "softlink",
        "sha256": "250c1937914f92d426333dce1df72bb5107e38bab328e91696e787fe47e2b82d",
        "size_in_bytes": 28402712
      },
      {
        "_path": "lib/libicudata.so.67",
        "path_type": "softlink",
        "sha256": "250c1937914f92d426333dce1df72bb5107e38bab328e91696e787fe47e2b82d",
        "size_in_bytes": 28402712
      },
      {
        "_path": "lib/libicudata.so.67.1",
        "path_type": "hardlink",
        "sha256": "250c1937914f92d426333dce1df72bb5107e38bab328e91696e787fe47e2b82d",
        "sha256_in_prefix": "250c1937914f92d426333dce1df72bb5107e38bab328e91696e787fe47e2b82d",
        "size_in_bytes": 28402712
      },
      {
        "_path": "lib/libicui18n.so",
        "path_type": "softlink",
        "sha256": "b3ed794a09c8ad679de2c0d866d460cb0c8de7171f2eef1dbc8a39d4540f5348",
        "size_in_bytes": 3855936
      },
      {
        "_path": "lib/libicui18n.so.67",
        "path_type": "softlink",
        "sha256": "b3ed794a09c8ad679de2c0d866d460cb0c8de7171f2eef1dbc8a39d4540f5348",
        "size_in_bytes": 3855936
      },
      {
        "_path": "lib/libicui18n.so.67.1",
        "path_type": "hardlink",
        "sha256": "b3ed794a09c8ad679de2c0d866d460cb0c8de7171f2eef1dbc8a39d4540f5348",
        "sha256_in_prefix": "b3ed794a09c8ad679de2c0d866d460cb0c8de7171f2eef1dbc8a39d4540f5348",
        "size_in_bytes": 3855936
      },
      {
        "_path": "lib/libicuio.so",
        "path_type": "softlink",
        "sha256": "d277e55f51b712404c9b8a7c7896e00c0697e99feaeb5aa06d0a3dd420449cb6",
        "size_in_bytes": 73672
      },
      {
        "_path": "lib/libicuio.so.67",
        "path_type": "softlink",
        "sha256": "d277e55f51b712404c9b8a7c7896e00c0697e99feaeb5aa06d0a3dd420449cb6",
        "size_in_bytes": 73672
      },
      {
        "_path": "lib/libicuio.so.67.1",
        "path_type": "hardlink",
        "sha256": "d277e55f51b712404c9b8a7c7896e00c0697e99feaeb5aa06d0a3dd420449cb6",
        "sha256_in_prefix": "d277e55f51b712404c9b8a7c7896e00c0697e99feaeb5aa06d0a3dd420449cb6",
        "size_in_bytes": 73672
      },
      {
        "_path": "lib/libicutest.so",
        "path_type": "softlink",
        "sha256": "57db716dc79638fc52be8b32e80f0e869c31798672c5aac5a7cb5703d91b4796",
        "size_in_bytes": 96128
      },
      {
        "_path": "lib/libicutest.so.67",
        "path_type": "softlink",
        "sha256": "57db716dc79638fc52be8b32e80f0e869c31798672c5aac5a7cb5703d91b4796",
        "size_in_bytes": 96128
      },
      {
        "_path": "lib/libicutest.so.67.1",
        "path_type": "hardlink",
        "sha256": "57db716dc79638fc52be8b32e80f0e869c31798672c5aac5a7cb5703d91b4796",
        "sha256_in_prefix": "57db716dc79638fc52be8b32e80f0e869c31798672c5aac5a7cb5703d91b4796",
        "size_in_bytes": 96128
      },
      {
        "_path": "lib/libicutu.so",
        "path_type": "softlink",
        "sha256": "6b9e139242c40b241405e60736dd223583f8d7d5d8b3ada167c295c8460d87cc",
        "size_in_bytes": 258592
      },
      {
        "_path": "lib/libicutu.so.67",
        "path_type": "softlink",
        "sha256": "6b9e139242c40b241405e60736dd223583f8d7d5d8b3ada167c295c8460d87cc",
        "size_in_bytes": 258592
      },
      {
        "_path": "lib/libicutu.so.67.1",
        "path_type": "hardlink",
        "sha256": "6b9e139242c40b241405e60736dd223583f8d7d5d8b3ada167c295c8460d87cc",
        "sha256_in_prefix": "6b9e139242c40b241405e60736dd223583f8d7d5d8b3ada167c295c8460d87cc",
        "size_in_bytes": 258592
      },
      {
        "_path": "lib/libicuuc.so",
        "path_type": "softlink",
        "sha256": "b755d9071af719a487b58cd1d7d002b435339da60e2ce1c40c9b9db5381861e0",
        "size_in_bytes": 2298464
      },
      {
        "_path": "lib/libicuuc.so.67",
        "path_type": "softlink",
        "sha256": "b755d9071af719a487b58cd1d7d002b435339da60e2ce1c40c9b9db5381861e0",
        "size_in_bytes": 2298464
      },
      {
        "_path": "lib/libicuuc.so.67.1",
        "path_type": "hardlink",
        "sha256": "b755d9071af719a487b58cd1d7d002b435339da60e2ce1c40c9b9db5381861e0",
        "sha256_in_prefix": "b755d9071af719a487b58cd1d7d002b435339da60e2ce1c40c9b9db5381861e0",
        "size_in_bytes": 2298464
      },
      {
        "_path": "lib/pkgconfig/icu-i18n.pc",
        "file_mode": "text",
        "path_type": "hardlink",
        "prefix_placeholder": "/home/conda/feedstock_root/build_artifacts/icu_1588856482222/_h_env_placehold_placehold_placehold_placehold_placehold_placehold_placehold_placehold_placehold_placehold_placehold_placehold_placehold_placehold_placehold_placehold_placehold_placehold_placeho",
        "sha256": "13fb102371bbe6fa2053563e9aad104a23f01a6d04271db143dbe527c3266265",
        "sha256_in_prefix": "1dcf8110d54eec8ff8ff9b5d2a2e19675f59cee3175780ba1af3ae7c9ed8d43c",
        "size_in_bytes": 1491
      },
      {
        "_path": "lib/pkgconfig/icu-io.pc",
        "file_mode": "text",
        "path_type": "hardlink",
        "prefix_placeholder": "/home/conda/feedstock_root/build_artifacts/icu_1588856482222/_h_env_placehold_placehold_placehold_placehold_placehold_placehold_placehold_placehold_placehold_placehold_placehold_placehold_placehold_placehold_placehold_placehold_placehold_placehold_placeho",
        "sha256": "f58d4b424856638b4f468b0020499c1e351276ad8e0315aaa7258520a9a2b1b9",
        "sha256_in_prefix": "39ebd7e46822fa56f8df853805d06a552fe930d962e35fc848e12629f54b356c",
        "size_in_bytes": 1483
      },
      {
        "_path": "lib/pkgconfig/icu-uc.pc",
        "file_mode": "text",
        "path_type": "hardlink",
        "prefix_placeholder": "/home/conda/feedstock_root/build_artifacts/icu_1588856482222/_h_env_placehold_placehold_placehold_placehold_placehold_placehold_placehold_placehold_placehold_placehold_placehold_placehold_placehold_placehold_placehold_placehold_placehold_placehold_placeho",
        "sha256": "a12107f5bfb94d0b5a33d64955b2240e4ba49331736f8a28b279a1eca43100c0",
        "sha256_in_prefix": "b9e00fa77c9a636c4a5f00df3e100909efb94fbadb6e4d3172bf1b0af4f243b3",
        "size_in_bytes": 1515
      },
      {
        "_path": "share/icu/67.1/LICENSE",
        "path_type": "hardlink",
        "sha256": "25e21013a7bc2fad735e28c5278a120e4c7f1c327c8c8b9b4df1751748cddbb2",
        "sha256_in_prefix": "25e21013a7bc2fad735e28c5278a120e4c7f1c327c8c8b9b4df1751748cddbb2",
        "size_in_bytes": 21001
      },
      {
        "_path": "share/icu/67.1/config/mh-linux",
        "path_type": "hardlink",
        "sha256": "548f780bb9caba18bfe613d4b8317f66ab0f07c58abfb7d9d6c0aa88c4fe9e74",
        "sha256_in_prefix": "548f780bb9caba18bfe613d4b8317f66ab0f07c58abfb7d9d6c0aa88c4fe9e74",
        "size_in_bytes": 2557
      },
      {
        "_path": "share/icu/67.1/install-sh",
        "path_type": "hardlink",
        "sha256": "810eb763e74ce800e5e90b8b2500137c45cedc05411f05da36a147d37cc1e20d",
        "sha256_in_prefix": "810eb763e74ce800e5e90b8b2500137c45cedc05411f05da36a147d37cc1e20d",
        "size_in_bytes": 5598
      },
      {
        "_path": "share/icu/67.1/mkinstalldirs",
        "path_type": "hardlink",
        "sha256": "8a9a3519bcec07a6688201483dd0dab54c5e2cb056a708d7df45486203d33d5f",
        "sha256_in_prefix": "8a9a3519bcec07a6688201483dd0dab54c5e2cb056a708d7df45486203d33d5f",
        "size_in_bytes": 1057
      },
      {
        "_path": "share/man/man1/derb.1",
        "path_type": "hardlink",
        "sha256": "eba382e16b1be124566f26f543a01edf355bffdd6bee5163e68a566ff6c15467",
        "sha256_in_prefix": "eba382e16b1be124566f26f543a01edf355bffdd6bee5163e68a566ff6c15467",
        "size_in_bytes": 4913
      },
      {
        "_path": "share/man/man1/genbrk.1",
        "path_type": "hardlink",
        "sha256": "fae2fa3b1fc5e06b6b067bfe1a59146216c5dad73c5d534051f6d8d7b3785510",
        "sha256_in_prefix": "fae2fa3b1fc5e06b6b067bfe1a59146216c5dad73c5d534051f6d8d7b3785510",
        "size_in_bytes": 2957
      },
      {
        "_path": "share/man/man1/gencfu.1",
        "path_type": "hardlink",
        "sha256": "c0cc364fe38fb483c84786936b4fb522e655948afe68161856b697c5252c3ad5",
        "sha256_in_prefix": "c0cc364fe38fb483c84786936b4fb522e655948afe68161856b697c5252c3ad5",
        "size_in_bytes": 2460
      },
      {
        "_path": "share/man/man1/gencnval.1",
        "path_type": "hardlink",
        "sha256": "2cc83ef7e1f9330f284ebe425a4fcdc3eb00e2c54d996995d65780f0d521d279",
        "sha256_in_prefix": "2cc83ef7e1f9330f284ebe425a4fcdc3eb00e2c54d996995d65780f0d521d279",
        "size_in_bytes": 2395
      },
      {
        "_path": "share/man/man1/gendict.1",
        "path_type": "hardlink",
        "sha256": "eb193cf41ca1626b379d6d35beff9f38934fbc4665e7aaf38123955308d4f1d1",
        "sha256_in_prefix": "eb193cf41ca1626b379d6d35beff9f38934fbc4665e7aaf38123955308d4f1d1",
        "size_in_bytes": 3399
      },
      {
        "_path": "share/man/man1/genrb.1",
        "path_type": "hardlink",
        "sha256": "acc942c245b43f005426bb34f24357c57c2293dec695b856e41102d3e068dae2",
        "sha256_in_prefix": "acc942c245b43f005426bb34f24357c57c2293dec695b856e41102d3e068dae2",
        "size_in_bytes": 3916
      },
      {
        "_path": "share/man/man1/icu-config.1",
        "path_type": "hardlink",
        "sha256": "099d015905ceb376540a32ea902b8f860b1de7814e31d6f53bc3b0d50028750b",
        "sha256_in_prefix": "099d015905ceb376540a32ea902b8f860b1de7814e31d6f53bc3b0d50028750b",
        "size_in_bytes": 7453
      },
      {
        "_path": "share/man/man1/makeconv.1",
        "path_type": "hardlink",
        "sha256": "758c9f82db1a44a812e6af3053db76777e8913832a9de56ef008b59524cd411f",
        "sha256_in_prefix": "758c9f82db1a44a812e6af3053db76777e8913832a9de56ef008b59524cd411f",
        "size_in_bytes": 3362
      },
      {
        "_path": "share/man/man1/pkgdata.1",
        "path_type": "hardlink",
        "sha256": "707ac428f481dbec0bcc87a0057661d07a8425caa66444ba139063f2eecf2854",
        "sha256_in_prefix": "707ac428f481dbec0bcc87a0057661d07a8425caa66444ba139063f2eecf2854",
        "size_in_bytes": 7089
      },
      {
        "_path": "share/man/man8/genccode.8",
        "path_type": "hardlink",
        "sha256": "91584de79b1802a5eb66b873368ad0ac2636416ae7a6d7d71ff579e7ceaf8e16",
        "sha256_in_prefix": "91584de79b1802a5eb66b873368ad0ac2636416ae7a6d7d71ff579e7ceaf8e16",
        "size_in_bytes": 2934
      },
      {
        "_path": "share/man/man8/gencmn.8",
        "path_type": "hardlink",
        "sha256": "a15ba6a0b638f59c592c23e0a3c9f2979b03c8dc24ed2301538ee29e43016573",
        "sha256_in_prefix": "a15ba6a0b638f59c592c23e0a3c9f2979b03c8dc24ed2301538ee29e43016573",
        "size_in_bytes": 3332
      },
      {
        "_path": "share/man/man8/gensprep.8",
        "path_type": "hardlink",
        "sha256": "0714003472b18beba740af62d00cbcbe5f279c10aea89f9570e50fa1e6d6c717",
        "sha256_in_prefix": "0714003472b18beba740af62d00cbcbe5f279c10aea89f9570e50fa1e6d6c717",
        "size_in_bytes": 2719
      },
      {
        "_path": "share/man/man8/icupkg.8",
        "path_type": "hardlink",
        "sha256": "a0514ff6110a4c7be3a423888730c9c954f687f2f11fab1bad1d1aa406a4f84c",
        "sha256_in_prefix": "a0514ff6110a4c7be3a423888730c9c954f687f2f11fab1bad1d1aa406a4f84c",
        "size_in_bytes": 5109
      }
    ],
    "paths_version": 1
  },
  "requested_spec": "None",
  "sha256": "755102651e25f3c024f1ae4c54d770a5e7079961e0074b794edabf55dec74b14",
  "size": 13476528,
  "subdir": "linux-64",
  "timestamp": 1588856780196,
  "track_features": "",
  "url": "https://conda.anaconda.org/conda-forge/linux-64/icu-67.1-he1b5a44_0.tar.bz2",
  "version": "67.1"
}