{
  "build": "hfafb76e_3",
  "build_number": 3,
  "channel": "https://conda.anaconda.org/conda-forge/linux-64",
  "constrains": [],
  "depends": [
    "libedit >=3.1.20191231,<3.2.0a0",
    "libedit >=3.1.20191231,<4.0a0",
    "libgcc-ng >=7.5.0",
    "libstdcxx-ng >=7.5.0",
    "openssl >=1.1.1g,<1.1.2a",
    "tk >=8.6.10,<8.7.0a0"
  ],
  "extracted_package_dir": "/home/sam/anaconda3/pkgs/krb5-1.17.1-hfafb76e_3",
  "features": "",
  "files": [
    "bin/compile_et",
    "bin/gss-client",
    "bin/k5srvutil",
    "bin/kadmin",
    "bin/kdestroy",
    "bin/kinit",
    "bin/klist",
    "bin/kpasswd",
    "bin/krb5-config",
    "bin/ksu",
    "bin/kswitch",
    "bin/ktutil",
    "bin/kvno",
    "bin/sclient",
    "bin/sim_client",
    "bin/uuclient",
    "include/com_err.h",
    "include/gssapi.h",
    "include/gssapi/gssapi.h",
    "include/gssapi/gssapi_ext.h",
    "include/gssapi/gssapi_generic.h",
    "include/gssapi/gssapi_krb5.h",
    "include/gssapi/mechglue.h",
    "include/gssrpc/auth.h",
    "include/gssrpc/auth_gss.h",
    "include/gssrpc/auth_gssapi.h",
    "include/gssrpc/auth_unix.h",
    "include/gssrpc/clnt.h",
    "include/gssrpc/netdb.h",
    "include/gssrpc/pmap_clnt.h",
    "include/gssrpc/pmap_prot.h",
    "include/gssrpc/pmap_rmt.h",
    "include/gssrpc/rename.h",
    "include/gssrpc/rpc.h",
    "include/gssrpc/rpc_msg.h",
    "include/gssrpc/svc.h",
    "include/gssrpc/svc_auth.h",
    "include/gssrpc/types.h",
    "include/gssrpc/xdr.h",
    "include/kadm5/admin.h",
    "include/kadm5/chpass_util_strings.h",
    "include/kadm5/kadm_err.h",
    "include/kdb.h",
    "include/krad.h",
    "include/krb5.h",
    "include/krb5/ccselect_plugin.h",
    "include/krb5/certauth_plugin.h",
    "include/krb5/clpreauth_plugin.h",
    "include/krb5/hostrealm_plugin.h",
    "include/krb5/kadm5_auth_plugin.h",
    "include/krb5/kadm5_hook_plugin.h",
    "include/krb5/kdcpolicy_plugin.h",
    "include/krb5/kdcpreauth_plugin.h",
    "include/krb5/krb5.h",
    "include/krb5/localauth_plugin.h",
    "include/krb5/locate_plugin.h",
    "include/krb5/plugin.h",
    "include/krb5/preauth_plugin.h",
    "include/krb5/pwqual_plugin.h",
    "include/profile.h",
    "include/verto-module.h",
    "include/verto.h",
    "lib/krb5/plugins/kdb/db2.so",
    "lib/krb5/plugins/preauth/otp.so",
    "lib/krb5/plugins/preauth/pkinit.so",
    "lib/krb5/plugins/preauth/spake.so",
    "lib/krb5/plugins/preauth/test.so",
    "lib/krb5/plugins/tls/k5tls.so",
    "lib/libcom_err.so",
    "lib/libcom_err.so.3",
    "lib/libcom_err.so.3.0",
    "lib/libgssapi_krb5.so",
    "lib/libgssapi_krb5.so.2",
    "lib/libgssapi_krb5.so.2.2",
    "lib/libgssrpc.so",
    "lib/libgssrpc.so.4",
    "lib/libgssrpc.so.4.2",
    "lib/libk5crypto.so",
    "lib/libk5crypto.so.3",
    "lib/libk5crypto.so.3.1",
    "lib/libkadm5clnt.so",
    "lib/libkadm5clnt_mit.so",
    "lib/libkadm5clnt_mit.so.11",
    "lib/libkadm5clnt_mit.so.11.0",
    "lib/libkadm5srv.so",
    "lib/libkadm5srv_mit.so",
    "lib/libkadm5srv_mit.so.11",
    "lib/libkadm5srv_mit.so.11.0",
    "lib/libkdb5.so",
    "lib/libkdb5.so.9",
    "lib/libkdb5.so.9.0",
    "lib/libkrad.so",
    "lib/libkrad.so.0",
    "lib/libkrad.so.0.0",
    "lib/libkrb5.so",
    "lib/libkrb5.so.3",
    "lib/libkrb5.so.3.3",
    "lib/libkrb5support.so",
    "lib/libkrb5support.so.0",
    "lib/libkrb5support.so.0.1",
    "lib/libverto.so",
    "lib/libverto.so.0",
    "lib/libverto.so.0.0",
    "lib/pkgconfig/gssrpc.pc",
    "lib/pkgconfig/kadm-client.pc",
    "lib/pkgconfig/kadm-server.pc",
    "lib/pkgconfig/kdb.pc",
    "lib/pkgconfig/krb5-gssapi.pc",
    "lib/pkgconfig/krb5.pc",
    "lib/pkgconfig/mit-krb5-gssapi.pc",
    "lib/pkgconfig/mit-krb5.pc",
    "sbin/gss-server",
    "sbin/kadmin.local",
    "sbin/kadmind",
    "sbin/kdb5_util",
    "sbin/kprop",
    "sbin/kpropd",
    "sbin/kproplog",
    "sbin/krb5-send-pr",
    "sbin/krb5kdc",
    "sbin/sim_server",
    "sbin/sserver",
    "sbin/uuserver",
    "share/et/et_c.awk",
    "share/et/et_h.awk",
    "share/examples/krb5/kdc.conf",
    "share/examples/krb5/krb5.conf",
    "share/examples/krb5/services.append",
    "share/locale/de/LC_MESSAGES/mit-krb5.mo",
    "share/locale/en_US/LC_MESSAGES/mit-krb5.mo",
    "share/man/man1/compile_et.1",
    "share/man/man1/k5srvutil.1",
    "share/man/man1/kadmin.1",
    "share/man/man1/kdestroy.1",
    "share/man/man1/kinit.1",
    "share/man/man1/klist.1",
    "share/man/man1/kpasswd.1",
    "share/man/man1/krb5-config.1",
    "share/man/man1/ksu.1",
    "share/man/man1/kswitch.1",
    "share/man/man1/ktutil.1",
    "share/man/man1/kvno.1",
    "share/man/man1/sclient.1",
    "share/man/man5/.k5identity.5",
    "share/man/man5/.k5login.5",
    "share/man/man5/k5identity.5",
    "share/man/man5/k5login.5",
    "share/man/man5/kadm5.acl.5",
    "share/man/man5/kdc.conf.5",
    "share/man/man5/krb5.conf.5",
    "share/man/man7/kerberos.7",
    "share/man/man8/kadmin.local.8",
    "share/man/man8/kadmind.8",
    "share/man/man8/kdb5_ldap_util.8",
    "share/man/man8/kdb5_util.8",
    "share/man/man8/kprop.8",
    "share/man/man8/kpropd.8",
    "share/man/man8/kproplog.8",
    "share/man/man8/krb5kdc.8",
    "share/man/man8/sserver.8"
  ],
  "fn": "krb5-1.17.1-hfafb76e_3.tar.bz2",
  "license": "MIT",
  "license_family": "MIT",
  "link": {
    "source": "/home/sam/anaconda3/pkgs/krb5-1.17.1-hfafb76e_3",
    "type": 1
  },
  "md5": "b9c0993124fbf5f4ccf37fd00d6a3705",
  "name": "krb5",
  "package_tarball_full_path": "/home/sam/anaconda3/pkgs/krb5-1.17.1-hfafb76e_3.tar.bz2",
  "paths_data": {
    "paths": [
      {
        "_path": "bin/compile_et",
        "file_mode": "text",
        "path_type": "hardlink",
        "prefix_placeholder": "/home/conda/feedstock_root/build_artifacts/krb5_1598893502369/_h_env_placehold_placehold_placehold_placehold_placehold_placehold_placehold_placehold_placehold_placehold_placehold_placehold_placehold_placehold_placehold_placehold_placehold_placehold_placeh",
        "sha256": "4b9f35bb6676ef445fbb0d60c3553b7843ccf01a5f4c306718fb931904280069",
        "sha256_in_prefix": "9c83e09f787dac6ecdd895d1ea13eb3a0346e6a01c6b7e30d1de54a7b7fd9b9e",
        "size_in_bytes": 1069
      },
      {
        "_path": "bin/gss-client",
        "path_type": "hardlink",
        "sha256": "8ebad7ae4fc5a01a0a23fc1828edda02ee0dd49e66421358cddf5b815537cec9",
        "sha256_in_prefix": "8ebad7ae4fc5a01a0a23fc1828edda02ee0dd49e66421358cddf5b815537cec9",
        "size_in_bytes": 32816
      },
      {
        "_path": "bin/k5srvutil",
        "path_type": "hardlink",
        "sha256": "d44b92e0c847223da03e6eecfcb0aafb02eb87e7bbbb4db60d31ccfb088d0f7b",
        "sha256_in_prefix": "d44b92e0c847223da03e6eecfcb0aafb02eb87e7bbbb4db60d31ccfb088d0f7b",
        "size_in_bytes": 2004
      },
      {
        "_path": "bin/kadmin",
        "path_type": "hardlink",
        "sha256": "50a3309a88ab8131644d55440d1aeebb4f820bb5972d26b74b0b2e92e0020bcc",
        "sha256_in_prefix": "50a3309a88ab8131644d55440d1aeebb4f820bb5972d26b74b0b2e92e0020bcc",
        "size_in_bytes": 104120
      },
      {
        "_path": "bin/kdestroy",
        "path_type": "hardlink",
        "sha256": "ca4912f01dadfc7f0b3a0ea570a3a655895f99d7fe1d53b82c9c2c223b61ccf8",
        "sha256_in_prefix": "ca4912f01dadfc7f0b3a0ea570a3a655895f99d7fe1d53b82c9c2c223b61ccf8",
        "size_in_bytes": 17992
      },
      {
        "_path": "bin/kinit",
        "path_type": "hardlink",
        "sha256": "18ad45f43f204cee8906c03f25943a00fc408f21145bc94997f53cf1027beb7d",
        "sha256_in_prefix": "18ad45f43f204cee8906c03f25943a00fc408f21145bc94997f53cf1027beb7d",
        "size_in_bytes": 42160
      },
      {
        "_path": "bin/klist",
        "path_type": "hardlink",
        "sha256": "64f28cb18116aa4defc519655152c9b4120a5b694b1d1b7aa0891b0ce0ab8658",
        "sha256_in_prefix": "64f28cb18116aa4defc519655152c9b4120a5b694b1d1b7aa0891b0ce0ab8658",
        "size_in_bytes": 33104
      },
      {
        "_path": "bin/kpasswd",
        "path_type": "hardlink",
        "sha256": "75ac5c7864c7651f90920b9f8f39cbe23a928f8a5fae8513608de26178eef0cf",
        "sha256_in_prefix": "75ac5c7864c7651f90920b9f8f39cbe23a928f8a5fae8513608de26178eef0cf",
        "size_in_bytes": 22400
      },
      {
        "_path": "bin/krb5-config",
        "file_mode": "text",
        "path_type": "hardlink",
        "prefix_placeholder": "/home/conda/feedstock_root/build_artifacts/krb5_1598893502369/_h_env_placehold_placehold_placehold_placehold_placehold_placehold_placehold_placehold_placehold_placehold_placehold_placehold_placehold_placehold_placehold_placehold_placehold_placehold_placeh",
        "sha256": "416759c392c5ad7a074f9fd0be245cc51e388b0c5e5979fa63c311b8ca75620a",
        "sha256_in_prefix": "4cc528f6d1e5549357021a2f6198619af674001a085338feba24e38c91799ea4",
        "size_in_bytes": 7961
      },
      {
        "_path": "bin/ksu",
        "path_type": "hardlink",
        "sha256": "5908a1622796028221a77c2d048a54c4fafaf9f1f0dc421d315e70fafdb5f064",
        "sha256_in_prefix": "5908a1622796028221a77c2d048a54c4fafaf9f1f0dc421d315e70fafdb5f064",
        "size_in_bytes": 66192
      },
      {
        "_path": "bin/kswitch",
        "path_type": "hardlink",
        "sha256": "54b5a2e870350be36950e40f8c0ab450b1b9a8f17270e5aa315ee025c6aa7d75",
        "sha256_in_prefix": "54b5a2e870350be36950e40f8c0ab450b1b9a8f17270e5aa315ee025c6aa7d75",
        "size_in_bytes": 17640
      },
      {
        "_path": "bin/ktutil",
        "path_type": "hardlink",
        "sha256": "3432d194a7656abd5e8ff4121f74f022482ef9c1d3294f571e0260ace5a3c222",
        "sha256_in_prefix": "3432d194a7656abd5e8ff4121f74f022482ef9c1d3294f571e0260ace5a3c222",
        "size_in_bytes": 43528
      },
      {
        "_path": "bin/kvno",
        "path_type": "hardlink",
        "sha256": "69388058d38beab22d4cce676b07408a581578d2ad5c2a4c82748aa4e4323340",
        "sha256_in_prefix": "69388058d38beab22d4cce676b07408a581578d2ad5c2a4c82748aa4e4323340",
        "size_in_bytes": 27336
      },
      {
        "_path": "bin/sclient",
        "path_type": "hardlink",
        "sha256": "6aad434cf5413136a0ae1a5c00a85b76b7a8cde7e2907cfc2d2d506021e07428",
        "sha256_in_prefix": "6aad434cf5413136a0ae1a5c00a85b76b7a8cde7e2907cfc2d2d506021e07428",
        "size_in_bytes": 22432
      },
      {
        "_path": "bin/sim_client",
        "path_type": "hardlink",
        "sha256": "fdf7b4741d1b5c4c54ad86d8e6149ebba566d7889088f70344ffa0c7be7d1d9a",
        "sha256_in_prefix": "fdf7b4741d1b5c4c54ad86d8e6149ebba566d7889088f70344ffa0c7be7d1d9a",
        "size_in_bytes": 22504
      },
      {
        "_path": "bin/uuclient",
        "path_type": "hardlink",
        "sha256": "df2c5176f412a41b99058b57cd9eaec4d045ef6a6eb96e7709c2ef7edfdbb520",
        "sha256_in_prefix": "df2c5176f412a41b99058b57cd9eaec4d045ef6a6eb96e7709c2ef7edfdbb520",
        "size_in_bytes": 22928
      },
      {
        "_path": "include/com_err.h",
        "path_type": "hardlink",
        "sha256": "7e7b77b8d2911e8caafa45c6186c4b6f894d565550c19ba262747834c3c6909a",
        "sha256_in_prefix": "7e7b77b8d2911e8caafa45c6186c4b6f894d565550c19ba262747834c3c6909a",
        "size_in_bytes": 1979
      },
      {
        "_path": "include/gssapi.h",
        "path_type": "hardlink",
        "sha256": "6fca7ce46733a4388a45a5816e4b5b2746d68ad3e04f9e2c51463f134cb802fa",
        "sha256_in_prefix": "6fca7ce46733a4388a45a5816e4b5b2746d68ad3e04f9e2c51463f134cb802fa",
        "size_in_bytes": 181
      },
      {
        "_path": "include/gssapi/gssapi.h",
        "path_type": "hardlink",
        "sha256": "93c9034041dc65206531709c8161e006cafae6d4b1e6506c56a23f2f03659bd4",
        "sha256_in_prefix": "93c9034041dc65206531709c8161e006cafae6d4b1e6506c56a23f2f03659bd4",
        "size_in_bytes": 29957
      },
      {
        "_path": "include/gssapi/gssapi_ext.h",
        "path_type": "hardlink",
        "sha256": "183afa3770f92fd914d80979f0e381b773a8aad6818a841ee2fd3dd4e324cf9c",
        "sha256_in_prefix": "183afa3770f92fd914d80979f0e381b773a8aad6818a841ee2fd3dd4e324cf9c",
        "size_in_bytes": 19316
      },
      {
        "_path": "include/gssapi/gssapi_generic.h",
        "path_type": "hardlink",
        "sha256": "b264115ba56603ceaad5e6ed5502dba2629959089391a4f18c4266c66befdc54",
        "sha256_in_prefix": "b264115ba56603ceaad5e6ed5502dba2629959089391a4f18c4266c66befdc54",
        "size_in_bytes": 2217
      },
      {
        "_path": "include/gssapi/gssapi_krb5.h",
        "path_type": "hardlink",
        "sha256": "26689e1990d213ad448f4ad8199bacdd06a9c7148d2ae953ebe701a1c45592a6",
        "sha256_in_prefix": "26689e1990d213ad448f4ad8199bacdd06a9c7148d2ae953ebe701a1c45592a6",
        "size_in_bytes": 11813
      },
      {
        "_path": "include/gssapi/mechglue.h",
        "path_type": "hardlink",
        "sha256": "abb62fd8d3c15ac357900a3f26b92e361e2601c1b921417fafd2b6802df4b1ed",
        "sha256_in_prefix": "abb62fd8d3c15ac357900a3f26b92e361e2601c1b921417fafd2b6802df4b1ed",
        "size_in_bytes": 1652
      },
      {
        "_path": "include/gssrpc/auth.h",
        "path_type": "hardlink",
        "sha256": "91a6e09d6b3d2553a69002b724a7871743e67d1e940829ca9aebbbb890151386",
        "sha256_in_prefix": "91a6e09d6b3d2553a69002b724a7871743e67d1e940829ca9aebbbb890151386",
        "size_in_bytes": 6472
      },
      {
        "_path": "include/gssrpc/auth_gss.h",
        "path_type": "hardlink",
        "sha256": "571caaca9ae5cf6cceec5cf7ff603571e818592c4220d62856ab624eeb25620a",
        "sha256_in_prefix": "571caaca9ae5cf6cceec5cf7ff603571e818592c4220d62856ab624eeb25620a",
        "size_in_bytes": 4840
      },
      {
        "_path": "include/gssrpc/auth_gssapi.h",
        "path_type": "hardlink",
        "sha256": "4da2548b519f82b39ec503866a0795a8db5bdffc8b7327cc04aa9c0445efe6d5",
        "sha256_in_prefix": "4da2548b519f82b39ec503866a0795a8db5bdffc8b7327cc04aa9c0445efe6d5",
        "size_in_bytes": 4333
      },
      {
        "_path": "include/gssrpc/auth_unix.h",
        "path_type": "hardlink",
        "sha256": "1e42fc6b44a644ca1bb5dd028f72af0e9c30848b4b469412347fdc16aecc9023",
        "sha256_in_prefix": "1e42fc6b44a644ca1bb5dd028f72af0e9c30848b4b469412347fdc16aecc9023",
        "size_in_bytes": 2896
      },
      {
        "_path": "include/gssrpc/clnt.h",
        "path_type": "hardlink",
        "sha256": "f6a6a1ddcb9ceb6f483fa4eafb241b0244c7c656b0cf3a27085b78f851e85f23",
        "sha256_in_prefix": "f6a6a1ddcb9ceb6f483fa4eafb241b0244c7c656b0cf3a27085b78f851e85f23",
        "size_in_bytes": 9651
      },
      {
        "_path": "include/gssrpc/netdb.h",
        "path_type": "hardlink",
        "sha256": "38f30d536012d5785645929e0d513378137d15476695a318b2c51db5ee7e0312",
        "sha256_in_prefix": "38f30d536012d5785645929e0d513378137d15476695a318b2c51db5ee7e0312",
        "size_in_bytes": 2442
      },
      {
        "_path": "include/gssrpc/pmap_clnt.h",
        "path_type": "hardlink",
        "sha256": "76a3d4c6f9d03a0d6fdf5dccbeeedfa60d4e59e7281dabfb403fa283670d578e",
        "sha256_in_prefix": "76a3d4c6f9d03a0d6fdf5dccbeeedfa60d4e59e7281dabfb403fa283670d578e",
        "size_in_bytes": 3429
      },
      {
        "_path": "include/gssrpc/pmap_prot.h",
        "path_type": "hardlink",
        "sha256": "4e60ca35f3f801c5ab8c25e327bcfc4637deac0615036d9ebe9bbca0242e74d2",
        "sha256_in_prefix": "4e60ca35f3f801c5ab8c25e327bcfc4637deac0615036d9ebe9bbca0242e74d2",
        "size_in_bytes": 3841
      },
      {
        "_path": "include/gssrpc/pmap_rmt.h",
        "path_type": "hardlink",
        "sha256": "105372661463f05652cb893535de7daa2f7cba2b107e14266c7ee6339077fe0f",
        "sha256_in_prefix": "105372661463f05652cb893535de7daa2f7cba2b107e14266c7ee6339077fe0f",
        "size_in_bytes": 2303
      },
      {
        "_path": "include/gssrpc/rename.h",
        "path_type": "hardlink",
        "sha256": "77a0699e6b4bfa3555b8b14d449a7dcc55f80e987c9479665dff6ef61e8a82de",
        "sha256_in_prefix": "77a0699e6b4bfa3555b8b14d449a7dcc55f80e987c9479665dff6ef61e8a82de",
        "size_in_bytes": 10264
      },
      {
        "_path": "include/gssrpc/rpc.h",
        "path_type": "hardlink",
        "sha256": "281063f97d45b39913e2f3f9149a36548e2fbe4bb60033e73b0bb61a440f7dff",
        "sha256_in_prefix": "281063f97d45b39913e2f3f9149a36548e2fbe4bb60033e73b0bb61a440f7dff",
        "size_in_bytes": 3143
      },
      {
        "_path": "include/gssrpc/rpc_msg.h",
        "path_type": "hardlink",
        "sha256": "3c3ee8d1960c4cf46f1fcb2247cdf4246a22990e901e7560158a74f4b1960ee6",
        "sha256_in_prefix": "3c3ee8d1960c4cf46f1fcb2247cdf4246a22990e901e7560158a74f4b1960ee6",
        "size_in_bytes": 5106
      },
      {
        "_path": "include/gssrpc/svc.h",
        "path_type": "hardlink",
        "sha256": "9bc81450c2105fe79955115c04c153d6523636b067d4c8aa30f7892ea4e2246b",
        "sha256_in_prefix": "9bc81450c2105fe79955115c04c153d6523636b067d4c8aa30f7892ea4e2246b",
        "size_in_bytes": 11595
      },
      {
        "_path": "include/gssrpc/svc_auth.h",
        "path_type": "hardlink",
        "sha256": "f21ba38af8239d3899a1ccb744daac2c06dcc16195a893f08ed0ce9750a12dfa",
        "sha256_in_prefix": "f21ba38af8239d3899a1ccb744daac2c06dcc16195a893f08ed0ce9750a12dfa",
        "size_in_bytes": 3976
      },
      {
        "_path": "include/gssrpc/types.h",
        "path_type": "hardlink",
        "sha256": "8de85d0b260ce40a1b4f335db0fcc069fbc369309a2a4e0ec821b180a2b6aba2",
        "sha256_in_prefix": "8de85d0b260ce40a1b4f335db0fcc069fbc369309a2a4e0ec821b180a2b6aba2",
        "size_in_bytes": 3626
      },
      {
        "_path": "include/gssrpc/xdr.h",
        "path_type": "hardlink",
        "sha256": "3992f5f3b0f201da298c793bb7aa5902e7d72951015605756bfa47a6ec9352db",
        "sha256_in_prefix": "3992f5f3b0f201da298c793bb7aa5902e7d72951015605756bfa47a6ec9352db",
        "size_in_bytes": 11779
      },
      {
        "_path": "include/kadm5/admin.h",
        "path_type": "hardlink",
        "sha256": "c40b6a213a521b836116968bd80d54c453b843353a9063ba0297fa13fd0260ad",
        "sha256_in_prefix": "c40b6a213a521b836116968bd80d54c453b843353a9063ba0297fa13fd0260ad",
        "size_in_bytes": 20768
      },
      {
        "_path": "include/kadm5/chpass_util_strings.h",
        "path_type": "hardlink",
        "sha256": "3b8a8166ab5b8862f92b7f97906c8f0e218937450888d95b15f27663fa774a1d",
        "sha256_in_prefix": "3b8a8166ab5b8862f92b7f97906c8f0e218937450888d95b15f27663fa774a1d",
        "size_in_bytes": 1572
      },
      {
        "_path": "include/kadm5/kadm_err.h",
        "path_type": "hardlink",
        "sha256": "f111fef80f84efadf82c3b455838da93983ae49146d6c30a4b97d3e243775ae5",
        "sha256_in_prefix": "f111fef80f84efadf82c3b455838da93983ae49146d6c30a4b97d3e243775ae5",
        "size_in_bytes": 4369
      },
      {
        "_path": "include/kdb.h",
        "path_type": "hardlink",
        "sha256": "6fcfe6007f8b129a736c082c5ece739b159da48b24bcee9393d6dd58cdf5b80b",
        "sha256_in_prefix": "6fcfe6007f8b129a736c082c5ece739b159da48b24bcee9393d6dd58cdf5b80b",
        "size_in_bytes": 61939
      },
      {
        "_path": "include/krad.h",
        "path_type": "hardlink",
        "sha256": "c16878d9b57669f68f2d55481bf963c32e7f3c659eda34d75f66b432536f90d6",
        "sha256_in_prefix": "c16878d9b57669f68f2d55481bf963c32e7f3c659eda34d75f66b432536f90d6",
        "size_in_bytes": 8933
      },
      {
        "_path": "include/krb5.h",
        "path_type": "hardlink",
        "sha256": "1fe239732636b4f9cbfd596542b77c5dd60af2d73a1d4df1eb30ba6ebcd9ec78",
        "sha256_in_prefix": "1fe239732636b4f9cbfd596542b77c5dd60af2d73a1d4df1eb30ba6ebcd9ec78",
        "size_in_bytes": 402
      },
      {
        "_path": "include/krb5/ccselect_plugin.h",
        "path_type": "hardlink",
        "sha256": "6eb76ad87680dee03796b0fa1d5fb3586a29668aaa8f71be2d7e4ba8a909c4b9",
        "sha256_in_prefix": "6eb76ad87680dee03796b0fa1d5fb3586a29668aaa8f71be2d7e4ba8a909c4b9",
        "size_in_bytes": 4213
      },
      {
        "_path": "include/krb5/certauth_plugin.h",
        "path_type": "hardlink",
        "sha256": "475cd45fee4aa33fdd1eb9bfe1a75cf50ba8b7cf391b331b55ea1239fc45ba36",
        "sha256_in_prefix": "475cd45fee4aa33fdd1eb9bfe1a75cf50ba8b7cf391b331b55ea1239fc45ba36",
        "size_in_bytes": 4964
      },
      {
        "_path": "include/krb5/clpreauth_plugin.h",
        "path_type": "hardlink",
        "sha256": "0a788d0a287b1676c5b4ea1962a2ca1e412a5e6d83a4b277803bc8f6d3b51230",
        "sha256_in_prefix": "0a788d0a287b1676c5b4ea1962a2ca1e412a5e6d83a4b277803bc8f6d3b51230",
        "size_in_bytes": 15523
      },
      {
        "_path": "include/krb5/hostrealm_plugin.h",
        "path_type": "hardlink",
        "sha256": "acd7ba4437c95d271e7c9cc19fd2097915b52576939c926a1f67837be0b99889",
        "sha256_in_prefix": "acd7ba4437c95d271e7c9cc19fd2097915b52576939c926a1f67837be0b99889",
        "size_in_bytes": 5460
      },
      {
        "_path": "include/krb5/kadm5_auth_plugin.h",
        "path_type": "hardlink",
        "sha256": "fca25eafd23fd91a86b80d5e1cef1b5d736787034385c6c235bfc5225304792c",
        "sha256_in_prefix": "fca25eafd23fd91a86b80d5e1cef1b5d736787034385c6c235bfc5225304792c",
        "size_in_bytes": 12482
      },
      {
        "_path": "include/krb5/kadm5_hook_plugin.h",
        "path_type": "hardlink",
        "sha256": "186d4520695bc55c894af072ae74472704d46b1359adf2e6103d52872b8a8019",
        "sha256_in_prefix": "186d4520695bc55c894af072ae74472704d46b1359adf2e6103d52872b8a8019",
        "size_in_bytes": 6161
      },
      {
        "_path": "include/krb5/kdcpolicy_plugin.h",
        "path_type": "hardlink",
        "sha256": "829dd07baf0d80cb1269d8e712612773f26609ef572b8df6297997c7f4f2b1f4",
        "sha256_in_prefix": "829dd07baf0d80cb1269d8e712612773f26609ef572b8df6297997c7f4f2b1f4",
        "size_in_bytes": 5320
      },
      {
        "_path": "include/krb5/kdcpreauth_plugin.h",
        "path_type": "hardlink",
        "sha256": "a955ce79a3fae8f102d59d8f5fdcdff396cf24d7d740e3df82141f8ae2e3c586",
        "sha256_in_prefix": "a955ce79a3fae8f102d59d8f5fdcdff396cf24d7d740e3df82141f8ae2e3c586",
        "size_in_bytes": 17530
      },
      {
        "_path": "include/krb5/krb5.h",
        "path_type": "hardlink",
        "sha256": "2b8c010c7b5400fb0dfd084e39e96b9b27c49ab8735d214066abfd7cc0e82887",
        "sha256_in_prefix": "2b8c010c7b5400fb0dfd084e39e96b9b27c49ab8735d214066abfd7cc0e82887",
        "size_in_bytes": 346320
      },
      {
        "_path": "include/krb5/localauth_plugin.h",
        "path_type": "hardlink",
        "sha256": "cdc4244abf61807bdfed95d1fe608cf925b4c4c3af4867ad6daced031c1cd8f3",
        "sha256_in_prefix": "cdc4244abf61807bdfed95d1fe608cf925b4c4c3af4867ad6daced031c1cd8f3",
        "size_in_bytes": 5881
      },
      {
        "_path": "include/krb5/locate_plugin.h",
        "path_type": "hardlink",
        "sha256": "333768c87d8a9f9e48ac4e92406f9e70b107d472dc2bef1a983966a97f68a9cf",
        "sha256_in_prefix": "333768c87d8a9f9e48ac4e92406f9e70b107d472dc2bef1a983966a97f68a9cf",
        "size_in_bytes": 2624
      },
      {
        "_path": "include/krb5/plugin.h",
        "path_type": "hardlink",
        "sha256": "5cdbdb19b61e841aa2fe593eb7a69ae1857728e04af15b3551a85c57d670c35d",
        "sha256_in_prefix": "5cdbdb19b61e841aa2fe593eb7a69ae1857728e04af15b3551a85c57d670c35d",
        "size_in_bytes": 2090
      },
      {
        "_path": "include/krb5/preauth_plugin.h",
        "path_type": "hardlink",
        "sha256": "ab64bd09cd8ebf5588e4445e5de75b8e9c411ef6035b0f4f04c8185df8abfbdf",
        "sha256_in_prefix": "ab64bd09cd8ebf5588e4445e5de75b8e9c411ef6035b0f4f04c8185df8abfbdf",
        "size_in_bytes": 1774
      },
      {
        "_path": "include/krb5/pwqual_plugin.h",
        "path_type": "hardlink",
        "sha256": "5f63d4365b584fd25dbfe565a6c37205ecdf34d6c565fe38b3e2834acae10b53",
        "sha256_in_prefix": "5f63d4365b584fd25dbfe565a6c37205ecdf34d6c565fe38b3e2834acae10b53",
        "size_in_bytes": 4426
      },
      {
        "_path": "include/profile.h",
        "path_type": "hardlink",
        "sha256": "adcc379f74cf3f758172d3521d31756e99bfb4749a2de00d345cfecea52e64c8",
        "sha256_in_prefix": "adcc379f74cf3f758172d3521d31756e99bfb4749a2de00d345cfecea52e64c8",
        "size_in_bytes": 12178
      },
      {
        "_path": "include/verto-module.h",
        "path_type": "hardlink",
        "sha256": "a0ca282f254efda89fae75a8d234d1b41a5f422422b5e37d2c56e863626557ca",
        "sha256_in_prefix": "a0ca282f254efda89fae75a8d234d1b41a5f422422b5e37d2c56e863626557ca",
        "size_in_bytes": 6640
      },
      {
        "_path": "include/verto.h",
        "path_type": "hardlink",
        "sha256": "65975020670bc6a59e96d4c42b4e66e60282696a11469ba85a3ae7bb42a5bc2d",
        "sha256_in_prefix": "65975020670bc6a59e96d4c42b4e66e60282696a11469ba85a3ae7bb42a5bc2d",
        "size_in_bytes": 19437
      },
      {
        "_path": "lib/krb5/plugins/kdb/db2.so",
        "file_mode": "binary",
        "path_type": "hardlink",
        "prefix_placeholder": "/home/conda/feedstock_root/build_artifacts/krb5_1598893502369/_h_env_placehold_placehold_placehold_placehold_placehold_placehold_placehold_placehold_placehold_placehold_placehold_placehold_placehold_placehold_placehold_placehold_placehold_placehold_placeh",
        "sha256": "d494e7df9453503a688c80b2e3832c6663b3a19f7d1a2d033873436e62a87fee",
        "sha256_in_prefix": "1b6579f241ca36f8aa7df5dcf3673222cbfe4dec745e3e41247de602a94d5d0e",
        "size_in_bytes": 111064
      },
      {
        "_path": "lib/krb5/plugins/preauth/otp.so",
        "file_mode": "binary",
        "path_type": "hardlink",
        "prefix_placeholder": "/home/conda/feedstock_root/build_artifacts/krb5_1598893502369/_h_env_placehold_placehold_placehold_placehold_placehold_placehold_placehold_placehold_placehold_placehold_placehold_placehold_placehold_placehold_placehold_placehold_placehold_placehold_placeh",
        "sha256": "790f571fcdd358ac760578aa966a0b88cc57a47bfe3628f61e44eae54a2cdf9d",
        "sha256_in_prefix": "a689b1ccefb33326f5c15c02b89965d296fc025e9a0930e12be143d81e7a9222",
        "size_in_bytes": 28608
      },
      {
        "_path": "lib/krb5/plugins/preauth/pkinit.so",
        "path_type": "hardlink",
        "sha256": "92e96919afa49229e62a1b8864dd315f5ab6cb43118d367169742bd7a80b8bf9",
        "sha256_in_prefix": "92e96919afa49229e62a1b8864dd315f5ab6cb43118d367169742bd7a80b8bf9",
        "size_in_bytes": 158984
      },
      {
        "_path": "lib/krb5/plugins/preauth/spake.so",
        "path_type": "hardlink",
        "sha256": "7cb4e9fc0c21bea32f4b6edb47a2d769434eab54c09f4bf3337c30a564bc78f4",
        "sha256_in_prefix": "7cb4e9fc0c21bea32f4b6edb47a2d769434eab54c09f4bf3337c30a564bc78f4",
        "size_in_bytes": 94456
      },
      {
        "_path": "lib/krb5/plugins/preauth/test.so",
        "path_type": "hardlink",
        "sha256": "ea60081073131873660677598a446a12722e2de36bd032f1e570d21d87efacf3",
        "sha256_in_prefix": "ea60081073131873660677598a446a12722e2de36bd032f1e570d21d87efacf3",
        "size_in_bytes": 22120
      },
      {
        "_path": "lib/krb5/plugins/tls/k5tls.so",
        "path_type": "hardlink",
        "sha256": "a6706530d4278f9c09bd52ba0cda177f8542d5a300a7a07884871abf71975601",
        "sha256_in_prefix": "a6706530d4278f9c09bd52ba0cda177f8542d5a300a7a07884871abf71975601",
        "size_in_bytes": 29112
      },
      {
        "_path": "lib/libcom_err.so",
        "path_type": "softlink",
        "sha256": "053e76bc109a1f34f2bbbb289f1233303c897af6ea701e094ef0164a184bd705",
        "size_in_bytes": 23296
      },
      {
        "_path": "lib/libcom_err.so.3",
        "path_type": "softlink",
        "sha256": "053e76bc109a1f34f2bbbb289f1233303c897af6ea701e094ef0164a184bd705",
        "size_in_bytes": 23296
      },
      {
        "_path": "lib/libcom_err.so.3.0",
        "path_type": "hardlink",
        "sha256": "053e76bc109a1f34f2bbbb289f1233303c897af6ea701e094ef0164a184bd705",
        "sha256_in_prefix": "053e76bc109a1f34f2bbbb289f1233303c897af6ea701e094ef0164a184bd705",
        "size_in_bytes": 23296
      },
      {
        "_path": "lib/libgssapi_krb5.so",
        "path_type": "softlink",
        "sha256": "6655d971a33c98450c3903ba58ff2fe2eb1678f5f00746ffa814272b1708ee6c",
        "size_in_bytes": 370856
      },
      {
        "_path": "lib/libgssapi_krb5.so.2",
        "path_type": "softlink",
        "sha256": "6655d971a33c98450c3903ba58ff2fe2eb1678f5f00746ffa814272b1708ee6c",
        "size_in_bytes": 370856
      },
      {
        "_path": "lib/libgssapi_krb5.so.2.2",
        "file_mode": "binary",
        "path_type": "hardlink",
        "prefix_placeholder": "/home/conda/feedstock_root/build_artifacts/krb5_1598893502369/_h_env_placehold_placehold_placehold_placehold_placehold_placehold_placehold_placehold_placehold_placehold_placehold_placehold_placehold_placehold_placehold_placehold_placehold_placehold_placeh",
        "sha256": "6655d971a33c98450c3903ba58ff2fe2eb1678f5f00746ffa814272b1708ee6c",
        "sha256_in_prefix": "91912ef0500f8fdd4eb021d1da470af915a105f7e79f60e1483eadcf9b2fb05c",
        "size_in_bytes": 370856
      },
      {
        "_path": "lib/libgssrpc.so",
        "path_type": "softlink",
        "sha256": "c732bb1d5789dc0a963bf463572f6a961f979d96faaf6d1654e117c257c8430d",
        "size_in_bytes": 148560
      },
      {
        "_path": "lib/libgssrpc.so.4",
        "path_type": "softlink",
        "sha256": "c732bb1d5789dc0a963bf463572f6a961f979d96faaf6d1654e117c257c8430d",
        "size_in_bytes": 148560
      },
      {
        "_path": "lib/libgssrpc.so.4.2",
        "path_type": "hardlink",
        "sha256": "c732bb1d5789dc0a963bf463572f6a961f979d96faaf6d1654e117c257c8430d",
        "sha256_in_prefix": "c732bb1d5789dc0a963bf463572f6a961f979d96faaf6d1654e117c257c8430d",
        "size_in_bytes": 148560
      },
      {
        "_path": "lib/libk5crypto.so",
        "path_type": "softlink",
        "sha256": "d2881261e12619f0e6026dc4816b27672137e8276a1ae091b905fbb7aeb2279a",
        "size_in_bytes": 137352
      },
      {
        "_path": "lib/libk5crypto.so.3",
        "path_type": "softlink",
        "sha256": "d2881261e12619f0e6026dc4816b27672137e8276a1ae091b905fbb7aeb2279a",
        "size_in_bytes": 137352
      },
      {
        "_path": "lib/libk5crypto.so.3.1",
        "path_type": "hardlink",
        "sha256": "d2881261e12619f0e6026dc4816b27672137e8276a1ae091b905fbb7aeb2279a",
        "sha256_in_prefix": "d2881261e12619f0e6026dc4816b27672137e8276a1ae091b905fbb7aeb2279a",
        "size_in_bytes": 137352
      },
      {
        "_path": "lib/libkadm5clnt.so",
        "path_type": "softlink",
        "sha256": "4db707c7069cbce1a7ee95bec82cbf5bd806d946704bde3ab799848dc0dbdbe1",
        "size_in_bytes": 108960
      },
      {
        "_path": "lib/libkadm5clnt_mit.so",
        "path_type": "softlink",
        "sha256": "4db707c7069cbce1a7ee95bec82cbf5bd806d946704bde3ab799848dc0dbdbe1",
        "size_in_bytes": 108960
      },
      {
        "_path": "lib/libkadm5clnt_mit.so.11",
        "path_type": "softlink",
        "sha256": "4db707c7069cbce1a7ee95bec82cbf5bd806d946704bde3ab799848dc0dbdbe1",
        "size_in_bytes": 108960
      },
      {
        "_path": "lib/libkadm5clnt_mit.so.11.0",
        "file_mode": "binary",
        "path_type": "hardlink",
        "prefix_placeholder": "/home/conda/feedstock_root/build_artifacts/krb5_1598893502369/_h_env_placehold_placehold_placehold_placehold_placehold_placehold_placehold_placehold_placehold_placehold_placehold_placehold_placehold_placehold_placehold_placehold_placehold_placehold_placeh",
        "sha256": "4db707c7069cbce1a7ee95bec82cbf5bd806d946704bde3ab799848dc0dbdbe1",
        "sha256_in_prefix": "48a04a53b6b2c94da3c49591f1825666c0093f609b113860ee8fa5a1816f6325",
        "size_in_bytes": 108960
      },
      {
        "_path": "lib/libkadm5srv.so",
        "path_type": "softlink",
        "sha256": "0599df7e968b299bcecca477c49c42a82e1b732bbe24e5cc814d549f19e814be",
        "size_in_bytes": 136776
      },
      {
        "_path": "lib/libkadm5srv_mit.so",
        "path_type": "softlink",
        "sha256": "0599df7e968b299bcecca477c49c42a82e1b732bbe24e5cc814d549f19e814be",
        "size_in_bytes": 136776
      },
      {
        "_path": "lib/libkadm5srv_mit.so.11",
        "path_type": "softlink",
        "sha256": "0599df7e968b299bcecca477c49c42a82e1b732bbe24e5cc814d549f19e814be",
        "size_in_bytes": 136776
      },
      {
        "_path": "lib/libkadm5srv_mit.so.11.0",
        "file_mode": "binary",
        "path_type": "hardlink",
        "prefix_placeholder": "/home/conda/feedstock_root/build_artifacts/krb5_1598893502369/_h_env_placehold_placehold_placehold_placehold_placehold_placehold_placehold_placehold_placehold_placehold_placehold_placehold_placehold_placehold_placehold_placehold_placehold_placehold_placeh",
        "sha256": "0599df7e968b299bcecca477c49c42a82e1b732bbe24e5cc814d549f19e814be",
        "sha256_in_prefix": "765580d8773d17e4d63d5a4de13e104b661396110f872a0bdfbd5ec0acc1dbbb",
        "size_in_bytes": 136776
      },
      {
        "_path": "lib/libkdb5.so",
        "path_type": "softlink",
        "sha256": "e61d54014d653be255a9db30f35bb6fc120accce43b8030ca2adc316e3b6bf9d",
        "size_in_bytes": 95592
      },
      {
        "_path": "lib/libkdb5.so.9",
        "path_type": "softlink",
        "sha256": "e61d54014d653be255a9db30f35bb6fc120accce43b8030ca2adc316e3b6bf9d",
        "size_in_bytes": 95592
      },
      {
        "_path": "lib/libkdb5.so.9.0",
        "file_mode": "binary",
        "path_type": "hardlink",
        "prefix_placeholder": "/home/conda/feedstock_root/build_artifacts/krb5_1598893502369/_h_env_placehold_placehold_placehold_placehold_placehold_placehold_placehold_placehold_placehold_placehold_placehold_placehold_placehold_placehold_placehold_placehold_placehold_placehold_placeh",
        "sha256": "e61d54014d653be255a9db30f35bb6fc120accce43b8030ca2adc316e3b6bf9d",
        "sha256_in_prefix": "008850684325ac1b90226ba44160adfa5889077149b700264255119de84d31a1",
        "size_in_bytes": 95592
      },
      {
        "_path": "lib/libkrad.so",
        "path_type": "softlink",
        "sha256": "e59cf79ed82b4ef10bd2f96aadc15608a380a6b808d8d32fd6e3b7fa674330cd",
        "size_in_bytes": 44880
      },
      {
        "_path": "lib/libkrad.so.0",
        "path_type": "softlink",
        "sha256": "e59cf79ed82b4ef10bd2f96aadc15608a380a6b808d8d32fd6e3b7fa674330cd",
        "size_in_bytes": 44880
      },
      {
        "_path": "lib/libkrad.so.0.0",
        "path_type": "hardlink",
        "sha256": "e59cf79ed82b4ef10bd2f96aadc15608a380a6b808d8d32fd6e3b7fa674330cd",
        "sha256_in_prefix": "e59cf79ed82b4ef10bd2f96aadc15608a380a6b808d8d32fd6e3b7fa674330cd",
        "size_in_bytes": 44880
      },
      {
        "_path": "lib/libkrb5.so",
        "path_type": "softlink",
        "sha256": "d874763ff74d43b66415f7c6f9344bbe6dcf53206f018d339c7c945f50698670",
        "size_in_bytes": 1077576
      },
      {
        "_path": "lib/libkrb5.so.3",
        "path_type": "softlink",
        "sha256": "d874763ff74d43b66415f7c6f9344bbe6dcf53206f018d339c7c945f50698670",
        "size_in_bytes": 1077576
      },
      {
        "_path": "lib/libkrb5.so.3.3",
        "file_mode": "binary",
        "path_type": "hardlink",
        "prefix_placeholder": "/home/conda/feedstock_root/build_artifacts/krb5_1598893502369/_h_env_placehold_placehold_placehold_placehold_placehold_placehold_placehold_placehold_placehold_placehold_placehold_placehold_placehold_placehold_placehold_placehold_placehold_placehold_placeh",
        "sha256": "d874763ff74d43b66415f7c6f9344bbe6dcf53206f018d339c7c945f50698670",
        "sha256_in_prefix": "bc1966e25f702a4bfdcaf6c23cc86810cb874e19b415458a60c41d1075d240b4",
        "size_in_bytes": 1077576
      },
      {
        "_path": "lib/libkrb5support.so",
        "path_type": "softlink",
        "sha256": "5a6917b052eb18e938115edf0dd0276e5b8e65e0f8a98980ac2c563e7dc77153",
        "size_in_bytes": 67808
      },
      {
        "_path": "lib/libkrb5support.so.0",
        "path_type": "softlink",
        "sha256": "5a6917b052eb18e938115edf0dd0276e5b8e65e0f8a98980ac2c563e7dc77153",
        "size_in_bytes": 67808
      },
      {
        "_path": "lib/libkrb5support.so.0.1",
        "path_type": "hardlink",
        "sha256": "5a6917b052eb18e938115edf0dd0276e5b8e65e0f8a98980ac2c563e7dc77153",
        "sha256_in_prefix": "5a6917b052eb18e938115edf0dd0276e5b8e65e0f8a98980ac2c563e7dc77153",
        "size_in_bytes": 67808
      },
      {
        "_path": "lib/libverto.so",
        "path_type": "softlink",
        "sha256": "b39a64f5ed20a66fea9141d02fa5ee9071c7d8203a2d128767de745b22f2a8ce",
        "size_in_bytes": 47208
      },
      {
        "_path": "lib/libverto.so.0",
        "path_type": "softlink",
        "sha256": "b39a64f5ed20a66fea9141d02fa5ee9071c7d8203a2d128767de745b22f2a8ce",
        "size_in_bytes": 47208
      },
      {
        "_path": "lib/libverto.so.0.0",
        "path_type": "hardlink",
        "sha256": "b39a64f5ed20a66fea9141d02fa5ee9071c7d8203a2d128767de745b22f2a8ce",
        "sha256_in_prefix": "b39a64f5ed20a66fea9141d02fa5ee9071c7d8203a2d128767de745b22f2a8ce",
        "size_in_bytes": 47208
      },
      {
        "_path": "lib/pkgconfig/gssrpc.pc",
        "file_mode": "text",
        "path_type": "hardlink",
        "prefix_placeholder": "/home/conda/feedstock_root/build_artifacts/krb5_1598893502369/_h_env_placehold_placehold_placehold_placehold_placehold_placehold_placehold_placehold_placehold_placehold_placehold_placehold_placehold_placehold_placehold_placehold_placehold_placehold_placeh",
        "sha256": "f8860895555c49f22101d3f98a84802aa944ceb157c7d37b1d1bd920c47858a2",
        "sha256_in_prefix": "a4ca37736f8fd8295524e2bbc0f5d8dfde7968652372b6b1efcb63477c966099",
        "size_in_bytes": 505
      },
      {
        "_path": "lib/pkgconfig/kadm-client.pc",
        "file_mode": "text",
        "path_type": "hardlink",
        "prefix_placeholder": "/home/conda/feedstock_root/build_artifacts/krb5_1598893502369/_h_env_placehold_placehold_placehold_placehold_placehold_placehold_placehold_placehold_placehold_placehold_placehold_placehold_placehold_placehold_placehold_placehold_placehold_placehold_placeh",
        "sha256": "0c0d1187b44f0bd2f7342c3203d3754d42788576dc3614fbd85025d2ff508297",
        "sha256_in_prefix": "ecb38a96c04c831f1aade930af7a9eb67fe3b3c28529fb80c71f3ca117dda382",
        "size_in_bytes": 526
      },
      {
        "_path": "lib/pkgconfig/kadm-server.pc",
        "file_mode": "text",
        "path_type": "hardlink",
        "prefix_placeholder": "/home/conda/feedstock_root/build_artifacts/krb5_1598893502369/_h_env_placehold_placehold_placehold_placehold_placehold_placehold_placehold_placehold_placehold_placehold_placehold_placehold_placehold_placehold_placehold_placehold_placehold_placehold_placeh",
        "sha256": "8b6f30e91e08b417ce63d46d4f74a86176e16910c5336bffc4f0f7837219e2ef",
        "sha256_in_prefix": "30ddbfbc0a59200ffaf1a31fea0d65d743021e14ffa8661ce1479a912d7d8962",
        "size_in_bytes": 522
      },
      {
        "_path": "lib/pkgconfig/kdb.pc",
        "file_mode": "text",
        "path_type": "hardlink",
        "prefix_placeholder": "/home/conda/feedstock_root/build_artifacts/krb5_1598893502369/_h_env_placehold_placehold_placehold_placehold_placehold_placehold_placehold_placehold_placehold_placehold_placehold_placehold_placehold_placehold_placehold_placehold_placehold_placehold_placeh",
        "sha256": "a0639c5ff0134a0a4da6f6c131464580abc662d2547d9cbf5f9d7d863781ba3c",
        "sha256_in_prefix": "f88648fb719ceb0eefdec82e305a4e8c27fb765abda8f0798a74daef865a68b0",
        "size_in_bytes": 557
      },
      {
        "_path": "lib/pkgconfig/krb5-gssapi.pc",
        "file_mode": "text",
        "path_type": "hardlink",
        "prefix_placeholder": "/home/conda/feedstock_root/build_artifacts/krb5_1598893502369/_h_env_placehold_placehold_placehold_placehold_placehold_placehold_placehold_placehold_placehold_placehold_placehold_placehold_placehold_placehold_placehold_placehold_placehold_placehold_placeh",
        "sha256": "a048a6b22b4c422cd1690b8f149c302b0b00f7f45282cc087ac2eb4c87c47777",
        "sha256_in_prefix": "78b24d1ea2e0bc8ccdf668e4d0b40e9e7d808fd862dbbd8ef6eb898b61b6de59",
        "size_in_bytes": 463
      },
      {
        "_path": "lib/pkgconfig/krb5.pc",
        "file_mode": "text",
        "path_type": "hardlink",
        "prefix_placeholder": "/home/conda/feedstock_root/build_artifacts/krb5_1598893502369/_h_env_placehold_placehold_placehold_placehold_placehold_placehold_placehold_placehold_placehold_placehold_placehold_placehold_placehold_placehold_placehold_placehold_placehold_placehold_placeh",
        "sha256": "dcc907c382df78d59e557dd3fd6c0c403abba26b17e86ee22f4eb8dcc2f8119c",
        "sha256_in_prefix": "e3a0f5de87cd4b363b2591e7f9057e42be667ae63858145a646b3c3fb6d68c85",
        "size_in_bytes": 594
      },
      {
        "_path": "lib/pkgconfig/mit-krb5-gssapi.pc",
        "file_mode": "text",
        "path_type": "hardlink",
        "prefix_placeholder": "/home/conda/feedstock_root/build_artifacts/krb5_1598893502369/_h_env_placehold_placehold_placehold_placehold_placehold_placehold_placehold_placehold_placehold_placehold_placehold_placehold_placehold_placehold_placehold_placehold_placehold_placehold_placeh",
        "sha256": "5016775ccf3092b52708f8608c5606f3880dc3cdabf87b7abc622b676661a534",
        "sha256_in_prefix": "5991e87e24b62d623ad18f1eb1756fca63fd453cbd43c499427798c7ee73c34a",
        "size_in_bytes": 513
      },
      {
        "_path": "lib/pkgconfig/mit-krb5.pc",
        "file_mode": "text",
        "path_type": "hardlink",
        "prefix_placeholder": "/home/conda/feedstock_root/build_artifacts/krb5_1598893502369/_h_env_placehold_placehold_placehold_placehold_placehold_placehold_placehold_placehold_placehold_placehold_placehold_placehold_placehold_placehold_placehold_placehold_placehold_placehold_placeh",
        "sha256": "b8686020456c9d633c6c02c14bb519fbe2e6a9321b16d3d5bae43479293750cc",
        "sha256_in_prefix": "5d92d65f17f0340fdb65c5df035432f3d0aa78beb7e47264e42cec9638ef54c8",
        "size_in_bytes": 666
      },
      {
        "_path": "sbin/gss-server",
        "path_type": "hardlink",
        "sha256": "8f5de609a7f8d7c02e1a5b57902a0f60a47b2ab6a5b30c4c7c40ddc5ec08b007",
        "sha256_in_prefix": "8f5de609a7f8d7c02e1a5b57902a0f60a47b2ab6a5b30c4c7c40ddc5ec08b007",
        "size_in_bytes": 32368
      },
      {
        "_path": "sbin/kadmin.local",
        "path_type": "hardlink",
        "sha256": "d18a2179b7c315e863aa51e5939fe635c8582e79929f956be81ed8e5f4370074",
        "sha256_in_prefix": "d18a2179b7c315e863aa51e5939fe635c8582e79929f956be81ed8e5f4370074",
        "size_in_bytes": 104088
      },
      {
        "_path": "sbin/kadmind",
        "file_mode": "binary",
        "path_type": "hardlink",
        "prefix_placeholder": "/home/conda/feedstock_root/build_artifacts/krb5_1598893502369/_h_env_placehold_placehold_placehold_placehold_placehold_placehold_placehold_placehold_placehold_placehold_placehold_placehold_placehold_placehold_placehold_placehold_placehold_placehold_placeh",
        "sha256": "1039058b5cfe6182eb422dd8890dd065dd87f818bb8f07c560bdf6ab1c4b1600",
        "sha256_in_prefix": "9221de95aee64831e4bf3e567c19c218678891e6af9116e00aa22e1e9de83f7a",
        "size_in_bytes": 135304
      },
      {
        "_path": "sbin/kdb5_util",
        "path_type": "hardlink",
        "sha256": "4176f8706727d02f612d9c8268b6c907897c68864d4cdb77afe9500cfdbe368a",
        "sha256_in_prefix": "4176f8706727d02f612d9c8268b6c907897c68864d4cdb77afe9500cfdbe368a",
        "size_in_bytes": 123744
      },
      {
        "_path": "sbin/kprop",
        "file_mode": "binary",
        "path_type": "hardlink",
        "prefix_placeholder": "/home/conda/feedstock_root/build_artifacts/krb5_1598893502369/_h_env_placehold_placehold_placehold_placehold_placehold_placehold_placehold_placehold_placehold_placehold_placehold_placehold_placehold_placehold_placehold_placehold_placehold_placehold_placeh",
        "sha256": "35f2c6d9d5c46429266a4df1c8e51561b5598c5de3bcf1f8d9663876dd1eca67",
        "sha256_in_prefix": "53ed8bb6d6c40b842b5ccad022d392dc1f629e0de71fa90adffc13e21a9ba64e",
        "size_in_bytes": 28896
      },
      {
        "_path": "sbin/kpropd",
        "file_mode": "binary",
        "path_type": "hardlink",
        "prefix_placeholder": "/home/conda/feedstock_root/build_artifacts/krb5_1598893502369/_h_env_placehold_placehold_placehold_placehold_placehold_placehold_placehold_placehold_placehold_placehold_placehold_placehold_placehold_placehold_placehold_placehold_placehold_placehold_placeh",
        "sha256": "3b2d230af11d2cdd42215430821133e0b493727c4223ad554b1d2116b9e0f659",
        "sha256_in_prefix": "ea16a6f4b1b736f763231694903043e123b167993876b1ab42a82a6e3316299b",
        "size_in_bytes": 53024
      },
      {
        "_path": "sbin/kproplog",
        "path_type": "hardlink",
        "sha256": "160f9b4ec3480a91965562260887155519d670588325eca0dc0bf0819c7258f8",
        "sha256_in_prefix": "160f9b4ec3480a91965562260887155519d670588325eca0dc0bf0819c7258f8",
        "size_in_bytes": 26896
      },
      {
        "_path": "sbin/krb5-send-pr",
        "path_type": "hardlink",
        "sha256": "b2f471f0c9c664989814fee1a3e928814a26fad235c985257228b32512f8a148",
        "sha256_in_prefix": "b2f471f0c9c664989814fee1a3e928814a26fad235c985257228b32512f8a148",
        "size_in_bytes": 347
      },
      {
        "_path": "sbin/krb5kdc",
        "file_mode": "binary",
        "path_type": "hardlink",
        "prefix_placeholder": "/home/conda/feedstock_root/build_artifacts/krb5_1598893502369/_h_env_placehold_placehold_placehold_placehold_placehold_placehold_placehold_placehold_placehold_placehold_placehold_placehold_placehold_placehold_placehold_placehold_placehold_placehold_placeh",
        "sha256": "1f5d3bf45e5e0c8264f9f98668eef3690a408ce3e1265f9272fcd3e1553c6eee",
        "sha256_in_prefix": "cfaa2eb6c850144a275b8655b027e25530273814c7aa1c25010e37e6583a2469",
        "size_in_bytes": 178352
      },
      {
        "_path": "sbin/sim_server",
        "path_type": "hardlink",
        "sha256": "0933345aa01b247c83f2837f597a037d43ce4a9858710464d416a0e782e7a595",
        "sha256_in_prefix": "0933345aa01b247c83f2837f597a037d43ce4a9858710464d416a0e782e7a595",
        "size_in_bytes": 18056
      },
      {
        "_path": "sbin/sserver",
        "path_type": "hardlink",
        "sha256": "21051b2061d4cbaad29c05d3db3ec1b9f268603a273909b4ee9b91848b3af722",
        "sha256_in_prefix": "21051b2061d4cbaad29c05d3db3ec1b9f268603a273909b4ee9b91848b3af722",
        "size_in_bytes": 22408
      },
      {
        "_path": "sbin/uuserver",
        "path_type": "hardlink",
        "sha256": "65246956dbd39529e77d6127b33eeb444118152cc596c7734343d61d85db0982",
        "sha256_in_prefix": "65246956dbd39529e77d6127b33eeb444118152cc596c7734343d61d85db0982",
        "size_in_bytes": 22632
      },
      {
        "_path": "share/et/et_c.awk",
        "path_type": "hardlink",
        "sha256": "2187fea4d5d68f2341e44040e3bafb83a52aa3b7697fd1ec13ddcc57b565d274",
        "sha256_in_prefix": "2187fea4d5d68f2341e44040e3bafb83a52aa3b7697fd1ec13ddcc57b565d274",
        "size_in_bytes": 5212
      },
      {
        "_path": "share/et/et_h.awk",
        "path_type": "hardlink",
        "sha256": "2a3b200cf0f767df8a1c595cbdb3a9151dfd682bf27443590074c984ca38944e",
        "sha256_in_prefix": "2a3b200cf0f767df8a1c595cbdb3a9151dfd682bf27443590074c984ca38944e",
        "size_in_bytes": 3918
      },
      {
        "_path": "share/examples/krb5/kdc.conf",
        "path_type": "hardlink",
        "sha256": "db1f1149b17b5d2ffd892d74e602be07224f300da1041a2724770d5d8dfc008f",
        "sha256_in_prefix": "db1f1149b17b5d2ffd892d74e602be07224f300da1041a2724770d5d8dfc008f",
        "size_in_bytes": 341
      },
      {
        "_path": "share/examples/krb5/krb5.conf",
        "path_type": "hardlink",
        "sha256": "ac5ea37381e4ce97d946f13fbebfa635c38975c0fbd780864775b86fb1e66ffe",
        "sha256_in_prefix": "ac5ea37381e4ce97d946f13fbebfa635c38975c0fbd780864775b86fb1e66ffe",
        "size_in_bytes": 369
      },
      {
        "_path": "share/examples/krb5/services.append",
        "path_type": "hardlink",
        "sha256": "4e8f694996021b0ffd0edc2ef7f36ebc202e697c5ee919f05a9e1d43120db2be",
        "sha256_in_prefix": "4e8f694996021b0ffd0edc2ef7f36ebc202e697c5ee919f05a9e1d43120db2be",
        "size_in_bytes": 598
      },
      {
        "_path": "share/locale/de/LC_MESSAGES/mit-krb5.mo",
        "path_type": "hardlink",
        "sha256": "ca16ed36b3ce702b92fca12dc38add4fb9c51148ea776e3dd73a7e8d8d42b931",
        "sha256_in_prefix": "ca16ed36b3ce702b92fca12dc38add4fb9c51148ea776e3dd73a7e8d8d42b931",
        "size_in_bytes": 199371
      },
      {
        "_path": "share/locale/en_US/LC_MESSAGES/mit-krb5.mo",
        "path_type": "hardlink",
        "sha256": "77df12674577f3a59f39384ab8b417975995c04fc444376a5b653951d7792549",
        "sha256_in_prefix": "77df12674577f3a59f39384ab8b417975995c04fc444376a5b653951d7792549",
        "size_in_bytes": 410
      },
      {
        "_path": "share/man/man1/compile_et.1",
        "path_type": "hardlink",
        "sha256": "f31c861f180c6397b7796c8c86016ced1b6cef519f76ee26bc3bf5a23665fde7",
        "sha256_in_prefix": "f31c861f180c6397b7796c8c86016ced1b6cef519f76ee26bc3bf5a23665fde7",
        "size_in_bytes": 2549
      },
      {
        "_path": "share/man/man1/k5srvutil.1",
        "path_type": "hardlink",
        "sha256": "702bfc4f41205102da1834620fdc130426dab55c8885826bfc53459896872f47",
        "sha256_in_prefix": "702bfc4f41205102da1834620fdc130426dab55c8885826bfc53459896872f47",
        "size_in_bytes": 2868
      },
      {
        "_path": "share/man/man1/kadmin.1",
        "path_type": "hardlink",
        "sha256": "a594418ed3b025ae9aab3fd40a010bd3770463ba022b615bb4733ac0f0de090c",
        "sha256_in_prefix": "a594418ed3b025ae9aab3fd40a010bd3770463ba022b615bb4733ac0f0de090c",
        "size_in_bytes": 32346
      },
      {
        "_path": "share/man/man1/kdestroy.1",
        "path_type": "hardlink",
        "sha256": "430ab933a4b83ce47cee922af44bc975e17d1261bec9a667513a2f7d9650d54a",
        "sha256_in_prefix": "430ab933a4b83ce47cee922af44bc975e17d1261bec9a667513a2f7d9650d54a",
        "size_in_bytes": 2539
      },
      {
        "_path": "share/man/man1/kinit.1",
        "path_type": "hardlink",
        "sha256": "4d020d92f102f490179fbb37766a181575fadc60e6d6599375a6666f0520d0d5",
        "sha256_in_prefix": "4d020d92f102f490179fbb37766a181575fadc60e6d6599375a6666f0520d0d5",
        "size_in_bytes": 8077
      },
      {
        "_path": "share/man/man1/klist.1",
        "path_type": "hardlink",
        "sha256": "d1fe4323bc8bc676c02ecb20d68a0ffef2d3dbff1a4007648795a51933ce40f0",
        "sha256_in_prefix": "d1fe4323bc8bc676c02ecb20d68a0ffef2d3dbff1a4007648795a51933ce40f0",
        "size_in_bytes": 3703
      },
      {
        "_path": "share/man/man1/kpasswd.1",
        "path_type": "hardlink",
        "sha256": "4b1794c70ee2fb6b45e875983b744eb39b08ef487c89be50a51c8ceb8584ee4e",
        "sha256_in_prefix": "4b1794c70ee2fb6b45e875983b744eb39b08ef487c89be50a51c8ceb8584ee4e",
        "size_in_bytes": 1866
      },
      {
        "_path": "share/man/man1/krb5-config.1",
        "path_type": "hardlink",
        "sha256": "d68850afd4f18210581a1d95beb23c1a571c762d00bad3edbafce459cd88abd0",
        "sha256_in_prefix": "d68850afd4f18210581a1d95beb23c1a571c762d00bad3edbafce459cd88abd0",
        "size_in_bytes": 3337
      },
      {
        "_path": "share/man/man1/ksu.1",
        "path_type": "hardlink",
        "sha256": "ca815e99a84438a92bf611b4fe4b5403df5b7ef08a39545f06e54b60cc44ddf3",
        "sha256_in_prefix": "ca815e99a84438a92bf611b4fe4b5403df5b7ef08a39545f06e54b60cc44ddf3",
        "size_in_bytes": 16860
      },
      {
        "_path": "share/man/man1/kswitch.1",
        "path_type": "hardlink",
        "sha256": "643293b76cb59377b12c6640ef0d5efa17337aaa8485bcbc1e7d6af3e9bd5acf",
        "sha256_in_prefix": "643293b76cb59377b12c6640ef0d5efa17337aaa8485bcbc1e7d6af3e9bd5acf",
        "size_in_bytes": 1660
      },
      {
        "_path": "share/man/man1/ktutil.1",
        "path_type": "hardlink",
        "sha256": "e89b0c8dae5a5c90a22cfd334e3cfe71e37c83dcf5033ba5b25e131a23e7e6b8",
        "sha256_in_prefix": "e89b0c8dae5a5c90a22cfd334e3cfe71e37c83dcf5033ba5b25e131a23e7e6b8",
        "size_in_bytes": 3702
      },
      {
        "_path": "share/man/man1/kvno.1",
        "path_type": "hardlink",
        "sha256": "18824aa51e51a7a08be13a2085668df4151c966cbff82bf7163bde5bb0f5432b",
        "sha256_in_prefix": "18824aa51e51a7a08be13a2085668df4151c966cbff82bf7163bde5bb0f5432b",
        "size_in_bytes": 3143
      },
      {
        "_path": "share/man/man1/sclient.1",
        "path_type": "hardlink",
        "sha256": "13d010ca30e6cc1b2da2cedf55c76dcbcde1e770b0920e0601738a810d8e97fc",
        "sha256_in_prefix": "13d010ca30e6cc1b2da2cedf55c76dcbcde1e770b0920e0601738a810d8e97fc",
        "size_in_bytes": 1284
      },
      {
        "_path": "share/man/man5/.k5identity.5",
        "path_type": "hardlink",
        "sha256": "a27b58476a353f8701f12c453eb5621e17df622d26fc77bd343ef5b60bb66a4d",
        "sha256_in_prefix": "a27b58476a353f8701f12c453eb5621e17df622d26fc77bd343ef5b60bb66a4d",
        "size_in_bytes": 22
      },
      {
        "_path": "share/man/man5/.k5login.5",
        "path_type": "hardlink",
        "sha256": "251f58277a1ccfb7190717eb6890c4f94e6e65467b306ac422c3bbdc21160259",
        "sha256_in_prefix": "251f58277a1ccfb7190717eb6890c4f94e6e65467b306ac422c3bbdc21160259",
        "size_in_bytes": 19
      },
      {
        "_path": "share/man/man5/k5identity.5",
        "path_type": "hardlink",
        "sha256": "3ef574572f1cea5ce6de224da266dc1b54aaac5f068cbed90caceed19c710337",
        "sha256_in_prefix": "3ef574572f1cea5ce6de224da266dc1b54aaac5f068cbed90caceed19c710337",
        "size_in_bytes": 3064
      },
      {
        "_path": "share/man/man5/k5login.5",
        "path_type": "hardlink",
        "sha256": "8de7fa5d5fac1f8e876e946006f948396cca9af695c00a0ca1a85fe48ab38c76",
        "sha256_in_prefix": "8de7fa5d5fac1f8e876e946006f948396cca9af695c00a0ca1a85fe48ab38c76",
        "size_in_bytes": 2833
      },
      {
        "_path": "share/man/man5/kadm5.acl.5",
        "file_mode": "text",
        "path_type": "hardlink",
        "prefix_placeholder": "/home/conda/feedstock_root/build_artifacts/krb5_1598893502369/_h_env_placehold_placehold_placehold_placehold_placehold_placehold_placehold_placehold_placehold_placehold_placehold_placehold_placehold_placehold_placehold_placehold_placehold_placehold_placeh",
        "sha256": "d1a853f02659f898b277aa9f8dc5846c775d08ae3dff4deccc28e7f2f8bd8467",
        "sha256_in_prefix": "b3748185bf6470a8d12c72a64b2af10dcf1004c506cde7a60b94fb2417849221",
        "size_in_bytes": 7696
      },
      {
        "_path": "share/man/man5/kdc.conf.5",
        "file_mode": "text",
        "path_type": "hardlink",
        "prefix_placeholder": "/home/conda/feedstock_root/build_artifacts/krb5_1598893502369/_h_env_placehold_placehold_placehold_placehold_placehold_placehold_placehold_placehold_placehold_placehold_placehold_placehold_placehold_placehold_placehold_placehold_placehold_placehold_placeh",
        "sha256": "8f52fbfa4d6c8b70c01f30190f4075f603a9cf79e6daf1fef98adcfe37447add",
        "sha256_in_prefix": "f00390ea8502fe4d478be8f988bf6102d627b662bbfab135571da261965265d3",
        "size_in_bytes": 42344
      },
      {
        "_path": "share/man/man5/krb5.conf.5",
        "path_type": "hardlink",
        "sha256": "b39783c2dd9ea45b72aa3ad71470b41f6282801aa69b1078af93abc23591ec3f",
        "sha256_in_prefix": "b39783c2dd9ea45b72aa3ad71470b41f6282801aa69b1078af93abc23591ec3f",
        "size_in_bytes": 49923
      },
      {
        "_path": "share/man/man7/kerberos.7",
        "file_mode": "text",
        "path_type": "hardlink",
        "prefix_placeholder": "/home/conda/feedstock_root/build_artifacts/krb5_1598893502369/_h_env_placehold_placehold_placehold_placehold_placehold_placehold_placehold_placehold_placehold_placehold_placehold_placehold_placehold_placehold_placehold_placehold_placehold_placehold_placeh",
        "sha256": "2ea2eb32603f6b0741587f070ef9cff4c2a5ac61f850a0d6862253406b9c80a7",
        "sha256_in_prefix": "0eead9f61f4e5059623edcfb903830ee9e62cb5eda71f6647a87aedb8f310467",
        "size_in_bytes": 7856
      },
      {
        "_path": "share/man/man8/kadmin.local.8",
        "path_type": "hardlink",
        "sha256": "5ca50e711339491b407438689b8781e86c0e43a885ace7a93dca694246cc20be",
        "sha256_in_prefix": "5ca50e711339491b407438689b8781e86c0e43a885ace7a93dca694246cc20be",
        "size_in_bytes": 18
      },
      {
        "_path": "share/man/man8/kadmind.8",
        "file_mode": "text",
        "path_type": "hardlink",
        "prefix_placeholder": "/home/conda/feedstock_root/build_artifacts/krb5_1598893502369/_h_env_placehold_placehold_placehold_placehold_placehold_placehold_placehold_placehold_placehold_placehold_placehold_placehold_placehold_placehold_placehold_placehold_placehold_placehold_placeh",
        "sha256": "a1cecdb2ec78a8b98f47d6c1cb7d12907928f5f2a80760d7d74cef385d7a9896",
        "sha256_in_prefix": "fba789be3fb3dcc2145d09818aefc1bdab71264105265bdfd10bbf8044ae913e",
        "size_in_bytes": 5414
      },
      {
        "_path": "share/man/man8/kdb5_ldap_util.8",
        "path_type": "hardlink",
        "sha256": "a1fa3098b6361fe3bb9203dd4b6252b98e9a3aa6839b0ad6302a4d778cd60aac",
        "sha256_in_prefix": "a1fa3098b6361fe3bb9203dd4b6252b98e9a3aa6839b0ad6302a4d778cd60aac",
        "size_in_bytes": 12708
      },
      {
        "_path": "share/man/man8/kdb5_util.8",
        "path_type": "hardlink",
        "sha256": "c89de8f99e7196004a4a361578a7e0b8e9e9751002edf19bcdd3578eb746d942",
        "sha256_in_prefix": "c89de8f99e7196004a4a361578a7e0b8e9e9751002edf19bcdd3578eb746d942",
        "size_in_bytes": 16430
      },
      {
        "_path": "share/man/man8/kprop.8",
        "file_mode": "text",
        "path_type": "hardlink",
        "prefix_placeholder": "/home/conda/feedstock_root/build_artifacts/krb5_1598893502369/_h_env_placehold_placehold_placehold_placehold_placehold_placehold_placehold_placehold_placehold_placehold_placehold_placehold_placehold_placehold_placehold_placehold_placehold_placehold_placeh",
        "sha256": "02af6b74b3575fc33bcf8a72a612fe8ec8a2e7d00515728596aa1e9abb93c3a8",
        "sha256_in_prefix": "f63dc574768b6cd2e348d0719645bdd69b6dddd06821588606351e4457ec5efa",
        "size_in_bytes": 2226
      },
      {
        "_path": "share/man/man8/kpropd.8",
        "file_mode": "text",
        "path_type": "hardlink",
        "prefix_placeholder": "/home/conda/feedstock_root/build_artifacts/krb5_1598893502369/_h_env_placehold_placehold_placehold_placehold_placehold_placehold_placehold_placehold_placehold_placehold_placehold_placehold_placehold_placehold_placehold_placehold_placehold_placehold_placeh",
        "sha256": "d7fdb128231e01ba20ccfe9e57455057826c19e57e52e64f2e38193f7e2ef7c6",
        "sha256_in_prefix": "040066b72fbde02af8c0b3d787e0fb8fe3f1f6ea8503e7941fca4fef0d366b9f",
        "size_in_bytes": 6329
      },
      {
        "_path": "share/man/man8/kproplog.8",
        "path_type": "hardlink",
        "sha256": "6dbfae2dde83074abbb1d5f2a2af5840de3a3478d5a0cd64e4f59f0ca77bd392",
        "sha256_in_prefix": "6dbfae2dde83074abbb1d5f2a2af5840de3a3478d5a0cd64e4f59f0ca77bd392",
        "size_in_bytes": 3368
      },
      {
        "_path": "share/man/man8/krb5kdc.8",
        "path_type": "hardlink",
        "sha256": "3620fbc3334fcb6c8b97a58e8aa8445ca5294f9187cf513eae92d0b40b15d6a0",
        "sha256_in_prefix": "3620fbc3334fcb6c8b97a58e8aa8445ca5294f9187cf513eae92d0b40b15d6a0",
        "size_in_bytes": 4707
      },
      {
        "_path": "share/man/man8/sserver.8",
        "path_type": "hardlink",
        "sha256": "ab756f7cbff86ae38665ae5267d2aca2d9f445266f8b38def6385d311e4a5e09",
        "sha256_in_prefix": "ab756f7cbff86ae38665ae5267d2aca2d9f445266f8b38def6385d311e4a5e09",
        "size_in_bytes": 4536
      }
    ],
    "paths_version": 1
  },
  "requested_spec": "None",
  "sha256": "8762d67d77de36ce8f1f6c53bf904dfa8221914513645525b0a04a8573f765cf",
  "size": 1527760,
  "subdir": "linux-64",
  "timestamp": 1598893768795,
  "track_features": "",
  "url": "https://conda.anaconda.org/conda-forge/linux-64/krb5-1.17.1-hfafb76e_3.tar.bz2",
  "version": "1.17.1"
}