{
  "build": "1_cp38",
  "build_number": 1,
  "channel": "https://conda.anaconda.org/conda-forge/linux-64",
  "constrains": [
    "pypy <0a0",
    "python_abi * *_cp38"
  ],
  "depends": [
    "python 3.8.*"
  ],
  "extracted_package_dir": "/home/sam/anaconda3/pkgs/python_abi-3.8-1_cp38",
  "features": "",
  "files": [],
  "fn": "python_abi-3.8-1_cp38.tar.bz2",
  "license": "BSD-3-Clause",
  "license_family": "BSD",
  "link": {
    "source": "/home/sam/anaconda3/pkgs/python_abi-3.8-1_cp38",
    "type": 1
  },
  "md5": "8d05152d6fb3012b27a0e6fbcc14bea1",
  "name": "python_abi",
  "package_tarball_full_path": "/home/sam/anaconda3/pkgs/python_abi-3.8-1_cp38.tar.bz2",
  "paths_data": {
    "paths": [],
    "paths_version": 1
  },
  "requested_spec": "None",
  "sha256": "f35cedd88f006de8af6898948b5e34d76de30c24e045227eab54813e93db5c23",
  "size": 3778,
  "subdir": "linux-64",
  "timestamp": 1583344763308,
  "track_features": "",
  "url": "https://conda.anaconda.org/conda-forge/linux-64/python_abi-3.8-1_cp38.tar.bz2",
  "version": "3.8"
}