{
  "build": "h516909a_1",
  "build_number": 1,
  "channel": "https://conda.anaconda.org/conda-forge/linux-64",
  "constrains": [],
  "depends": [
    "libgcc-ng >=7.5.0"
  ],
  "extracted_package_dir": "/home/sam/anaconda3/pkgs/xz-5.2.5-h516909a_1",
  "features": "",
  "files": [
    "bin/lzcat",
    "bin/lzcmp",
    "bin/lzdiff",
    "bin/lzegrep",
    "bin/lzfgrep",
    "bin/lzgrep",
    "bin/lzless",
    "bin/lzma",
    "bin/lzmadec",
    "bin/lzmainfo",
    "bin/lzmore",
    "bin/unlzma",
    "bin/unxz",
    "bin/xz",
    "bin/xzcat",
    "bin/xzcmp",
    "bin/xzdec",
    "bin/xzdiff",
    "bin/xzegrep",
    "bin/xzfgrep",
    "bin/xzgrep",
    "bin/xzless",
    "bin/xzmore",
    "include/lzma.h",
    "include/lzma/base.h",
    "include/lzma/bcj.h",
    "include/lzma/block.h",
    "include/lzma/check.h",
    "include/lzma/container.h",
    "include/lzma/delta.h",
    "include/lzma/filter.h",
    "include/lzma/hardware.h",
    "include/lzma/index.h",
    "include/lzma/index_hash.h",
    "include/lzma/lzma12.h",
    "include/lzma/stream_flags.h",
    "include/lzma/version.h",
    "include/lzma/vli.h",
    "lib/liblzma.so",
    "lib/liblzma.so.5",
    "lib/liblzma.so.5.2.5",
    "lib/pkgconfig/liblzma.pc",
    "share/doc/xz/AUTHORS",
    "share/doc/xz/COPYING",
    "share/doc/xz/COPYING.GPLv2",
    "share/doc/xz/NEWS",
    "share/doc/xz/README",
    "share/doc/xz/THANKS",
    "share/doc/xz/TODO",
    "share/doc/xz/examples/00_README.txt",
    "share/doc/xz/examples/01_compress_easy.c",
    "share/doc/xz/examples/02_decompress.c",
    "share/doc/xz/examples/03_compress_custom.c",
    "share/doc/xz/examples/04_compress_easy_mt.c",
    "share/doc/xz/examples/Makefile",
    "share/doc/xz/examples_old/xz_pipe_comp.c",
    "share/doc/xz/examples_old/xz_pipe_decomp.c",
    "share/doc/xz/faq.txt",
    "share/doc/xz/history.txt",
    "share/doc/xz/lzma-file-format.txt",
    "share/doc/xz/xz-file-format.txt",
    "share/locale/cs/LC_MESSAGES/xz.mo",
    "share/locale/da/LC_MESSAGES/xz.mo",
    "share/locale/de/LC_MESSAGES/xz.mo",
    "share/locale/fi/LC_MESSAGES/xz.mo",
    "share/locale/fr/LC_MESSAGES/xz.mo",
    "share/locale/hu/LC_MESSAGES/xz.mo",
    "share/locale/it/LC_MESSAGES/xz.mo",
    "share/locale/pl/LC_MESSAGES/xz.mo",
    "share/locale/pt_BR/LC_MESSAGES/xz.mo",
    "share/locale/vi/LC_MESSAGES/xz.mo",
    "share/locale/zh_CN/LC_MESSAGES/xz.mo",
    "share/locale/zh_TW/LC_MESSAGES/xz.mo",
    "share/man/de/man1/lzcat.1",
    "share/man/de/man1/lzcmp.1",
    "share/man/de/man1/lzdiff.1",
    "share/man/de/man1/lzegrep.1",
    "share/man/de/man1/lzfgrep.1",
    "share/man/de/man1/lzgrep.1",
    "share/man/de/man1/lzless.1",
    "share/man/de/man1/lzma.1",
    "share/man/de/man1/lzmadec.1",
    "share/man/de/man1/lzmore.1",
    "share/man/de/man1/unlzma.1",
    "share/man/de/man1/unxz.1",
    "share/man/de/man1/xz.1",
    "share/man/de/man1/xzcat.1",
    "share/man/de/man1/xzcmp.1",
    "share/man/de/man1/xzdec.1",
    "share/man/de/man1/xzdiff.1",
    "share/man/de/man1/xzegrep.1",
    "share/man/de/man1/xzfgrep.1",
    "share/man/de/man1/xzgrep.1",
    "share/man/de/man1/xzless.1",
    "share/man/de/man1/xzmore.1",
    "share/man/man1/lzcat.1",
    "share/man/man1/lzcmp.1",
    "share/man/man1/lzdiff.1",
    "share/man/man1/lzegrep.1",
    "share/man/man1/lzfgrep.1",
    "share/man/man1/lzgrep.1",
    "share/man/man1/lzless.1",
    "share/man/man1/lzma.1",
    "share/man/man1/lzmadec.1",
    "share/man/man1/lzmainfo.1",
    "share/man/man1/lzmore.1",
    "share/man/man1/unlzma.1",
    "share/man/man1/unxz.1",
    "share/man/man1/xz.1",
    "share/man/man1/xzcat.1",
    "share/man/man1/xzcmp.1",
    "share/man/man1/xzdec.1",
    "share/man/man1/xzdiff.1",
    "share/man/man1/xzegrep.1",
    "share/man/man1/xzfgrep.1",
    "share/man/man1/xzgrep.1",
    "share/man/man1/xzless.1",
    "share/man/man1/xzmore.1"
  ],
  "fn": "xz-5.2.5-h516909a_1.tar.bz2",
  "license": "LGPL-2.1 and GPL-2.0",
  "link": {
    "source": "/home/sam/anaconda3/pkgs/xz-5.2.5-h516909a_1",
    "type": 1
  },
  "md5": "33f601066901f3e1a85af3522a8113f9",
  "name": "xz",
  "package_tarball_full_path": "/home/sam/anaconda3/pkgs/xz-5.2.5-h516909a_1.tar.bz2",
  "paths_data": {
    "paths": [
      {
        "_path": "bin/lzcat",
        "path_type": "softlink",
        "sha256": "59feb5447a465b43732c54dcf214a15f93e6df85f4f773f234e8fc77a4123bab",
        "size_in_bytes": 99712
      },
      {
        "_path": "bin/lzcmp",
        "path_type": "softlink",
        "sha256": "a24ec570c677f281bc462c6b65c7eedf583c0633199074c2fc16e4a707de3169",
        "size_in_bytes": 6633
      },
      {
        "_path": "bin/lzdiff",
        "path_type": "softlink",
        "sha256": "a24ec570c677f281bc462c6b65c7eedf583c0633199074c2fc16e4a707de3169",
        "size_in_bytes": 6633
      },
      {
        "_path": "bin/lzegrep",
        "path_type": "softlink",
        "sha256": "9f3e6b7f5d2b81c6e2ffd9ec29fdc90f2559605303baf835c32634c294765a0f",
        "size_in_bytes": 5630
      },
      {
        "_path": "bin/lzfgrep",
        "path_type": "softlink",
        "sha256": "9f3e6b7f5d2b81c6e2ffd9ec29fdc90f2559605303baf835c32634c294765a0f",
        "size_in_bytes": 5630
      },
      {
        "_path": "bin/lzgrep",
        "path_type": "softlink",
        "sha256": "9f3e6b7f5d2b81c6e2ffd9ec29fdc90f2559605303baf835c32634c294765a0f",
        "size_in_bytes": 5630
      },
      {
        "_path": "bin/lzless",
        "path_type": "softlink",
        "sha256": "72b2f0b6571d84243b178c7e3f6092b15b6a5dd11361e77c81c036b32129dd2a",
        "size_in_bytes": 1799
      },
      {
        "_path": "bin/lzma",
        "path_type": "softlink",
        "sha256": "59feb5447a465b43732c54dcf214a15f93e6df85f4f773f234e8fc77a4123bab",
        "size_in_bytes": 99712
      },
      {
        "_path": "bin/lzmadec",
        "path_type": "hardlink",
        "sha256": "5cf064a9e936e385d467f871fb4a995b8981fc87550c92e8cdf12116d931c608",
        "sha256_in_prefix": "5cf064a9e936e385d467f871fb4a995b8981fc87550c92e8cdf12116d931c608",
        "size_in_bytes": 21240
      },
      {
        "_path": "bin/lzmainfo",
        "file_mode": "binary",
        "path_type": "hardlink",
        "prefix_placeholder": "/home/conda/feedstock_root/build_artifacts/xz_1594309551729/_h_env_placehold_placehold_placehold_placehold_placehold_placehold_placehold_placehold_placehold_placehold_placehold_placehold_placehold_placehold_placehold_placehold_placehold_placehold_placehol",
        "sha256": "f5c871dff5d342f7a0e6fd13116498157502b19b0785400c766d2eeab144c879",
        "sha256_in_prefix": "47fddade61c3d1c0a75cd294f3b7bb464130bfb2a9d8318377d0d8fdbe06fda7",
        "size_in_bytes": 21152
      },
      {
        "_path": "bin/lzmore",
        "path_type": "softlink",
        "sha256": "894a74d5538425ee65e1971df1f96bf3d08929b806715c4d540b41db202f0a8b",
        "size_in_bytes": 2162
      },
      {
        "_path": "bin/unlzma",
        "path_type": "softlink",
        "sha256": "59feb5447a465b43732c54dcf214a15f93e6df85f4f773f234e8fc77a4123bab",
        "size_in_bytes": 99712
      },
      {
        "_path": "bin/unxz",
        "path_type": "softlink",
        "sha256": "59feb5447a465b43732c54dcf214a15f93e6df85f4f773f234e8fc77a4123bab",
        "size_in_bytes": 99712
      },
      {
        "_path": "bin/xz",
        "file_mode": "binary",
        "path_type": "hardlink",
        "prefix_placeholder": "/home/conda/feedstock_root/build_artifacts/xz_1594309551729/_h_env_placehold_placehold_placehold_placehold_placehold_placehold_placehold_placehold_placehold_placehold_placehold_placehold_placehold_placehold_placehold_placehold_placehold_placehold_placehol",
        "sha256": "59feb5447a465b43732c54dcf214a15f93e6df85f4f773f234e8fc77a4123bab",
        "sha256_in_prefix": "ed02d2a16815305bdc5f522d0381c79ef86862d6d7274badd21890f4ebef4e71",
        "size_in_bytes": 99712
      },
      {
        "_path": "bin/xzcat",
        "path_type": "softlink",
        "sha256": "59feb5447a465b43732c54dcf214a15f93e6df85f4f773f234e8fc77a4123bab",
        "size_in_bytes": 99712
      },
      {
        "_path": "bin/xzcmp",
        "path_type": "softlink",
        "sha256": "a24ec570c677f281bc462c6b65c7eedf583c0633199074c2fc16e4a707de3169",
        "size_in_bytes": 6633
      },
      {
        "_path": "bin/xzdec",
        "path_type": "hardlink",
        "sha256": "6cc7cf199dc58b4c850981d276e1252d345577b42f4ab8ecdb49914efa7cc66c",
        "sha256_in_prefix": "6cc7cf199dc58b4c850981d276e1252d345577b42f4ab8ecdb49914efa7cc66c",
        "size_in_bytes": 21240
      },
      {
        "_path": "bin/xzdiff",
        "path_type": "hardlink",
        "sha256": "a24ec570c677f281bc462c6b65c7eedf583c0633199074c2fc16e4a707de3169",
        "sha256_in_prefix": "a24ec570c677f281bc462c6b65c7eedf583c0633199074c2fc16e4a707de3169",
        "size_in_bytes": 6633
      },
      {
        "_path": "bin/xzegrep",
        "path_type": "softlink",
        "sha256": "9f3e6b7f5d2b81c6e2ffd9ec29fdc90f2559605303baf835c32634c294765a0f",
        "size_in_bytes": 5630
      },
      {
        "_path": "bin/xzfgrep",
        "path_type": "softlink",
        "sha256": "9f3e6b7f5d2b81c6e2ffd9ec29fdc90f2559605303baf835c32634c294765a0f",
        "size_in_bytes": 5630
      },
      {
        "_path": "bin/xzgrep",
        "path_type": "hardlink",
        "sha256": "9f3e6b7f5d2b81c6e2ffd9ec29fdc90f2559605303baf835c32634c294765a0f",
        "sha256_in_prefix": "9f3e6b7f5d2b81c6e2ffd9ec29fdc90f2559605303baf835c32634c294765a0f",
        "size_in_bytes": 5630
      },
      {
        "_path": "bin/xzless",
        "path_type": "hardlink",
        "sha256": "72b2f0b6571d84243b178c7e3f6092b15b6a5dd11361e77c81c036b32129dd2a",
        "sha256_in_prefix": "72b2f0b6571d84243b178c7e3f6092b15b6a5dd11361e77c81c036b32129dd2a",
        "size_in_bytes": 1799
      },
      {
        "_path": "bin/xzmore",
        "path_type": "hardlink",
        "sha256": "894a74d5538425ee65e1971df1f96bf3d08929b806715c4d540b41db202f0a8b",
        "sha256_in_prefix": "894a74d5538425ee65e1971df1f96bf3d08929b806715c4d540b41db202f0a8b",
        "size_in_bytes": 2162
      },
      {
        "_path": "include/lzma.h",
        "path_type": "hardlink",
        "sha256": "322a2137797ba67d4381dd2ebc045bf0280ac052b504e83c20464ce3f33ff355",
        "sha256_in_prefix": "322a2137797ba67d4381dd2ebc045bf0280ac052b504e83c20464ce3f33ff355",
        "size_in_bytes": 9866
      },
      {
        "_path": "include/lzma/base.h",
        "path_type": "hardlink",
        "sha256": "b49a0688b71b84bce13e80af2a505bbc98f24f04302ceb6a6c5b8d6840a5a971",
        "sha256_in_prefix": "b49a0688b71b84bce13e80af2a505bbc98f24f04302ceb6a6c5b8d6840a5a971",
        "size_in_bytes": 24858
      },
      {
        "_path": "include/lzma/bcj.h",
        "path_type": "hardlink",
        "sha256": "485ee1ac185747b6e5324094aa462af194ba3a22a0206314e25f70423045e43d",
        "sha256_in_prefix": "485ee1ac185747b6e5324094aa462af194ba3a22a0206314e25f70423045e43d",
        "size_in_bytes": 2630
      },
      {
        "_path": "include/lzma/block.h",
        "path_type": "hardlink",
        "sha256": "6f6935c23c5e34bd0ff9e31998b130f48e54f4794858c0a79cd3dfb8197e660c",
        "sha256_in_prefix": "6f6935c23c5e34bd0ff9e31998b130f48e54f4794858c0a79cd3dfb8197e660c",
        "size_in_bytes": 22107
      },
      {
        "_path": "include/lzma/check.h",
        "path_type": "hardlink",
        "sha256": "79ef75b06fe389ccbc47ebeea1bb704157a58fe9710ddfbac8a62035359f9ae1",
        "sha256_in_prefix": "79ef75b06fe389ccbc47ebeea1bb704157a58fe9710ddfbac8a62035359f9ae1",
        "size_in_bytes": 4255
      },
      {
        "_path": "include/lzma/container.h",
        "path_type": "hardlink",
        "sha256": "13fbba65515bed9d108e97cba3227604291545290fec3f11d9f5babcc6811404",
        "sha256_in_prefix": "13fbba65515bed9d108e97cba3227604291545290fec3f11d9f5babcc6811404",
        "size_in_bytes": 24844
      },
      {
        "_path": "include/lzma/delta.h",
        "path_type": "hardlink",
        "sha256": "db9db049ab07363921bf19320174afbab16a1b4d401f797a5b2232dcb89b9d64",
        "sha256_in_prefix": "db9db049ab07363921bf19320174afbab16a1b4d401f797a5b2232dcb89b9d64",
        "size_in_bytes": 1865
      },
      {
        "_path": "include/lzma/filter.h",
        "path_type": "hardlink",
        "sha256": "0c30f1e1271e4bd06e07934b31b76edddbb7d8616e2b8043b36771ade8eb294b",
        "sha256_in_prefix": "0c30f1e1271e4bd06e07934b31b76edddbb7d8616e2b8043b36771ade8eb294b",
        "size_in_bytes": 16520
      },
      {
        "_path": "include/lzma/hardware.h",
        "path_type": "hardlink",
        "sha256": "7c9c7fdd29650a730e59281ea38e3826d94b518fa7e23573b9303ac8f3421083",
        "sha256_in_prefix": "7c9c7fdd29650a730e59281ea38e3826d94b518fa7e23573b9303ac8f3421083",
        "size_in_bytes": 2604
      },
      {
        "_path": "include/lzma/index.h",
        "path_type": "hardlink",
        "sha256": "9eb7451f4d8de7d51a17585b7a86c3b4eb02d00d7e7fc1c390255e34231f3516",
        "sha256_in_prefix": "9eb7451f4d8de7d51a17585b7a86c3b4eb02d00d7e7fc1c390255e34231f3516",
        "size_in_bytes": 23491
      },
      {
        "_path": "include/lzma/index_hash.h",
        "path_type": "hardlink",
        "sha256": "0840c2ae8dedc05a7ffe1597ead131532a8dc03521728d1d38e55da0fa769831",
        "sha256_in_prefix": "0840c2ae8dedc05a7ffe1597ead131532a8dc03521728d1d38e55da0fa769831",
        "size_in_bytes": 3914
      },
      {
        "_path": "include/lzma/lzma12.h",
        "path_type": "hardlink",
        "sha256": "caf8948b9306d508026cc3bbadea579eb8e75a24c444fdbe9986a4cc01a7b362",
        "sha256_in_prefix": "caf8948b9306d508026cc3bbadea579eb8e75a24c444fdbe9986a4cc01a7b362",
        "size_in_bytes": 14744
      },
      {
        "_path": "include/lzma/stream_flags.h",
        "path_type": "hardlink",
        "sha256": "beba70fa9d83dc6a7fcfae9b1f8d07b3b5acbbdc789f008e63da4206e2434acc",
        "sha256_in_prefix": "beba70fa9d83dc6a7fcfae9b1f8d07b3b5acbbdc789f008e63da4206e2434acc",
        "size_in_bytes": 8253
      },
      {
        "_path": "include/lzma/version.h",
        "path_type": "hardlink",
        "sha256": "a334c2e4d0f31e023f78e8582823166e342dfe3f661e28e0c549277aa2843592",
        "sha256_in_prefix": "a334c2e4d0f31e023f78e8582823166e342dfe3f661e28e0c549277aa2843592",
        "size_in_bytes": 3497
      },
      {
        "_path": "include/lzma/vli.h",
        "path_type": "hardlink",
        "sha256": "501ba06a4c33a45d83d830975643bdb646936e9e47fd07124c843453cf9a8776",
        "sha256_in_prefix": "501ba06a4c33a45d83d830975643bdb646936e9e47fd07124c843453cf9a8776",
        "size_in_bytes": 6546
      },
      {
        "_path": "lib/liblzma.so",
        "path_type": "softlink",
        "sha256": "0d4ea794275b3fe42fa08673ff7ec23d2a46b1ab131702f32bd9924641e27c14",
        "size_in_bytes": 181608
      },
      {
        "_path": "lib/liblzma.so.5",
        "path_type": "softlink",
        "sha256": "0d4ea794275b3fe42fa08673ff7ec23d2a46b1ab131702f32bd9924641e27c14",
        "size_in_bytes": 181608
      },
      {
        "_path": "lib/liblzma.so.5.2.5",
        "path_type": "hardlink",
        "sha256": "0d4ea794275b3fe42fa08673ff7ec23d2a46b1ab131702f32bd9924641e27c14",
        "sha256_in_prefix": "0d4ea794275b3fe42fa08673ff7ec23d2a46b1ab131702f32bd9924641e27c14",
        "size_in_bytes": 181608
      },
      {
        "_path": "lib/pkgconfig/liblzma.pc",
        "file_mode": "text",
        "path_type": "hardlink",
        "prefix_placeholder": "/home/conda/feedstock_root/build_artifacts/xz_1594309551729/_h_env_placehold_placehold_placehold_placehold_placehold_placehold_placehold_placehold_placehold_placehold_placehold_placehold_placehold_placehold_placehold_placehold_placehold_placehold_placehol",
        "sha256": "0eb91f46a3e436b513e14a308a0e70f60a5f8419f74b33c7399e224daec25a4b",
        "sha256_in_prefix": "dfbf0be73678b74574783f9c71b3a7d36bcc33cd48a8388d0b9fc8e7d3293f32",
        "size_in_bytes": 1400
      },
      {
        "_path": "share/doc/xz/AUTHORS",
        "path_type": "hardlink",
        "sha256": "72d7a7ee8a4eaca5d0b53f20609eff95d5e6f9e155ecce98127414b8215b0b15",
        "sha256_in_prefix": "72d7a7ee8a4eaca5d0b53f20609eff95d5e6f9e155ecce98127414b8215b0b15",
        "size_in_bytes": 1043
      },
      {
        "_path": "share/doc/xz/COPYING",
        "path_type": "hardlink",
        "sha256": "bcb02973ef6e87ea73d331b3a80df7748407f17efdb784b61b47e0e610d3bb5c",
        "sha256_in_prefix": "bcb02973ef6e87ea73d331b3a80df7748407f17efdb784b61b47e0e610d3bb5c",
        "size_in_bytes": 2775
      },
      {
        "_path": "share/doc/xz/COPYING.GPLv2",
        "path_type": "hardlink",
        "sha256": "8177f97513213526df2cf6184d8ff986c675afb514d4e68a404010521b880643",
        "sha256_in_prefix": "8177f97513213526df2cf6184d8ff986c675afb514d4e68a404010521b880643",
        "size_in_bytes": 18092
      },
      {
        "_path": "share/doc/xz/NEWS",
        "path_type": "hardlink",
        "sha256": "5915dee10a4a767278b291132c31302f07030170b127119f59199b8aec524e19",
        "sha256_in_prefix": "5915dee10a4a767278b291132c31302f07030170b127119f59199b8aec524e19",
        "size_in_bytes": 26012
      },
      {
        "_path": "share/doc/xz/README",
        "path_type": "hardlink",
        "sha256": "ece36ba9d86f9952265a9a443a2ceb2a1eee5f192079180beab1d23212808c28",
        "sha256_in_prefix": "ece36ba9d86f9952265a9a443a2ceb2a1eee5f192079180beab1d23212808c28",
        "size_in_bytes": 9936
      },
      {
        "_path": "share/doc/xz/THANKS",
        "path_type": "hardlink",
        "sha256": "bcb2f3d036e823232e43706850e07bf8a493c49798354c4c97b2f2b15bf64a68",
        "sha256_in_prefix": "bcb2f3d036e823232e43706850e07bf8a493c49798354c4c97b2f2b15bf64a68",
        "size_in_bytes": 2673
      },
      {
        "_path": "share/doc/xz/TODO",
        "path_type": "hardlink",
        "sha256": "2ce425810436c5299aa5e4a8b0186c0de15a496697b518481f606abb421e80a9",
        "sha256_in_prefix": "2ce425810436c5299aa5e4a8b0186c0de15a496697b518481f606abb421e80a9",
        "size_in_bytes": 4040
      },
      {
        "_path": "share/doc/xz/examples/00_README.txt",
        "path_type": "hardlink",
        "sha256": "f0ddaa731c89d6028f55281229e56b89f32b8c477aba4f52367488f0f42651be",
        "sha256_in_prefix": "f0ddaa731c89d6028f55281229e56b89f32b8c477aba4f52367488f0f42651be",
        "size_in_bytes": 1037
      },
      {
        "_path": "share/doc/xz/examples/01_compress_easy.c",
        "path_type": "hardlink",
        "sha256": "183bea5347ddd735ea9ebdb39fe21d0c91b191c8b16157480e1ca0623c72372d",
        "sha256_in_prefix": "183bea5347ddd735ea9ebdb39fe21d0c91b191c8b16157480e1ca0623c72372d",
        "size_in_bytes": 9534
      },
      {
        "_path": "share/doc/xz/examples/02_decompress.c",
        "path_type": "hardlink",
        "sha256": "1c8733c08e1edbd727bb623eb23b5505b32a4306e310ee4f9048fc9bf4af8de2",
        "sha256_in_prefix": "1c8733c08e1edbd727bb623eb23b5505b32a4306e310ee4f9048fc9bf4af8de2",
        "size_in_bytes": 8913
      },
      {
        "_path": "share/doc/xz/examples/03_compress_custom.c",
        "path_type": "hardlink",
        "sha256": "914afd1e3494d9942ef752123f9743fa9427d5a82ca3e593794b9a4d9e390f42",
        "sha256_in_prefix": "914afd1e3494d9942ef752123f9743fa9427d5a82ca3e593794b9a4d9e390f42",
        "size_in_bytes": 5025
      },
      {
        "_path": "share/doc/xz/examples/04_compress_easy_mt.c",
        "path_type": "hardlink",
        "sha256": "80a5d7e1acd455ffb55bd1ca26f767789171293a231e6645ca991b83b954988c",
        "sha256_in_prefix": "80a5d7e1acd455ffb55bd1ca26f767789171293a231e6645ca991b83b954988c",
        "size_in_bytes": 5214
      },
      {
        "_path": "share/doc/xz/examples/Makefile",
        "path_type": "hardlink",
        "sha256": "067ac8dbf5a9cab8c2a12b3fadda34c93656308f150a8a195bfcdb071ca043a7",
        "sha256_in_prefix": "067ac8dbf5a9cab8c2a12b3fadda34c93656308f150a8a195bfcdb071ca043a7",
        "size_in_bytes": 337
      },
      {
        "_path": "share/doc/xz/examples_old/xz_pipe_comp.c",
        "path_type": "hardlink",
        "sha256": "fce7eefb9149c5f5a43869e07a4a576c1f2af4ca0aae6872bd7ca50ed8c85522",
        "sha256_in_prefix": "fce7eefb9149c5f5a43869e07a4a576c1f2af4ca0aae6872bd7ca50ed8c85522",
        "size_in_bytes": 3043
      },
      {
        "_path": "share/doc/xz/examples_old/xz_pipe_decomp.c",
        "path_type": "hardlink",
        "sha256": "5d157c3c397fffc3b0489e49ef1d396fcfe6153f134ec5ea44ef0acc7fe474aa",
        "sha256_in_prefix": "5d157c3c397fffc3b0489e49ef1d396fcfe6153f134ec5ea44ef0acc7fe474aa",
        "size_in_bytes": 3130
      },
      {
        "_path": "share/doc/xz/faq.txt",
        "path_type": "hardlink",
        "sha256": "eff832647a62f3b582e0255a8d450523074874d16bf3bdcbae76acbfe23fbb29",
        "sha256_in_prefix": "eff832647a62f3b582e0255a8d450523074874d16bf3bdcbae76acbfe23fbb29",
        "size_in_bytes": 9411
      },
      {
        "_path": "share/doc/xz/history.txt",
        "path_type": "hardlink",
        "sha256": "9d6a0a72822734a0afb1816e07f0a7edab03339119bed4f393c1c7eec884eab6",
        "sha256_in_prefix": "9d6a0a72822734a0afb1816e07f0a7edab03339119bed4f393c1c7eec884eab6",
        "size_in_bytes": 7427
      },
      {
        "_path": "share/doc/xz/lzma-file-format.txt",
        "path_type": "hardlink",
        "sha256": "0e961a7244cca641aa33619e9c9f0d795f9cc95657245f5d157e5bad05d3df66",
        "sha256_in_prefix": "0e961a7244cca641aa33619e9c9f0d795f9cc95657245f5d157e5bad05d3df66",
        "size_in_bytes": 5689
      },
      {
        "_path": "share/doc/xz/xz-file-format.txt",
        "path_type": "hardlink",
        "sha256": "fada567e0ebd8b910d2c3210d13e74f3fcc8475d64e29e35db0fc05e3c6820f5",
        "sha256_in_prefix": "fada567e0ebd8b910d2c3210d13e74f3fcc8475d64e29e35db0fc05e3c6820f5",
        "size_in_bytes": 43305
      },
      {
        "_path": "share/locale/cs/LC_MESSAGES/xz.mo",
        "path_type": "hardlink",
        "sha256": "44be0d3073f342626a9fcb829148de534330aeb8e7ac9b696d034993766bbe3b",
        "sha256_in_prefix": "44be0d3073f342626a9fcb829148de534330aeb8e7ac9b696d034993766bbe3b",
        "size_in_bytes": 21904
      },
      {
        "_path": "share/locale/da/LC_MESSAGES/xz.mo",
        "path_type": "hardlink",
        "sha256": "4323aea451336747c0050509d647d7b010d210571d726045662f5795c683d652",
        "sha256_in_prefix": "4323aea451336747c0050509d647d7b010d210571d726045662f5795c683d652",
        "size_in_bytes": 14353
      },
      {
        "_path": "share/locale/de/LC_MESSAGES/xz.mo",
        "path_type": "hardlink",
        "sha256": "d311700e81b00076f204aaddfa77729b0758368d7347b638b5bbd3a88387d5be",
        "sha256_in_prefix": "d311700e81b00076f204aaddfa77729b0758368d7347b638b5bbd3a88387d5be",
        "size_in_bytes": 28028
      },
      {
        "_path": "share/locale/fi/LC_MESSAGES/xz.mo",
        "path_type": "hardlink",
        "sha256": "410ea492ce29d58a48500476fe96f96bc82215bfecd282a30a3ae0dd2588d171",
        "sha256_in_prefix": "410ea492ce29d58a48500476fe96f96bc82215bfecd282a30a3ae0dd2588d171",
        "size_in_bytes": 25641
      },
      {
        "_path": "share/locale/fr/LC_MESSAGES/xz.mo",
        "path_type": "hardlink",
        "sha256": "1adb0494784ebb7d78f017c06a82211ae61d14d6bda10c22dec40e83d6458dec",
        "sha256_in_prefix": "1adb0494784ebb7d78f017c06a82211ae61d14d6bda10c22dec40e83d6458dec",
        "size_in_bytes": 26925
      },
      {
        "_path": "share/locale/hu/LC_MESSAGES/xz.mo",
        "path_type": "hardlink",
        "sha256": "3ba74bcf6f111f08aeddcb3611eb2b1894e8d7a053632bd73aeb2e96bb4dc0a2",
        "sha256_in_prefix": "3ba74bcf6f111f08aeddcb3611eb2b1894e8d7a053632bd73aeb2e96bb4dc0a2",
        "size_in_bytes": 26926
      },
      {
        "_path": "share/locale/it/LC_MESSAGES/xz.mo",
        "path_type": "hardlink",
        "sha256": "59e62f7f2c73a34d2a05b6ed4cfca0fafe6d48d5250508130f495e8e04bdfb10",
        "sha256_in_prefix": "59e62f7f2c73a34d2a05b6ed4cfca0fafe6d48d5250508130f495e8e04bdfb10",
        "size_in_bytes": 26532
      },
      {
        "_path": "share/locale/pl/LC_MESSAGES/xz.mo",
        "path_type": "hardlink",
        "sha256": "bed59a7ade3bc8f52aa57ab3ee0835d36bfe5df5d2dde2bc792a688187a3f6cd",
        "sha256_in_prefix": "bed59a7ade3bc8f52aa57ab3ee0835d36bfe5df5d2dde2bc792a688187a3f6cd",
        "size_in_bytes": 26084
      },
      {
        "_path": "share/locale/pt_BR/LC_MESSAGES/xz.mo",
        "path_type": "hardlink",
        "sha256": "49f28342e9516f05504e711f531f5cdd795015b8499c5cb27a10641cf619ef4a",
        "sha256_in_prefix": "49f28342e9516f05504e711f531f5cdd795015b8499c5cb27a10641cf619ef4a",
        "size_in_bytes": 26452
      },
      {
        "_path": "share/locale/vi/LC_MESSAGES/xz.mo",
        "path_type": "hardlink",
        "sha256": "1b198a6156ed626b6807c359ae9a71c832046787493d0930f697a0c56d058a14",
        "sha256_in_prefix": "1b198a6156ed626b6807c359ae9a71c832046787493d0930f697a0c56d058a14",
        "size_in_bytes": 27552
      },
      {
        "_path": "share/locale/zh_CN/LC_MESSAGES/xz.mo",
        "path_type": "hardlink",
        "sha256": "9dfaa5080c5df00beb5fc89ef4220251b07d7c0fa24c80e6207f5382df07746f",
        "sha256_in_prefix": "9dfaa5080c5df00beb5fc89ef4220251b07d7c0fa24c80e6207f5382df07746f",
        "size_in_bytes": 24818
      },
      {
        "_path": "share/locale/zh_TW/LC_MESSAGES/xz.mo",
        "path_type": "hardlink",
        "sha256": "647a4d571807e87e24216422fbdf90111a0109b0a6cff7f011312b8a45792286",
        "sha256_in_prefix": "647a4d571807e87e24216422fbdf90111a0109b0a6cff7f011312b8a45792286",
        "size_in_bytes": 23142
      },
      {
        "_path": "share/man/de/man1/lzcat.1",
        "path_type": "softlink",
        "sha256": "b80e4a66898223caa8b938b090fd816e371835fb6332d86c026f98187ac1b101",
        "size_in_bytes": 80296
      },
      {
        "_path": "share/man/de/man1/lzcmp.1",
        "path_type": "softlink",
        "sha256": "8cc6dc4975c65a7f3ac8be237588fe9f594b9e2fa618d02c1cd09513a222ca00",
        "size_in_bytes": 1994
      },
      {
        "_path": "share/man/de/man1/lzdiff.1",
        "path_type": "softlink",
        "sha256": "8cc6dc4975c65a7f3ac8be237588fe9f594b9e2fa618d02c1cd09513a222ca00",
        "size_in_bytes": 1994
      },
      {
        "_path": "share/man/de/man1/lzegrep.1",
        "path_type": "softlink",
        "sha256": "59007ec85c697b24f6e381dfdd68c9425c850125a08bfcee9869390811e78c16",
        "size_in_bytes": 1938
      },
      {
        "_path": "share/man/de/man1/lzfgrep.1",
        "path_type": "softlink",
        "sha256": "59007ec85c697b24f6e381dfdd68c9425c850125a08bfcee9869390811e78c16",
        "size_in_bytes": 1938
      },
      {
        "_path": "share/man/de/man1/lzgrep.1",
        "path_type": "softlink",
        "sha256": "59007ec85c697b24f6e381dfdd68c9425c850125a08bfcee9869390811e78c16",
        "size_in_bytes": 1938
      },
      {
        "_path": "share/man/de/man1/lzless.1",
        "path_type": "softlink",
        "sha256": "3bbb5787fa3e8cdcc6b8038e89bec24c46b6b5bbcdf1a2608c6e07ee0353658c",
        "size_in_bytes": 1870
      },
      {
        "_path": "share/man/de/man1/lzma.1",
        "path_type": "softlink",
        "sha256": "b80e4a66898223caa8b938b090fd816e371835fb6332d86c026f98187ac1b101",
        "size_in_bytes": 80296
      },
      {
        "_path": "share/man/de/man1/lzmadec.1",
        "path_type": "softlink",
        "sha256": "eef54888b7ccc946c9accd666a78f4c2fa5f98c41faf73488139667db13a66b1",
        "size_in_bytes": 3756
      },
      {
        "_path": "share/man/de/man1/lzmore.1",
        "path_type": "softlink",
        "sha256": "e484edd83be36324516b7edb79ad6fa2e4745f0bc1eb23deb8530b5f63d44609",
        "size_in_bytes": 1529
      },
      {
        "_path": "share/man/de/man1/unlzma.1",
        "path_type": "softlink",
        "sha256": "b80e4a66898223caa8b938b090fd816e371835fb6332d86c026f98187ac1b101",
        "size_in_bytes": 80296
      },
      {
        "_path": "share/man/de/man1/unxz.1",
        "path_type": "softlink",
        "sha256": "b80e4a66898223caa8b938b090fd816e371835fb6332d86c026f98187ac1b101",
        "size_in_bytes": 80296
      },
      {
        "_path": "share/man/de/man1/xz.1",
        "path_type": "hardlink",
        "sha256": "b80e4a66898223caa8b938b090fd816e371835fb6332d86c026f98187ac1b101",
        "sha256_in_prefix": "b80e4a66898223caa8b938b090fd816e371835fb6332d86c026f98187ac1b101",
        "size_in_bytes": 80296
      },
      {
        "_path": "share/man/de/man1/xzcat.1",
        "path_type": "softlink",
        "sha256": "b80e4a66898223caa8b938b090fd816e371835fb6332d86c026f98187ac1b101",
        "size_in_bytes": 80296
      },
      {
        "_path": "share/man/de/man1/xzcmp.1",
        "path_type": "softlink",
        "sha256": "8cc6dc4975c65a7f3ac8be237588fe9f594b9e2fa618d02c1cd09513a222ca00",
        "size_in_bytes": 1994
      },
      {
        "_path": "share/man/de/man1/xzdec.1",
        "path_type": "hardlink",
        "sha256": "eef54888b7ccc946c9accd666a78f4c2fa5f98c41faf73488139667db13a66b1",
        "sha256_in_prefix": "eef54888b7ccc946c9accd666a78f4c2fa5f98c41faf73488139667db13a66b1",
        "size_in_bytes": 3756
      },
      {
        "_path": "share/man/de/man1/xzdiff.1",
        "path_type": "hardlink",
        "sha256": "8cc6dc4975c65a7f3ac8be237588fe9f594b9e2fa618d02c1cd09513a222ca00",
        "sha256_in_prefix": "8cc6dc4975c65a7f3ac8be237588fe9f594b9e2fa618d02c1cd09513a222ca00",
        "size_in_bytes": 1994
      },
      {
        "_path": "share/man/de/man1/xzegrep.1",
        "path_type": "softlink",
        "sha256": "59007ec85c697b24f6e381dfdd68c9425c850125a08bfcee9869390811e78c16",
        "size_in_bytes": 1938
      },
      {
        "_path": "share/man/de/man1/xzfgrep.1",
        "path_type": "softlink",
        "sha256": "59007ec85c697b24f6e381dfdd68c9425c850125a08bfcee9869390811e78c16",
        "size_in_bytes": 1938
      },
      {
        "_path": "share/man/de/man1/xzgrep.1",
        "path_type": "hardlink",
        "sha256": "59007ec85c697b24f6e381dfdd68c9425c850125a08bfcee9869390811e78c16",
        "sha256_in_prefix": "59007ec85c697b24f6e381dfdd68c9425c850125a08bfcee9869390811e78c16",
        "size_in_bytes": 1938
      },
      {
        "_path": "share/man/de/man1/xzless.1",
        "path_type": "hardlink",
        "sha256": "3bbb5787fa3e8cdcc6b8038e89bec24c46b6b5bbcdf1a2608c6e07ee0353658c",
        "sha256_in_prefix": "3bbb5787fa3e8cdcc6b8038e89bec24c46b6b5bbcdf1a2608c6e07ee0353658c",
        "size_in_bytes": 1870
      },
      {
        "_path": "share/man/de/man1/xzmore.1",
        "path_type": "hardlink",
        "sha256": "e484edd83be36324516b7edb79ad6fa2e4745f0bc1eb23deb8530b5f63d44609",
        "sha256_in_prefix": "e484edd83be36324516b7edb79ad6fa2e4745f0bc1eb23deb8530b5f63d44609",
        "size_in_bytes": 1529
      },
      {
        "_path": "share/man/man1/lzcat.1",
        "path_type": "softlink",
        "sha256": "3f7abc40149b1d237c87777384f6dfe6eae02c802f9a04ca14063af09f4193b9",
        "size_in_bytes": 65014
      },
      {
        "_path": "share/man/man1/lzcmp.1",
        "path_type": "softlink",
        "sha256": "fea4e489a64a2be64121e36041b993021839fbfe59d49a8b1b737c93fec3d29f",
        "size_in_bytes": 1469
      },
      {
        "_path": "share/man/man1/lzdiff.1",
        "path_type": "softlink",
        "sha256": "fea4e489a64a2be64121e36041b993021839fbfe59d49a8b1b737c93fec3d29f",
        "size_in_bytes": 1469
      },
      {
        "_path": "share/man/man1/lzegrep.1",
        "path_type": "softlink",
        "sha256": "d838d6e694c2c9bc89a5b118e96ee6976c74319bf3e1d469c9d6d66674e34a7d",
        "size_in_bytes": 1489
      },
      {
        "_path": "share/man/man1/lzfgrep.1",
        "path_type": "softlink",
        "sha256": "d838d6e694c2c9bc89a5b118e96ee6976c74319bf3e1d469c9d6d66674e34a7d",
        "size_in_bytes": 1489
      },
      {
        "_path": "share/man/man1/lzgrep.1",
        "path_type": "softlink",
        "sha256": "d838d6e694c2c9bc89a5b118e96ee6976c74319bf3e1d469c9d6d66674e34a7d",
        "size_in_bytes": 1489
      },
      {
        "_path": "share/man/man1/lzless.1",
        "path_type": "softlink",
        "sha256": "2db6570b6f62b6f0d46fecfc18ead93000abaec97399514b31e18edb7ab2fecb",
        "size_in_bytes": 1360
      },
      {
        "_path": "share/man/man1/lzma.1",
        "path_type": "softlink",
        "sha256": "3f7abc40149b1d237c87777384f6dfe6eae02c802f9a04ca14063af09f4193b9",
        "size_in_bytes": 65014
      },
      {
        "_path": "share/man/man1/lzmadec.1",
        "path_type": "softlink",
        "sha256": "20e56b65af31a9488483f01659c681de022da370d36a427b232246e4eb39bb6f",
        "size_in_bytes": 2838
      },
      {
        "_path": "share/man/man1/lzmainfo.1",
        "path_type": "hardlink",
        "sha256": "0963a1fe3e0539f036aaa9adf5bb179df10f2abe5f7f470c87340a5619e5f500",
        "sha256_in_prefix": "0963a1fe3e0539f036aaa9adf5bb179df10f2abe5f7f470c87340a5619e5f500",
        "size_in_bytes": 1250
      },
      {
        "_path": "share/man/man1/lzmore.1",
        "path_type": "softlink",
        "sha256": "551a2a7f6e2e5626b0cee4580a0107d81410afd742da25001c846b4fa7645b07",
        "size_in_bytes": 1153
      },
      {
        "_path": "share/man/man1/unlzma.1",
        "path_type": "softlink",
        "sha256": "3f7abc40149b1d237c87777384f6dfe6eae02c802f9a04ca14063af09f4193b9",
        "size_in_bytes": 65014
      },
      {
        "_path": "share/man/man1/unxz.1",
        "path_type": "softlink",
        "sha256": "3f7abc40149b1d237c87777384f6dfe6eae02c802f9a04ca14063af09f4193b9",
        "size_in_bytes": 65014
      },
      {
        "_path": "share/man/man1/xz.1",
        "path_type": "hardlink",
        "sha256": "3f7abc40149b1d237c87777384f6dfe6eae02c802f9a04ca14063af09f4193b9",
        "sha256_in_prefix": "3f7abc40149b1d237c87777384f6dfe6eae02c802f9a04ca14063af09f4193b9",
        "size_in_bytes": 65014
      },
      {
        "_path": "share/man/man1/xzcat.1",
        "path_type": "softlink",
        "sha256": "3f7abc40149b1d237c87777384f6dfe6eae02c802f9a04ca14063af09f4193b9",
        "size_in_bytes": 65014
      },
      {
        "_path": "share/man/man1/xzcmp.1",
        "path_type": "softlink",
        "sha256": "fea4e489a64a2be64121e36041b993021839fbfe59d49a8b1b737c93fec3d29f",
        "size_in_bytes": 1469
      },
      {
        "_path": "share/man/man1/xzdec.1",
        "path_type": "hardlink",
        "sha256": "20e56b65af31a9488483f01659c681de022da370d36a427b232246e4eb39bb6f",
        "sha256_in_prefix": "20e56b65af31a9488483f01659c681de022da370d36a427b232246e4eb39bb6f",
        "size_in_bytes": 2838
      },
      {
        "_path": "share/man/man1/xzdiff.1",
        "path_type": "hardlink",
        "sha256": "fea4e489a64a2be64121e36041b993021839fbfe59d49a8b1b737c93fec3d29f",
        "sha256_in_prefix": "fea4e489a64a2be64121e36041b993021839fbfe59d49a8b1b737c93fec3d29f",
        "size_in_bytes": 1469
      },
      {
        "_path": "share/man/man1/xzegrep.1",
        "path_type": "softlink",
        "sha256": "d838d6e694c2c9bc89a5b118e96ee6976c74319bf3e1d469c9d6d66674e34a7d",
        "size_in_bytes": 1489
      },
      {
        "_path": "share/man/man1/xzfgrep.1",
        "path_type": "softlink",
        "sha256": "d838d6e694c2c9bc89a5b118e96ee6976c74319bf3e1d469c9d6d66674e34a7d",
        "size_in_bytes": 1489
      },
      {
        "_path": "share/man/man1/xzgrep.1",
        "path_type": "hardlink",
        "sha256": "d838d6e694c2c9bc89a5b118e96ee6976c74319bf3e1d469c9d6d66674e34a7d",
        "sha256_in_prefix": "d838d6e694c2c9bc89a5b118e96ee6976c74319bf3e1d469c9d6d66674e34a7d",
        "size_in_bytes": 1489
      },
      {
        "_path": "share/man/man1/xzless.1",
        "path_type": "hardlink",
        "sha256": "2db6570b6f62b6f0d46fecfc18ead93000abaec97399514b31e18edb7ab2fecb",
        "sha256_in_prefix": "2db6570b6f62b6f0d46fecfc18ead93000abaec97399514b31e18edb7ab2fecb",
        "size_in_bytes": 1360
      },
      {
        "_path": "share/man/man1/xzmore.1",
        "path_type": "hardlink",
        "sha256": "551a2a7f6e2e5626b0cee4580a0107d81410afd742da25001c846b4fa7645b07",
        "sha256_in_prefix": "551a2a7f6e2e5626b0cee4580a0107d81410afd742da25001c846b4fa7645b07",
        "size_in_bytes": 1153
      }
    ],
    "paths_version": 1
  },
  "requested_spec": "None",
  "sha256": "1e2823cb2a526bc3a7031ad5dbfb992891f9ff9740d1c17cb6dbb8ebdfd33b27",
  "size": 351618,
  "subdir": "linux-64",
  "timestamp": 1594309683349,
  "track_features": "",
  "url": "https://conda.anaconda.org/conda-forge/linux-64/xz-5.2.5-h516909a_1.tar.bz2",
  "version": "5.2.5"
}