[
    {
        "Name": "MapPerth01",
        "OutputDest": "../wwwroot/webgl/output",
        "Latitude": -31.9522,
        "Longitude": 115.8605,
        "Extent": 4.0,
        "Zoom": 16.0,
        "DefaultSpeed": 50.0,
        "AllowOneWay": true
    }
]