{
  "build": "py38h32f6830_0",
  "build_number": 0,
  "channel": "https://conda.anaconda.org/conda-forge/win-64",
  "constrains": [],
  "depends": [
    "python >=3.8,<3.9.0a0",
    "python_abi 3.8.* *_cp38",
    "setuptools"
  ],
  "extracted_package_dir": "C:\\Users\\Sam\\anaconda3\\pkgs\\isort-5.5.3-py38h32f6830_0",
  "features": "",
  "files": [
    "Lib/site-packages/isort-5.5.3.dist-info/INSTALLER",
    "Lib/site-packages/isort-5.5.3.dist-info/LICENSE",
    "Lib/site-packages/isort-5.5.3.dist-info/METADATA",
    "Lib/site-packages/isort-5.5.3.dist-info/RECORD",
    "Lib/site-packages/isort-5.5.3.dist-info/REQUESTED",
    "Lib/site-packages/isort-5.5.3.dist-info/WHEEL",
    "Lib/site-packages/isort-5.5.3.dist-info/direct_url.json",
    "Lib/site-packages/isort-5.5.3.dist-info/entry_points.txt",
    "Lib/site-packages/isort/__init__.py",
    "Lib/site-packages/isort/__main__.py",
    "Lib/site-packages/isort/__pycache__/__init__.cpython-38.pyc",
    "Lib/site-packages/isort/__pycache__/__main__.cpython-38.pyc",
    "Lib/site-packages/isort/__pycache__/_version.cpython-38.pyc",
    "Lib/site-packages/isort/__pycache__/api.cpython-38.pyc",
    "Lib/site-packages/isort/__pycache__/comments.cpython-38.pyc",
    "Lib/site-packages/isort/__pycache__/core.cpython-38.pyc",
    "Lib/site-packages/isort/__pycache__/exceptions.cpython-38.pyc",
    "Lib/site-packages/isort/__pycache__/format.cpython-38.pyc",
    "Lib/site-packages/isort/__pycache__/hooks.cpython-38.pyc",
    "Lib/site-packages/isort/__pycache__/io.cpython-38.pyc",
    "Lib/site-packages/isort/__pycache__/literal.cpython-38.pyc",
    "Lib/site-packages/isort/__pycache__/logo.cpython-38.pyc",
    "Lib/site-packages/isort/__pycache__/main.cpython-38.pyc",
    "Lib/site-packages/isort/__pycache__/output.cpython-38.pyc",
    "Lib/site-packages/isort/__pycache__/parse.cpython-38.pyc",
    "Lib/site-packages/isort/__pycache__/place.cpython-38.pyc",
    "Lib/site-packages/isort/__pycache__/profiles.cpython-38.pyc",
    "Lib/site-packages/isort/__pycache__/pylama_isort.cpython-38.pyc",
    "Lib/site-packages/isort/__pycache__/sections.cpython-38.pyc",
    "Lib/site-packages/isort/__pycache__/settings.cpython-38.pyc",
    "Lib/site-packages/isort/__pycache__/setuptools_commands.cpython-38.pyc",
    "Lib/site-packages/isort/__pycache__/sorting.cpython-38.pyc",
    "Lib/site-packages/isort/__pycache__/utils.cpython-38.pyc",
    "Lib/site-packages/isort/__pycache__/wrap.cpython-38.pyc",
    "Lib/site-packages/isort/__pycache__/wrap_modes.cpython-38.pyc",
    "Lib/site-packages/isort/_future/__init__.py",
    "Lib/site-packages/isort/_future/__pycache__/__init__.cpython-38.pyc",
    "Lib/site-packages/isort/_future/__pycache__/_dataclasses.cpython-38.pyc",
    "Lib/site-packages/isort/_future/_dataclasses.py",
    "Lib/site-packages/isort/_vendored/toml/LICENSE",
    "Lib/site-packages/isort/_vendored/toml/__init__.py",
    "Lib/site-packages/isort/_vendored/toml/__pycache__/__init__.cpython-38.pyc",
    "Lib/site-packages/isort/_vendored/toml/__pycache__/decoder.cpython-38.pyc",
    "Lib/site-packages/isort/_vendored/toml/__pycache__/encoder.cpython-38.pyc",
    "Lib/site-packages/isort/_vendored/toml/__pycache__/ordered.cpython-38.pyc",
    "Lib/site-packages/isort/_vendored/toml/__pycache__/tz.cpython-38.pyc",
    "Lib/site-packages/isort/_vendored/toml/decoder.py",
    "Lib/site-packages/isort/_vendored/toml/encoder.py",
    "Lib/site-packages/isort/_vendored/toml/ordered.py",
    "Lib/site-packages/isort/_vendored/toml/tz.py",
    "Lib/site-packages/isort/_version.py",
    "Lib/site-packages/isort/api.py",
    "Lib/site-packages/isort/comments.py",
    "Lib/site-packages/isort/core.py",
    "Lib/site-packages/isort/deprecated/__init__.py",
    "Lib/site-packages/isort/deprecated/__pycache__/__init__.cpython-38.pyc",
    "Lib/site-packages/isort/deprecated/__pycache__/finders.cpython-38.pyc",
    "Lib/site-packages/isort/deprecated/finders.py",
    "Lib/site-packages/isort/exceptions.py",
    "Lib/site-packages/isort/format.py",
    "Lib/site-packages/isort/hooks.py",
    "Lib/site-packages/isort/io.py",
    "Lib/site-packages/isort/literal.py",
    "Lib/site-packages/isort/logo.py",
    "Lib/site-packages/isort/main.py",
    "Lib/site-packages/isort/output.py",
    "Lib/site-packages/isort/parse.py",
    "Lib/site-packages/isort/place.py",
    "Lib/site-packages/isort/profiles.py",
    "Lib/site-packages/isort/pylama_isort.py",
    "Lib/site-packages/isort/sections.py",
    "Lib/site-packages/isort/settings.py",
    "Lib/site-packages/isort/setuptools_commands.py",
    "Lib/site-packages/isort/sorting.py",
    "Lib/site-packages/isort/stdlibs/__init__.py",
    "Lib/site-packages/isort/stdlibs/__pycache__/__init__.cpython-38.pyc",
    "Lib/site-packages/isort/stdlibs/__pycache__/all.cpython-38.pyc",
    "Lib/site-packages/isort/stdlibs/__pycache__/py2.cpython-38.pyc",
    "Lib/site-packages/isort/stdlibs/__pycache__/py27.cpython-38.pyc",
    "Lib/site-packages/isort/stdlibs/__pycache__/py3.cpython-38.pyc",
    "Lib/site-packages/isort/stdlibs/__pycache__/py35.cpython-38.pyc",
    "Lib/site-packages/isort/stdlibs/__pycache__/py36.cpython-38.pyc",
    "Lib/site-packages/isort/stdlibs/__pycache__/py37.cpython-38.pyc",
    "Lib/site-packages/isort/stdlibs/__pycache__/py38.cpython-38.pyc",
    "Lib/site-packages/isort/stdlibs/__pycache__/py39.cpython-38.pyc",
    "Lib/site-packages/isort/stdlibs/all.py",
    "Lib/site-packages/isort/stdlibs/py2.py",
    "Lib/site-packages/isort/stdlibs/py27.py",
    "Lib/site-packages/isort/stdlibs/py3.py",
    "Lib/site-packages/isort/stdlibs/py35.py",
    "Lib/site-packages/isort/stdlibs/py36.py",
    "Lib/site-packages/isort/stdlibs/py37.py",
    "Lib/site-packages/isort/stdlibs/py38.py",
    "Lib/site-packages/isort/stdlibs/py39.py",
    "Lib/site-packages/isort/utils.py",
    "Lib/site-packages/isort/wrap.py",
    "Lib/site-packages/isort/wrap_modes.py",
    "Scripts/isort-script.py",
    "Scripts/isort.exe",
    ".nonadmin"
  ],
  "fn": "isort-5.5.3-py38h32f6830_0.tar.bz2",
  "license": "MIT",
  "license_family": "MIT",
  "link": {
    "source": "C:\\Users\\Sam\\anaconda3\\pkgs\\isort-5.5.3-py38h32f6830_0",
    "type": 1
  },
  "md5": "051b9277522e7b146527fb805c6d9685",
  "name": "isort",
  "package_tarball_full_path": "C:\\Users\\Sam\\anaconda3\\pkgs\\isort-5.5.3-py38h32f6830_0.tar.bz2",
  "paths_data": {
    "paths": [
      {
        "_path": "Lib/site-packages/isort-5.5.3.dist-info/INSTALLER",
        "path_type": "hardlink",
        "sha256": "d0edee15f91b406f3f99726e44eb990be6e34fd0345b52b910c568e0eef6a2a8",
        "sha256_in_prefix": "d0edee15f91b406f3f99726e44eb990be6e34fd0345b52b910c568e0eef6a2a8",
        "size_in_bytes": 5
      },
      {
        "_path": "Lib/site-packages/isort-5.5.3.dist-info/LICENSE",
        "path_type": "hardlink",
        "sha256": "063294001c3d523dbacbab9dd54ac229982756ccaf592ca53240b2b0cdd82065",
        "sha256_in_prefix": "063294001c3d523dbacbab9dd54ac229982756ccaf592ca53240b2b0cdd82065",
        "size_in_bytes": 1089
      },
      {
        "_path": "Lib/site-packages/isort-5.5.3.dist-info/METADATA",
        "path_type": "hardlink",
        "sha256": "867d0804b82b5dc52cad12163b6a84f5d192903d3450cd363d2dfcd4eee97fea",
        "sha256_in_prefix": "867d0804b82b5dc52cad12163b6a84f5d192903d3450cd363d2dfcd4eee97fea",
        "size_in_bytes": 20126
      },
      {
        "_path": "Lib/site-packages/isort-5.5.3.dist-info/RECORD",
        "path_type": "hardlink",
        "sha256": "37cd8d2dde3aa34ba76e04aa24afa8dad681bca2ac05d8d0628d05ff6795cb4d",
        "sha256_in_prefix": "37cd8d2dde3aa34ba76e04aa24afa8dad681bca2ac05d8d0628d05ff6795cb4d",
        "size_in_bytes": 6330
      },
      {
        "_path": "Lib/site-packages/isort-5.5.3.dist-info/REQUESTED",
        "path_type": "hardlink",
        "sha256": "e3b0c44298fc1c149afbf4c8996fb92427ae41e4649b934ca495991b7852b855",
        "sha256_in_prefix": "e3b0c44298fc1c149afbf4c8996fb92427ae41e4649b934ca495991b7852b855",
        "size_in_bytes": 0
      },
      {
        "_path": "Lib/site-packages/isort-5.5.3.dist-info/WHEEL",
        "path_type": "hardlink",
        "sha256": "43df62b6a5980e157bf77a07ceace2db8abb2fb29d8b3e9c6f9e580df4d7a611",
        "sha256_in_prefix": "43df62b6a5980e157bf77a07ceace2db8abb2fb29d8b3e9c6f9e580df4d7a611",
        "size_in_bytes": 84
      },
      {
        "_path": "Lib/site-packages/isort-5.5.3.dist-info/direct_url.json",
        "path_type": "hardlink",
        "sha256": "e66ca973eec52ab60a77cea1b8b0378fef9912c79599b641e86b5de42d83b1e5",
        "sha256_in_prefix": "e66ca973eec52ab60a77cea1b8b0378fef9912c79599b641e86b5de42d83b1e5",
        "size_in_bytes": 66
      },
      {
        "_path": "Lib/site-packages/isort-5.5.3.dist-info/entry_points.txt",
        "path_type": "hardlink",
        "sha256": "fc8cbb9b918d9bcf685dc8ec5f354415abf8c175ac4ea2978995004568c523b3",
        "sha256_in_prefix": "fc8cbb9b918d9bcf685dc8ec5f354415abf8c175ac4ea2978995004568c523b3",
        "size_in_bytes": 148
      },
      {
        "_path": "Lib/site-packages/isort/__init__.py",
        "path_type": "hardlink",
        "sha256": "bbccdd1533c5ae8fe5f49ec9cdd78d4a5bba094e816e86377d14ee968c5b97b7",
        "sha256_in_prefix": "bbccdd1533c5ae8fe5f49ec9cdd78d4a5bba094e816e86377d14ee968c5b97b7",
        "size_in_bytes": 374
      },
      {
        "_path": "Lib/site-packages/isort/__main__.py",
        "path_type": "hardlink",
        "sha256": "88ad2daf337d0825e9417f973d90d9f495649b62dcd2ad2888082c6ba16425be",
        "sha256_in_prefix": "88ad2daf337d0825e9417f973d90d9f495649b62dcd2ad2888082c6ba16425be",
        "size_in_bytes": 36
      },
      {
        "_path": "Lib/site-packages/isort/__pycache__/__init__.cpython-38.pyc",
        "path_type": "hardlink",
        "sha256": "1f0382a40e717587c3b7eaf4e64f8df43a033e101579df85f2b9613b3446f676",
        "sha256_in_prefix": "1f0382a40e717587c3b7eaf4e64f8df43a033e101579df85f2b9613b3446f676",
        "size_in_bytes": 579
      },
      {
        "_path": "Lib/site-packages/isort/__pycache__/__main__.cpython-38.pyc",
        "path_type": "hardlink",
        "sha256": "8614d883a52b4c1116281ebed2fbb08fd5bc6bfbe9be4188c11c7700c51aad88",
        "sha256_in_prefix": "8614d883a52b4c1116281ebed2fbb08fd5bc6bfbe9be4188c11c7700c51aad88",
        "size_in_bytes": 173
      },
      {
        "_path": "Lib/site-packages/isort/__pycache__/_version.cpython-38.pyc",
        "path_type": "hardlink",
        "sha256": "a1347e23154a7366c7fe145cc357568adc029f54b1d0b6dbbd6dccfe3e045b47",
        "sha256_in_prefix": "a1347e23154a7366c7fe145cc357568adc029f54b1d0b6dbbd6dccfe3e045b47",
        "size_in_bytes": 147
      },
      {
        "_path": "Lib/site-packages/isort/__pycache__/api.cpython-38.pyc",
        "path_type": "hardlink",
        "sha256": "358d1858f50dc3dcfdb0bf11906bdde4e00aa1acf187502a23a9d7b228adb44b",
        "sha256_in_prefix": "358d1858f50dc3dcfdb0bf11906bdde4e00aa1acf187502a23a9d7b228adb44b",
        "size_in_bytes": 11069
      },
      {
        "_path": "Lib/site-packages/isort/__pycache__/comments.cpython-38.pyc",
        "path_type": "hardlink",
        "sha256": "9c48406fb06686dbbcfd8e04b84309659f298e349dd5bc054547ff27c3104d43",
        "sha256_in_prefix": "9c48406fb06686dbbcfd8e04b84309659f298e349dd5bc054547ff27c3104d43",
        "size_in_bytes": 1012
      },
      {
        "_path": "Lib/site-packages/isort/__pycache__/core.cpython-38.pyc",
        "path_type": "hardlink",
        "sha256": "16b3e1442a79ffcb6c61144bf8ac8c23d3693b098f9354441f37032d6e885f56",
        "sha256_in_prefix": "16b3e1442a79ffcb6c61144bf8ac8c23d3693b098f9354441f37032d6e885f56",
        "size_in_bytes": 7378
      },
      {
        "_path": "Lib/site-packages/isort/__pycache__/exceptions.cpython-38.pyc",
        "path_type": "hardlink",
        "sha256": "24a6d94b30c3f71c7fa12542dcf60fbef4c6c620797550d6c462cfbff31ec83b",
        "sha256_in_prefix": "24a6d94b30c3f71c7fa12542dcf60fbef4c6c620797550d6c462cfbff31ec83b",
        "size_in_bytes": 6373
      },
      {
        "_path": "Lib/site-packages/isort/__pycache__/format.cpython-38.pyc",
        "path_type": "hardlink",
        "sha256": "0e31f2eb59560c11f2dc69fabb568fa7de4e9c980dbe3c5957d9752e9c892bd6",
        "sha256_in_prefix": "0e31f2eb59560c11f2dc69fabb568fa7de4e9c980dbe3c5957d9752e9c892bd6",
        "size_in_bytes": 5240
      },
      {
        "_path": "Lib/site-packages/isort/__pycache__/hooks.cpython-38.pyc",
        "path_type": "hardlink",
        "sha256": "7fa4b60ac5611a205b32627e03e20c9845852697e594c83b73399e0ca3b63fd4",
        "sha256_in_prefix": "7fa4b60ac5611a205b32627e03e20c9845852697e594c83b73399e0ca3b63fd4",
        "size_in_bytes": 3131
      },
      {
        "_path": "Lib/site-packages/isort/__pycache__/io.cpython-38.pyc",
        "path_type": "hardlink",
        "sha256": "8b1433f57750781952bf8a30948b45ff050c077fbcf00be01c4c041538ba6805",
        "sha256_in_prefix": "8b1433f57750781952bf8a30948b45ff050c077fbcf00be01c4c041538ba6805",
        "size_in_bytes": 2320
      },
      {
        "_path": "Lib/site-packages/isort/__pycache__/literal.cpython-38.pyc",
        "path_type": "hardlink",
        "sha256": "cf0b4cfb1a8b12e24ac799b2f4e30a883ecf4b4738f5a799fe370d6cbab09bf2",
        "sha256_in_prefix": "cf0b4cfb1a8b12e24ac799b2f4e30a883ecf4b4738f5a799fe370d6cbab09bf2",
        "size_in_bytes": 4220
      },
      {
        "_path": "Lib/site-packages/isort/__pycache__/logo.cpython-38.pyc",
        "path_type": "hardlink",
        "sha256": "779b02b93550aa47af0bd5491de8efae76dcc79af7a766bc682fa6c3d3f7cc74",
        "sha256_in_prefix": "779b02b93550aa47af0bd5491de8efae76dcc79af7a766bc682fa6c3d3f7cc74",
        "size_in_bytes": 522
      },
      {
        "_path": "Lib/site-packages/isort/__pycache__/main.cpython-38.pyc",
        "path_type": "hardlink",
        "sha256": "1c46176f77f792801e5e5043d6c6819c04e66cfc9a316b5a78dca17c0089f0f5",
        "sha256_in_prefix": "1c46176f77f792801e5e5043d6c6819c04e66cfc9a316b5a78dca17c0089f0f5",
        "size_in_bytes": 22505
      },
      {
        "_path": "Lib/site-packages/isort/__pycache__/output.cpython-38.pyc",
        "path_type": "hardlink",
        "sha256": "b1628a5abaeaa27be96a9c2b9b34e5efc1df038c8d95dc21557e07c95b2972e7",
        "sha256_in_prefix": "b1628a5abaeaa27be96a9c2b9b34e5efc1df038c8d95dc21557e07c95b2972e7",
        "size_in_bytes": 11647
      },
      {
        "_path": "Lib/site-packages/isort/__pycache__/parse.cpython-38.pyc",
        "path_type": "hardlink",
        "sha256": "1ac5e7b2404cb66dbab677db6f6ea75fbc314af5cbbd8b4ed28ca6c483757055",
        "sha256_in_prefix": "1ac5e7b2404cb66dbab677db6f6ea75fbc314af5cbbd8b4ed28ca6c483757055",
        "size_in_bytes": 10139
      },
      {
        "_path": "Lib/site-packages/isort/__pycache__/place.cpython-38.pyc",
        "path_type": "hardlink",
        "sha256": "691dc9259277ea4a4a169138df7933b90e44f3a2f89f49ecd8aa82d5293b077e",
        "sha256_in_prefix": "691dc9259277ea4a4a169138df7933b90e44f3a2f89f49ecd8aa82d5293b077e",
        "size_in_bytes": 3486
      },
      {
        "_path": "Lib/site-packages/isort/__pycache__/profiles.cpython-38.pyc",
        "path_type": "hardlink",
        "sha256": "1ee8d68ef319734ce15f93f9215caa500d3b4a43c648bf886c029c9073a3c88e",
        "sha256_in_prefix": "1ee8d68ef319734ce15f93f9215caa500d3b4a43c648bf886c029c9073a3c88e",
        "size_in_bytes": 1159
      },
      {
        "_path": "Lib/site-packages/isort/__pycache__/pylama_isort.cpython-38.pyc",
        "path_type": "hardlink",
        "sha256": "a07446498b7922ac2046a2d4a9509b9196daf2ca30a06a5cac5b074e5adb5d16",
        "sha256_in_prefix": "a07446498b7922ac2046a2d4a9509b9196daf2ca30a06a5cac5b074e5adb5d16",
        "size_in_bytes": 1326
      },
      {
        "_path": "Lib/site-packages/isort/__pycache__/sections.cpython-38.pyc",
        "path_type": "hardlink",
        "sha256": "195b8b4cafa83bdb42738d93780a610c7803d5fe168f49347806569b7a2297e1",
        "sha256_in_prefix": "195b8b4cafa83bdb42738d93780a610c7803d5fe168f49347806569b7a2297e1",
        "size_in_bytes": 440
      },
      {
        "_path": "Lib/site-packages/isort/__pycache__/settings.cpython-38.pyc",
        "path_type": "hardlink",
        "sha256": "1f4a7333641bef9fccdb65df1642530ddc540ee229d840483d996d12f6a67592",
        "sha256_in_prefix": "1f4a7333641bef9fccdb65df1642530ddc540ee229d840483d996d12f6a67592",
        "size_in_bytes": 18976
      },
      {
        "_path": "Lib/site-packages/isort/__pycache__/setuptools_commands.cpython-38.pyc",
        "path_type": "hardlink",
        "sha256": "e1f2297cd15dcc0b5c7fac2f666c5e7859af2f2e4050e6ebab6d30580074f653",
        "sha256_in_prefix": "e1f2297cd15dcc0b5c7fac2f666c5e7859af2f2e4050e6ebab6d30580074f653",
        "size_in_bytes": 2283
      },
      {
        "_path": "Lib/site-packages/isort/__pycache__/sorting.cpython-38.pyc",
        "path_type": "hardlink",
        "sha256": "76bcf7d8ee9a367b9402efd8acd504ac8360f1f0b08eb45990e70d78187f2bca",
        "sha256_in_prefix": "76bcf7d8ee9a367b9402efd8acd504ac8360f1f0b08eb45990e70d78187f2bca",
        "size_in_bytes": 2802
      },
      {
        "_path": "Lib/site-packages/isort/__pycache__/utils.cpython-38.pyc",
        "path_type": "hardlink",
        "sha256": "f2fd95d382498fb99d94b44e53d58d53c9082dac8463f395a30637b315fdfd96",
        "sha256_in_prefix": "f2fd95d382498fb99d94b44e53d58d53c9082dac8463f395a30637b315fdfd96",
        "size_in_bytes": 1175
      },
      {
        "_path": "Lib/site-packages/isort/__pycache__/wrap.cpython-38.pyc",
        "path_type": "hardlink",
        "sha256": "9f75073f99347e2d75ea3d342165757fd29add3ce2dfe1bd85a36e6206451837",
        "sha256_in_prefix": "9f75073f99347e2d75ea3d342165757fd29add3ce2dfe1bd85a36e6206451837",
        "size_in_bytes": 3133
      },
      {
        "_path": "Lib/site-packages/isort/__pycache__/wrap_modes.cpython-38.pyc",
        "path_type": "hardlink",
        "sha256": "94bec8d52bca199f90ff4a900564a09b90212671382ac66a67d869bc420af307",
        "sha256_in_prefix": "94bec8d52bca199f90ff4a900564a09b90212671382ac66a67d869bc420af307",
        "size_in_bytes": 7142
      },
      {
        "_path": "Lib/site-packages/isort/_future/__init__.py",
        "path_type": "hardlink",
        "sha256": "c27f806b80957b4cd97c0fd8053909a9be8b03d1d1f4d829029d2e6adccd44db",
        "sha256_in_prefix": "c27f806b80957b4cd97c0fd8053909a9be8b03d1d1f4d829029d2e6adccd44db",
        "size_in_bytes": 326
      },
      {
        "_path": "Lib/site-packages/isort/_future/__pycache__/__init__.cpython-38.pyc",
        "path_type": "hardlink",
        "sha256": "6b838ce69c66ff1c41de161329d40e80df8e1c389c8ed6ac563c00d1dcbfc656",
        "sha256_in_prefix": "6b838ce69c66ff1c41de161329d40e80df8e1c389c8ed6ac563c00d1dcbfc656",
        "size_in_bytes": 350
      },
      {
        "_path": "Lib/site-packages/isort/_future/__pycache__/_dataclasses.cpython-38.pyc",
        "path_type": "hardlink",
        "sha256": "b636bc8be972979c1777a7ea470905d2cf62b9ee82a2942a304c9853910d0800",
        "sha256_in_prefix": "b636bc8be972979c1777a7ea470905d2cf62b9ee82a2942a304c9853910d0800",
        "size_in_bytes": 21733
      },
      {
        "_path": "Lib/site-packages/isort/_future/_dataclasses.py",
        "path_type": "hardlink",
        "sha256": "cebb2d2c014e2881d15898d7759b87246d843e2c93545490b8172c3e95c20a79",
        "sha256_in_prefix": "cebb2d2c014e2881d15898d7759b87246d843e2c93545490b8172c3e95c20a79",
        "size_in_bytes": 44112
      },
      {
        "_path": "Lib/site-packages/isort/_vendored/toml/LICENSE",
        "path_type": "hardlink",
        "sha256": "2d9294823df6c89357c8be4927fce79361d6561e5ee7532d5926e63939aaa536",
        "sha256_in_prefix": "2d9294823df6c89357c8be4927fce79361d6561e5ee7532d5926e63939aaa536",
        "size_in_bytes": 1252
      },
      {
        "_path": "Lib/site-packages/isort/_vendored/toml/__init__.py",
        "path_type": "hardlink",
        "sha256": "80a3a4f8099cce2da3b89b0eb350fa5044e868f488220361f79628e4de609de1",
        "sha256_in_prefix": "80a3a4f8099cce2da3b89b0eb350fa5044e868f488220361f79628e4de609de1",
        "size_in_bytes": 703
      },
      {
        "_path": "Lib/site-packages/isort/_vendored/toml/__pycache__/__init__.cpython-38.pyc",
        "path_type": "hardlink",
        "sha256": "c132541c02e04d24d6d31374a94ac844f9731bc8cf3d9a1b5929da5b4c4c1d4f",
        "sha256_in_prefix": "c132541c02e04d24d6d31374a94ac844f9731bc8cf3d9a1b5929da5b4c4c1d4f",
        "size_in_bytes": 657
      },
      {
        "_path": "Lib/site-packages/isort/_vendored/toml/__pycache__/decoder.cpython-38.pyc",
        "path_type": "hardlink",
        "sha256": "ba624abf83998a81a665a3346028fe2eb31afe3e15dc208f26cea05c0f0bbf06",
        "sha256_in_prefix": "ba624abf83998a81a665a3346028fe2eb31afe3e15dc208f26cea05c0f0bbf06",
        "size_in_bytes": 23022
      },
      {
        "_path": "Lib/site-packages/isort/_vendored/toml/__pycache__/encoder.cpython-38.pyc",
        "path_type": "hardlink",
        "sha256": "bbc9e7202ca77b42da040a7de1cf25cbdd2df2928aced91c75dfd697ad8b79c9",
        "sha256_in_prefix": "bbc9e7202ca77b42da040a7de1cf25cbdd2df2928aced91c75dfd697ad8b79c9",
        "size_in_bytes": 9329
      },
      {
        "_path": "Lib/site-packages/isort/_vendored/toml/__pycache__/ordered.cpython-38.pyc",
        "path_type": "hardlink",
        "sha256": "c138e25d72766bdfd710006d5f03fe3e6d7e619b33e3bc439078e36f6f7120cd",
        "sha256_in_prefix": "c138e25d72766bdfd710006d5f03fe3e6d7e619b33e3bc439078e36f6f7120cd",
        "size_in_bytes": 901
      },
      {
        "_path": "Lib/site-packages/isort/_vendored/toml/__pycache__/tz.cpython-38.pyc",
        "path_type": "hardlink",
        "sha256": "31cd3d04a1383623fd7b5e3607875ee29d78719b4db5ba92170633c35715976a",
        "sha256_in_prefix": "31cd3d04a1383623fd7b5e3607875ee29d78719b4db5ba92170633c35715976a",
        "size_in_bytes": 1074
      },
      {
        "_path": "Lib/site-packages/isort/_vendored/toml/decoder.py",
        "path_type": "hardlink",
        "sha256": "e5eb4128dbd52c5011d2b84b089f5f9d14e5aa479b2386507a8262fe6c856dde",
        "sha256_in_prefix": "e5eb4128dbd52c5011d2b84b089f5f9d14e5aa479b2386507a8262fe6c856dde",
        "size_in_bytes": 37713
      },
      {
        "_path": "Lib/site-packages/isort/_vendored/toml/encoder.py",
        "path_type": "hardlink",
        "sha256": "810397627016a36ec973fa6bcc0d45a8b5f9020c1b76037ea831d0b4a471df4d",
        "sha256_in_prefix": "810397627016a36ec973fa6bcc0d45a8b5f9020c1b76037ea831d0b4a471df4d",
        "size_in_bytes": 9668
      },
      {
        "_path": "Lib/site-packages/isort/_vendored/toml/ordered.py",
        "path_type": "hardlink",
        "sha256": "696e70a1ae713aa478063233f6dd74fe5821c72845e78290ec5a94355bfb589d",
        "sha256_in_prefix": "696e70a1ae713aa478063233f6dd74fe5821c72845e78290ec5a94355bfb589d",
        "size_in_bytes": 334
      },
      {
        "_path": "Lib/site-packages/isort/_vendored/toml/tz.py",
        "path_type": "hardlink",
        "sha256": "f130225eb4ea534f2c134aeecf64d71ffa45636ae5c0d284e3b312138ac3a3c6",
        "sha256_in_prefix": "f130225eb4ea534f2c134aeecf64d71ffa45636ae5c0d284e3b312138ac3a3c6",
        "size_in_bytes": 618
      },
      {
        "_path": "Lib/site-packages/isort/_version.py",
        "path_type": "hardlink",
        "sha256": "d98db9edbeb68bae939957f39c8f6096db95de657d7c36df14973602471edab2",
        "sha256_in_prefix": "d98db9edbeb68bae939957f39c8f6096db95de657d7c36df14973602471edab2",
        "size_in_bytes": 22
      },
      {
        "_path": "Lib/site-packages/isort/api.py",
        "path_type": "hardlink",
        "sha256": "054a17911b57b0efd5962076345c8269fd78170e53bdfc1c5f8613a35fde09b9",
        "sha256_in_prefix": "054a17911b57b0efd5962076345c8269fd78170e53bdfc1c5f8613a35fde09b9",
        "size_in_bytes": 15903
      },
      {
        "_path": "Lib/site-packages/isort/comments.py",
        "path_type": "hardlink",
        "sha256": "db7b8c6596d49fccb7825316ebf59fb67121102bdcfb82d6e32b04821a585145",
        "sha256_in_prefix": "db7b8c6596d49fccb7825316ebf59fb67121102bdcfb82d6e32b04821a585145",
        "size_in_bytes": 962
      },
      {
        "_path": "Lib/site-packages/isort/core.py",
        "path_type": "hardlink",
        "sha256": "5ce32b5bf2c215e01b48596c429efab0a2d682660c8027e346fcaba952d8d757",
        "sha256_in_prefix": "5ce32b5bf2c215e01b48596c429efab0a2d682660c8027e346fcaba952d8d757",
        "size_in_bytes": 17583
      },
      {
        "_path": "Lib/site-packages/isort/deprecated/__init__.py",
        "path_type": "hardlink",
        "sha256": "e3b0c44298fc1c149afbf4c8996fb92427ae41e4649b934ca495991b7852b855",
        "sha256_in_prefix": "e3b0c44298fc1c149afbf4c8996fb92427ae41e4649b934ca495991b7852b855",
        "size_in_bytes": 0
      },
      {
        "_path": "Lib/site-packages/isort/deprecated/__pycache__/__init__.cpython-38.pyc",
        "path_type": "hardlink",
        "sha256": "a149ca460aadef04c9e644c29fcc088a43e55550fc8fd9080f9e86f9590be211",
        "sha256_in_prefix": "a149ca460aadef04c9e644c29fcc088a43e55550fc8fd9080f9e86f9590be211",
        "size_in_bytes": 137
      },
      {
        "_path": "Lib/site-packages/isort/deprecated/__pycache__/finders.cpython-38.pyc",
        "path_type": "hardlink",
        "sha256": "40617a40f3bf7a3d54b40731162a802a47f3b92e00d8405650bf1f81c0f359f1",
        "sha256_in_prefix": "40617a40f3bf7a3d54b40731162a802a47f3b92e00d8405650bf1f81c0f359f1",
        "size_in_bytes": 13177
      },
      {
        "_path": "Lib/site-packages/isort/deprecated/finders.py",
        "path_type": "hardlink",
        "sha256": "37eba3a1f0fa6ae4b964f8ed69e201e52da5664fbb0e6c75ef0e7b0de53443f5",
        "sha256_in_prefix": "37eba3a1f0fa6ae4b964f8ed69e201e52da5664fbb0e6c75ef0e7b0de53443f5",
        "size_in_bytes": 14488
      },
      {
        "_path": "Lib/site-packages/isort/exceptions.py",
        "path_type": "hardlink",
        "sha256": "271938adfbc8e1371a05c9954f6543e4b704cf009b55087a0573df8cffc69af7",
        "sha256_in_prefix": "271938adfbc8e1371a05c9954f6543e4b704cf009b55087a0573df8cffc69af7",
        "size_in_bytes": 4635
      },
      {
        "_path": "Lib/site-packages/isort/format.py",
        "path_type": "hardlink",
        "sha256": "cff31fd53d885e1f53c8d618f5dc3e9d64807eca96c4bbf32f04e8bfb9e88ee3",
        "sha256_in_prefix": "cff31fd53d885e1f53c8d618f5dc3e9d64807eca96c4bbf32f04e8bfb9e88ee3",
        "size_in_bytes": 5111
      },
      {
        "_path": "Lib/site-packages/isort/hooks.py",
        "path_type": "hardlink",
        "sha256": "55ab54e481ea0457d302d97881a22aafb5a8715eebfbfea776d0dcae7c2afd8f",
        "sha256_in_prefix": "55ab54e481ea0457d302d97881a22aafb5a8715eebfbfea776d0dcae7c2afd8f",
        "size_in_bytes": 3146
      },
      {
        "_path": "Lib/site-packages/isort/io.py",
        "path_type": "hardlink",
        "sha256": "df4bfa647ee7b65ea101918002b0791b5ba897516243ca9bf7bb351bbd47c2de",
        "sha256_in_prefix": "df4bfa647ee7b65ea101918002b0791b5ba897516243ca9bf7bb351bbd47c2de",
        "size_in_bytes": 1757
      },
      {
        "_path": "Lib/site-packages/isort/literal.py",
        "path_type": "hardlink",
        "sha256": "3d044c59291b6cfde91218fcf291614a35fa437207fbf3e7fd774b7f80fb6b63",
        "sha256_in_prefix": "3d044c59291b6cfde91218fcf291614a35fa437207fbf3e7fd774b7f80fb6b63",
        "size_in_bytes": 3548
      },
      {
        "_path": "Lib/site-packages/isort/logo.py",
        "path_type": "hardlink",
        "sha256": "70bdda97bf4eeced06daf8aa44c45f04fa74aad459989c369c7482670f1759d4",
        "sha256_in_prefix": "70bdda97bf4eeced06daf8aa44c45f04fa74aad459989c369c7482670f1759d4",
        "size_in_bytes": 388
      },
      {
        "_path": "Lib/site-packages/isort/main.py",
        "path_type": "hardlink",
        "sha256": "25e9db1fbb0f0b6f6d48627c631fe7a649f0ac745233cecf6f2e3106c965601e",
        "sha256_in_prefix": "25e9db1fbb0f0b6f6d48627c631fe7a649f0ac745233cecf6f2e3106c965601e",
        "size_in_bytes": 32103
      },
      {
        "_path": "Lib/site-packages/isort/output.py",
        "path_type": "hardlink",
        "sha256": "1feab4975318cf09e6dd9318612308226362e620a542972cb295a7ee673320d5",
        "sha256_in_prefix": "1feab4975318cf09e6dd9318612308226362e620a542972cb295a7ee673320d5",
        "size_in_bytes": 22728
      },
      {
        "_path": "Lib/site-packages/isort/parse.py",
        "path_type": "hardlink",
        "sha256": "43153e8fed2c73aa8b9b97e7b4738fda2a403e69a281af01f5877c0ebcf2d05d",
        "sha256_in_prefix": "43153e8fed2c73aa8b9b97e7b4738fda2a403e69a281af01f5877c0ebcf2d05d",
        "size_in_bytes": 20774
      },
      {
        "_path": "Lib/site-packages/isort/place.py",
        "path_type": "hardlink",
        "sha256": "4b7791a77115b08abb2c381be103758dbefe76fb5f5d7af8f04a89b0c3f9e3e6",
        "sha256_in_prefix": "4b7791a77115b08abb2c381be103758dbefe76fb5f5d7af8f04a89b0c3f9e3e6",
        "size_in_bytes": 3289
      },
      {
        "_path": "Lib/site-packages/isort/profiles.py",
        "path_type": "hardlink",
        "sha256": "0b2084a45d623a0adfc6f0b69e74408ee2b1c6ea2354de4d562c84f8e9457225",
        "sha256_in_prefix": "0b2084a45d623a0adfc6f0b69e74408ee2b1c6ea2354de4d562c84f8e9457225",
        "size_in_bytes": 1502
      },
      {
        "_path": "Lib/site-packages/isort/pylama_isort.py",
        "path_type": "hardlink",
        "sha256": "424f17aa27053a7ec485555097e8269726e1e165566ca68360cf24a0307c0e0f",
        "sha256_in_prefix": "424f17aa27053a7ec485555097e8269726e1e165566ca68360cf24a0307c0e0f",
        "size_in_bytes": 897
      },
      {
        "_path": "Lib/site-packages/isort/sections.py",
        "path_type": "hardlink",
        "sha256": "c46e5bc14e2d38829499e041859e391087e33fc1e00cec7bf7a6cfbc3e73582c",
        "sha256_in_prefix": "c46e5bc14e2d38829499e041859e391087e33fc1e00cec7bf7a6cfbc3e73582c",
        "size_in_bytes": 297
      },
      {
        "_path": "Lib/site-packages/isort/settings.py",
        "path_type": "hardlink",
        "sha256": "44f790ecfcb2593ce5387fc6c606f2ceb6c5fa2ede69900579652abeb7106651",
        "sha256_in_prefix": "44f790ecfcb2593ce5387fc6c606f2ceb6c5fa2ede69900579652abeb7106651",
        "size_in_bytes": 26707
      },
      {
        "_path": "Lib/site-packages/isort/setuptools_commands.py",
        "path_type": "hardlink",
        "sha256": "d8421563051802eadc8a1cd84880d757acca1ccf83c6ac47056fb1ed49c8dcda",
        "sha256_in_prefix": "d8421563051802eadc8a1cd84880d757acca1ccf83c6ac47056fb1ed49c8dcda",
        "size_in_bytes": 2223
      },
      {
        "_path": "Lib/site-packages/isort/sorting.py",
        "path_type": "hardlink",
        "sha256": "62ba23245a9c073a1ebdedd5b9893f7228fa7dce952f454d1c8845edc60cf7fd",
        "sha256_in_prefix": "62ba23245a9c073a1ebdedd5b9893f7228fa7dce952f454d1c8845edc60cf7fd",
        "size_in_bytes": 3021
      },
      {
        "_path": "Lib/site-packages/isort/stdlibs/__init__.py",
        "path_type": "hardlink",
        "sha256": "32088ee323de259ea2796cf9a92c362ee63ba559918d951a0aac9468b1f9a894",
        "sha256_in_prefix": "32088ee323de259ea2796cf9a92c362ee63ba559918d951a0aac9468b1f9a894",
        "size_in_bytes": 64
      },
      {
        "_path": "Lib/site-packages/isort/stdlibs/__pycache__/__init__.cpython-38.pyc",
        "path_type": "hardlink",
        "sha256": "a4a491277b1e01265c532079b3c9e2520bc87e3861547d31bb643a3ccf5e75f2",
        "sha256_in_prefix": "a4a491277b1e01265c532079b3c9e2520bc87e3861547d31bb643a3ccf5e75f2",
        "size_in_bytes": 280
      },
      {
        "_path": "Lib/site-packages/isort/stdlibs/__pycache__/all.cpython-38.pyc",
        "path_type": "hardlink",
        "sha256": "9c435609622596c9e651f96e6e76d308b2796e3ccb8e439333ea70b57ad2c985",
        "sha256_in_prefix": "9c435609622596c9e651f96e6e76d308b2796e3ccb8e439333ea70b57ad2c985",
        "size_in_bytes": 193
      },
      {
        "_path": "Lib/site-packages/isort/stdlibs/__pycache__/py2.cpython-38.pyc",
        "path_type": "hardlink",
        "sha256": "0761756fff439dfce84a274a8f66660b407f70017bf65597b9806eb8108c4630",
        "sha256_in_prefix": "0761756fff439dfce84a274a8f66660b407f70017bf65597b9806eb8108c4630",
        "size_in_bytes": 174
      },
      {
        "_path": "Lib/site-packages/isort/stdlibs/__pycache__/py27.cpython-38.pyc",
        "path_type": "hardlink",
        "sha256": "06be553599914619e8c232d622e1653262f4c4b9145de657087b2accd98dcf81",
        "sha256_in_prefix": "06be553599914619e8c232d622e1653262f4c4b9145de657087b2accd98dcf81",
        "size_in_bytes": 4128
      },
      {
        "_path": "Lib/site-packages/isort/stdlibs/__pycache__/py3.cpython-38.pyc",
        "path_type": "hardlink",
        "sha256": "8f1b1fbf11f1a19586df1f50aad3d11819374a2cb69d31c9d731e88fa25b531f",
        "sha256_in_prefix": "8f1b1fbf11f1a19586df1f50aad3d11819374a2cb69d31c9d731e88fa25b531f",
        "size_in_bytes": 237
      },
      {
        "_path": "Lib/site-packages/isort/stdlibs/__pycache__/py35.cpython-38.pyc",
        "path_type": "hardlink",
        "sha256": "ad894434532fe20e2f7304d20dbd679490a5981411d6a3cbeaf4679eff234fc7",
        "sha256_in_prefix": "ad894434532fe20e2f7304d20dbd679490a5981411d6a3cbeaf4679eff234fc7",
        "size_in_bytes": 2994
      },
      {
        "_path": "Lib/site-packages/isort/stdlibs/__pycache__/py36.cpython-38.pyc",
        "path_type": "hardlink",
        "sha256": "536fd34a1e0c3875449b68ce59465420bc2525172c455f6eb65cacc263091d33",
        "sha256_in_prefix": "536fd34a1e0c3875449b68ce59465420bc2525172c455f6eb65cacc263091d33",
        "size_in_bytes": 3007
      },
      {
        "_path": "Lib/site-packages/isort/stdlibs/__pycache__/py37.cpython-38.pyc",
        "path_type": "hardlink",
        "sha256": "19c9a66fdf5ba3080453cc661149b6ad1a0fa5ce3cc0cc6e96c0695b8beff6ba",
        "sha256_in_prefix": "19c9a66fdf5ba3080453cc661149b6ad1a0fa5ce3cc0cc6e96c0695b8beff6ba",
        "size_in_bytes": 3029
      },
      {
        "_path": "Lib/site-packages/isort/stdlibs/__pycache__/py38.cpython-38.pyc",
        "path_type": "hardlink",
        "sha256": "d0bd6d75fa47f869f26294cacbefaad39c11a68e64eac87f743d223056103b48",
        "sha256_in_prefix": "d0bd6d75fa47f869f26294cacbefaad39c11a68e64eac87f743d223056103b48",
        "size_in_bytes": 3016
      },
      {
        "_path": "Lib/site-packages/isort/stdlibs/__pycache__/py39.cpython-38.pyc",
        "path_type": "hardlink",
        "sha256": "d4d4171abf1eb51723372192731745ca274680934cb7e0d4fdb13d53a7939d41",
        "sha256_in_prefix": "d4d4171abf1eb51723372192731745ca274680934cb7e0d4fdb13d53a7939d41",
        "size_in_bytes": 3004
      },
      {
        "_path": "Lib/site-packages/isort/stdlibs/all.py",
        "path_type": "hardlink",
        "sha256": "9fc12cd562ba525ba963256f7f53c38c66e2a27aa2c7e69f0b72e463c9f34dcc",
        "sha256_in_prefix": "9fc12cd562ba525ba963256f7f53c38c66e2a27aa2c7e69f0b72e463c9f34dcc",
        "size_in_bytes": 57
      },
      {
        "_path": "Lib/site-packages/isort/stdlibs/py2.py",
        "path_type": "hardlink",
        "sha256": "7538164daee0833d5cc0df1fb88f5e22cf7ee674e6911c46fee3bad421b07d72",
        "sha256_in_prefix": "7538164daee0833d5cc0df1fb88f5e22cf7ee674e6911c46fee3bad421b07d72",
        "size_in_bytes": 41
      },
      {
        "_path": "Lib/site-packages/isort/stdlibs/py27.py",
        "path_type": "hardlink",
        "sha256": "f88778976a6300e31751fc03367201476a3c23f996fc6866b9e9366fcd817339",
        "sha256_in_prefix": "f88778976a6300e31751fc03367201476a3c23f996fc6866b9e9366fcd817339",
        "size_in_bytes": 4492
      },
      {
        "_path": "Lib/site-packages/isort/stdlibs/py3.py",
        "path_type": "hardlink",
        "sha256": "e0da6c4875f2f66538a5cde76b333a19307d443ee2a8dd8957d9fa49403aef6c",
        "sha256_in_prefix": "e0da6c4875f2f66538a5cde76b333a19307d443ee2a8dd8957d9fa49403aef6c",
        "size_in_bytes": 101
      },
      {
        "_path": "Lib/site-packages/isort/stdlibs/py35.py",
        "path_type": "hardlink",
        "sha256": "495669f6368256ae244a36ca715805f1d26db72142a9c976d3276876c987aea1",
        "sha256_in_prefix": "495669f6368256ae244a36ca715805f1d26db72142a9c976d3276876c987aea1",
        "size_in_bytes": 3283
      },
      {
        "_path": "Lib/site-packages/isort/stdlibs/py36.py",
        "path_type": "hardlink",
        "sha256": "b421960d95d6949248e3ff38e723a14e922f9d4d3e6b74e8b83ff1b0c108677b",
        "sha256_in_prefix": "b421960d95d6949248e3ff38e723a14e922f9d4d3e6b74e8b83ff1b0c108677b",
        "size_in_bytes": 3298
      },
      {
        "_path": "Lib/site-packages/isort/stdlibs/py37.py",
        "path_type": "hardlink",
        "sha256": "9d866637eb37a8c9801c775d7a042fe94d23e1c9c01f47b94a6a93886ea69a14",
        "sha256_in_prefix": "9d866637eb37a8c9801c775d7a042fe94d23e1c9c01f47b94a6a93886ea69a14",
        "size_in_bytes": 3322
      },
      {
        "_path": "Lib/site-packages/isort/stdlibs/py38.py",
        "path_type": "hardlink",
        "sha256": "284ffae6200783b89c3afdb148649c7495a3c01646b924187d8713488a28fddf",
        "sha256_in_prefix": "284ffae6200783b89c3afdb148649c7495a3c01646b924187d8713488a28fddf",
        "size_in_bytes": 3307
      },
      {
        "_path": "Lib/site-packages/isort/stdlibs/py39.py",
        "path_type": "hardlink",
        "sha256": "807982db16ecbebaaac726d5f46eefaca46fed4999a60b7d3726c0851d4b00d9",
        "sha256_in_prefix": "807982db16ecbebaaac726d5f46eefaca46fed4999a60b7d3726c0851d4b00d9",
        "size_in_bytes": 3295
      },
      {
        "_path": "Lib/site-packages/isort/utils.py",
        "path_type": "hardlink",
        "sha256": "0ff3664283e84124e62f3cb91cb71917584c2bd0c88fbbf39460e43164747391",
        "sha256_in_prefix": "0ff3664283e84124e62f3cb91cb71917584c2bd0c88fbbf39460e43164747391",
        "size_in_bytes": 980
      },
      {
        "_path": "Lib/site-packages/isort/wrap.py",
        "path_type": "hardlink",
        "sha256": "1a240d58148eb431153b6a393925294af11cffb0ff48e55da5d2ee0558490cd7",
        "sha256_in_prefix": "1a240d58148eb431153b6a393925294af11cffb0ff48e55da5d2ee0558490cd7",
        "size_in_bytes": 5828
      },
      {
        "_path": "Lib/site-packages/isort/wrap_modes.py",
        "path_type": "hardlink",
        "sha256": "bf67eb94b6aef15f84cf294d73c01c33df54227de3feb4a7ef33f9f1000681bb",
        "sha256_in_prefix": "bf67eb94b6aef15f84cf294d73c01c33df54227de3feb4a7ef33f9f1000681bb",
        "size_in_bytes": 11118
      },
      {
        "_path": "Scripts/isort-script.py",
        "path_type": "hardlink",
        "sha256": "279a435b15b7bf7d907491153e6a50e203a0c62203eee9eacaa6ab2578b56840",
        "sha256_in_prefix": "279a435b15b7bf7d907491153e6a50e203a0c62203eee9eacaa6ab2578b56840",
        "size_in_bytes": 204
      },
      {
        "_path": "Scripts/isort.exe",
        "path_type": "hardlink",
        "sha256": "5ea569f2b5bc9c273351641a1a3c52821ce2a9370bc8202f0247c793ebd8a618",
        "sha256_in_prefix": "5ea569f2b5bc9c273351641a1a3c52821ce2a9370bc8202f0247c793ebd8a618",
        "size_in_bytes": 41984
      }
    ],
    "paths_version": 1
  },
  "requested_spec": "None",
  "sha256": "ab7a2dc9c5f8f7a87fdc689d6fa6484e967350628bea2d8c8f59657434bcc9db",
  "size": 167646,
  "subdir": "win-64",
  "timestamp": 1600659371177,
  "track_features": "",
  "url": "https://conda.anaconda.org/conda-forge/win-64/isort-5.5.3-py38h32f6830_0.tar.bz2",
  "version": "5.5.3"
}