{
  "build": "py38h9de7a3e_2",
  "build_number": 2,
  "channel": "https://conda.anaconda.org/conda-forge/win-64",
  "constrains": [],
  "depends": [
    "python >=3.8,<3.9.0a0",
    "python_abi 3.8.* *_cp38",
    "vc >=14,<15.0a0"
  ],
  "extracted_package_dir": "C:\\Users\\Sam\\anaconda3\\pkgs\\lazy-object-proxy-1.4.3-py38h9de7a3e_2",
  "features": "",
  "files": [
    "Lib/site-packages/lazy_object_proxy-1.4.3.dist-info/AUTHORS.rst",
    "Lib/site-packages/lazy_object_proxy-1.4.3.dist-info/INSTALLER",
    "Lib/site-packages/lazy_object_proxy-1.4.3.dist-info/LICENSE",
    "Lib/site-packages/lazy_object_proxy-1.4.3.dist-info/METADATA",
    "Lib/site-packages/lazy_object_proxy-1.4.3.dist-info/RECORD",
    "Lib/site-packages/lazy_object_proxy-1.4.3.dist-info/WHEEL",
    "Lib/site-packages/lazy_object_proxy-1.4.3.dist-info/top_level.txt",
    "Lib/site-packages/lazy_object_proxy/__init__.py",
    "Lib/site-packages/lazy_object_proxy/__pycache__/__init__.cpython-38.pyc",
    "Lib/site-packages/lazy_object_proxy/__pycache__/_version.cpython-38.pyc",
    "Lib/site-packages/lazy_object_proxy/__pycache__/compat.cpython-38.pyc",
    "Lib/site-packages/lazy_object_proxy/__pycache__/simple.cpython-38.pyc",
    "Lib/site-packages/lazy_object_proxy/__pycache__/slots.cpython-38.pyc",
    "Lib/site-packages/lazy_object_proxy/__pycache__/utils.cpython-38.pyc",
    "Lib/site-packages/lazy_object_proxy/_version.py",
    "Lib/site-packages/lazy_object_proxy/cext.cp38-win_amd64.pyd",
    "Lib/site-packages/lazy_object_proxy/compat.py",
    "Lib/site-packages/lazy_object_proxy/simple.py",
    "Lib/site-packages/lazy_object_proxy/slots.py",
    "Lib/site-packages/lazy_object_proxy/utils.py",
    ".nonadmin"
  ],
  "fn": "lazy-object-proxy-1.4.3-py38h9de7a3e_2.tar.bz2",
  "license": "BSD-2-Clause",
  "license_family": "BSD",
  "link": {
    "source": "C:\\Users\\Sam\\anaconda3\\pkgs\\lazy-object-proxy-1.4.3-py38h9de7a3e_2",
    "type": 1
  },
  "md5": "5ea88f255288092b7b9843067b43c74f",
  "name": "lazy-object-proxy",
  "package_tarball_full_path": "C:\\Users\\Sam\\anaconda3\\pkgs\\lazy-object-proxy-1.4.3-py38h9de7a3e_2.tar.bz2",
  "paths_data": {
    "paths": [
      {
        "_path": "Lib/site-packages/lazy_object_proxy-1.4.3.dist-info/AUTHORS.rst",
        "path_type": "hardlink",
        "sha256": "f027828ce0db6b44bc51cccbc9904f8693bf27a34c67d1f3fdf135035b8d7bd6",
        "sha256_in_prefix": "f027828ce0db6b44bc51cccbc9904f8693bf27a34c67d1f3fdf135035b8d7bd6",
        "size_in_bytes": 278
      },
      {
        "_path": "Lib/site-packages/lazy_object_proxy-1.4.3.dist-info/INSTALLER",
        "path_type": "hardlink",
        "sha256": "d0edee15f91b406f3f99726e44eb990be6e34fd0345b52b910c568e0eef6a2a8",
        "sha256_in_prefix": "d0edee15f91b406f3f99726e44eb990be6e34fd0345b52b910c568e0eef6a2a8",
        "size_in_bytes": 5
      },
      {
        "_path": "Lib/site-packages/lazy_object_proxy-1.4.3.dist-info/LICENSE",
        "path_type": "hardlink",
        "sha256": "5bed4a3641f66ec48db8ded236a295f33d87d029315f3617655854cf0d70c540",
        "sha256_in_prefix": "5bed4a3641f66ec48db8ded236a295f33d87d029315f3617655854cf0d70c540",
        "size_in_bytes": 1329
      },
      {
        "_path": "Lib/site-packages/lazy_object_proxy-1.4.3.dist-info/METADATA",
        "path_type": "hardlink",
        "sha256": "6365fadf07056d04f8c88df32a9445c1fa40fd30a907a53bf4c3e644608c253d",
        "sha256_in_prefix": "6365fadf07056d04f8c88df32a9445c1fa40fd30a907a53bf4c3e644608c253d",
        "size_in_bytes": 5088
      },
      {
        "_path": "Lib/site-packages/lazy_object_proxy-1.4.3.dist-info/RECORD",
        "path_type": "hardlink",
        "sha256": "0043a1621d637a1152a9a48263eca59544deda668b4420d66b149ba2e575fc49",
        "sha256_in_prefix": "0043a1621d637a1152a9a48263eca59544deda668b4420d66b149ba2e575fc49",
        "size_in_bytes": 1583
      },
      {
        "_path": "Lib/site-packages/lazy_object_proxy-1.4.3.dist-info/WHEEL",
        "path_type": "hardlink",
        "sha256": "f8e0dcd9ad803bf609e53e3a34eaae1df5a344cedb42f96df9fdf345a2c18cbe",
        "sha256_in_prefix": "f8e0dcd9ad803bf609e53e3a34eaae1df5a344cedb42f96df9fdf345a2c18cbe",
        "size_in_bytes": 105
      },
      {
        "_path": "Lib/site-packages/lazy_object_proxy-1.4.3.dist-info/top_level.txt",
        "path_type": "hardlink",
        "sha256": "50d1fe15007e8fff1b62a3f3de00fdd241ef682e364d0a98d2d8474a76da6b49",
        "sha256_in_prefix": "50d1fe15007e8fff1b62a3f3de00fdd241ef682e364d0a98d2d8474a76da6b49",
        "size_in_bytes": 18
      },
      {
        "_path": "Lib/site-packages/lazy_object_proxy/__init__.py",
        "path_type": "hardlink",
        "sha256": "a4cab1cd3a05db80eecce96d9be43c9d9de33435ce69241c26688d02b754ae55",
        "sha256_in_prefix": "a4cab1cd3a05db80eecce96d9be43c9d9de33435ce69241c26688d02b754ae55",
        "size_in_bytes": 410
      },
      {
        "_path": "Lib/site-packages/lazy_object_proxy/__pycache__/__init__.cpython-38.pyc",
        "path_type": "hardlink",
        "sha256": "55df123b802f8f4e0ab552dcc5edf7983812235836c4002b70d9b74ac6230a05",
        "sha256_in_prefix": "55df123b802f8f4e0ab552dcc5edf7983812235836c4002b70d9b74ac6230a05",
        "size_in_bytes": 510
      },
      {
        "_path": "Lib/site-packages/lazy_object_proxy/__pycache__/_version.cpython-38.pyc",
        "path_type": "hardlink",
        "sha256": "1194a86a21fe47400d8e8a9b95124399eacb4fc1ded027afb6bfaedbb0bc57a6",
        "sha256_in_prefix": "1194a86a21fe47400d8e8a9b95124399eacb4fc1ded027afb6bfaedbb0bc57a6",
        "size_in_bytes": 155
      },
      {
        "_path": "Lib/site-packages/lazy_object_proxy/__pycache__/compat.cpython-38.pyc",
        "path_type": "hardlink",
        "sha256": "2975a43c3859f8afee03a7ad2a50404c199770178770c4004907e3a37c9f38ad",
        "sha256_in_prefix": "2975a43c3859f8afee03a7ad2a50404c199770178770c4004907e3a37c9f38ad",
        "size_in_bytes": 391
      },
      {
        "_path": "Lib/site-packages/lazy_object_proxy/__pycache__/simple.cpython-38.pyc",
        "path_type": "hardlink",
        "sha256": "6a7a0f5799078c5d4bef092fbbc8b1d4127b718b924d2859c606af67a8dede9c",
        "sha256_in_prefix": "6a7a0f5799078c5d4bef092fbbc8b1d4127b718b924d2859c606af67a8dede9c",
        "size_in_bytes": 7758
      },
      {
        "_path": "Lib/site-packages/lazy_object_proxy/__pycache__/slots.cpython-38.pyc",
        "path_type": "hardlink",
        "sha256": "b03102c9ee032a7b0894c8996506deef1a9ebcc046460b8b859a81d3a7c22f13",
        "sha256_in_prefix": "b03102c9ee032a7b0894c8996506deef1a9ebcc046460b8b859a81d3a7c22f13",
        "size_in_bytes": 15206
      },
      {
        "_path": "Lib/site-packages/lazy_object_proxy/__pycache__/utils.cpython-38.pyc",
        "path_type": "hardlink",
        "sha256": "4cbe759c57a3cf91dded0d3869207d700d32a3481a55ce7277eaa51e438bb917",
        "sha256_in_prefix": "4cbe759c57a3cf91dded0d3869207d700d32a3481a55ce7277eaa51e438bb917",
        "size_in_bytes": 750
      },
      {
        "_path": "Lib/site-packages/lazy_object_proxy/_version.py",
        "path_type": "hardlink",
        "sha256": "2ac7473889f19cdb9a1bf0baf67065a0fb116d28a78ae7127cd1bc781830f327",
        "sha256_in_prefix": "2ac7473889f19cdb9a1bf0baf67065a0fb116d28a78ae7127cd1bc781830f327",
        "size_in_bytes": 120
      },
      {
        "_path": "Lib/site-packages/lazy_object_proxy/cext.cp38-win_amd64.pyd",
        "path_type": "hardlink",
        "sha256": "2281395fa2941a979c72dd7f69092f1cf60660a8eee326d7f85e6be17ce9f6b7",
        "sha256_in_prefix": "2281395fa2941a979c72dd7f69092f1cf60660a8eee326d7f85e6be17ce9f6b7",
        "size_in_bytes": 32768
      },
      {
        "_path": "Lib/site-packages/lazy_object_proxy/compat.py",
        "path_type": "hardlink",
        "sha256": "0d8dc76cac1badb78a63ab645d13512c9d60a3a1c96fc1d4c16ab2c374f983f8",
        "sha256_in_prefix": "0d8dc76cac1badb78a63ab645d13512c9d60a3a1c96fc1d4c16ab2c374f983f8",
        "size_in_bytes": 196
      },
      {
        "_path": "Lib/site-packages/lazy_object_proxy/simple.py",
        "path_type": "hardlink",
        "sha256": "82e69ccbcfd06c9781b3bbd7a4f3d5a035640cd5ce67ceb1c92d5db4078abceb",
        "sha256_in_prefix": "82e69ccbcfd06c9781b3bbd7a4f3d5a035640cd5ce67ceb1c92d5db4078abceb",
        "size_in_bytes": 8216
      },
      {
        "_path": "Lib/site-packages/lazy_object_proxy/slots.py",
        "path_type": "hardlink",
        "sha256": "f438a559420d49ca59376e8dc2646db1c4ed6aa684c2d09f228ae22eae4dcf6e",
        "sha256_in_prefix": "f438a559420d49ca59376e8dc2646db1c4ed6aa684c2d09f228ae22eae4dcf6e",
        "size_in_bytes": 11359
      },
      {
        "_path": "Lib/site-packages/lazy_object_proxy/utils.py",
        "path_type": "hardlink",
        "sha256": "c785d3aed969fe60d358efc43aafc82c83afd90a25f112cc9d19b933c97739f5",
        "sha256_in_prefix": "c785d3aed969fe60d358efc43aafc82c83afd90a25f112cc9d19b933c97739f5",
        "size_in_bytes": 291
      }
    ],
    "paths_version": 1
  },
  "requested_spec": "None",
  "sha256": "188bc6d073bb86248ab7c8c1d4f19f152aaccd9634f2e3737cb7a84c579e3443",
  "size": 30141,
  "subdir": "win-64",
  "timestamp": 1584922075342,
  "track_features": "",
  "url": "https://conda.anaconda.org/conda-forge/win-64/lazy-object-proxy-1.4.3-py38h9de7a3e_2.tar.bz2",
  "version": "1.4.3"
}