{
  "build": "py_0",
  "build_number": 0,
  "channel": "https://repo.anaconda.com/pkgs/main/noarch",
  "constrains": [],
  "depends": [
    "future",
    "python"
  ],
  "extracted_package_dir": "C:\\Users\\Sam\\anaconda3\\pkgs\\pefile-2019.4.18-py_0",
  "features": "",
  "files": [
    "Lib/site-packages/ordlookup/__init__.py",
    "Lib/site-packages/ordlookup/oleaut32.py",
    "Lib/site-packages/ordlookup/ws2_32.py",
    "Lib/site-packages/pefile-2019.4.18.dist-info/INSTALLER",
    "Lib/site-packages/pefile-2019.4.18.dist-info/LICENSE",
    "Lib/site-packages/pefile-2019.4.18.dist-info/METADATA",
    "Lib/site-packages/pefile-2019.4.18.dist-info/RECORD",
    "Lib/site-packages/pefile-2019.4.18.dist-info/WHEEL",
    "Lib/site-packages/pefile-2019.4.18.dist-info/top_level.txt",
    "Lib/site-packages/pefile.py",
    "Lib/site-packages/peutils.py",
    ".nonadmin",
    "Lib/site-packages/ordlookup/__pycache__/__init__.cpython-38.pyc",
    "Lib/site-packages/ordlookup/__pycache__/oleaut32.cpython-38.pyc",
    "Lib/site-packages/ordlookup/__pycache__/ws2_32.cpython-38.pyc",
    "Lib/site-packages/__pycache__/pefile.cpython-38.pyc",
    "Lib/site-packages/__pycache__/peutils.cpython-38.pyc"
  ],
  "fn": "pefile-2019.4.18-py_0.conda",
  "legacy_bz2_md5": "a3108f12fad4866f5dad7c5815c25a54",
  "license": "MIT",
  "link": {
    "source": "C:\\Users\\Sam\\anaconda3\\pkgs\\pefile-2019.4.18-py_0",
    "type": 1
  },
  "md5": "ea2e4f3d0a2e5a8e2aed413dc07f6e62",
  "name": "pefile",
  "noarch": "python",
  "package_tarball_full_path": "C:\\Users\\Sam\\anaconda3\\pkgs\\pefile-2019.4.18-py_0.conda",
  "package_type": "noarch_python",
  "paths_data": {
    "paths": [
      {
        "_path": "site-packages/ordlookup/__init__.py",
        "path_type": "hardlink",
        "sha256": "acf7d434337d6bf2ca6fcbee1b85c3d8741edeb76006f1085a2450738855ffcf",
        "sha256_in_prefix": "acf7d434337d6bf2ca6fcbee1b85c3d8741edeb76006f1085a2450738855ffcf",
        "size_in_bytes": 954
      },
      {
        "_path": "site-packages/ordlookup/oleaut32.py",
        "path_type": "hardlink",
        "sha256": "554457cb6728cf39f1323427e7b63dfbba842b68f85c76f9f8ed744c05f7fdbc",
        "sha256_in_prefix": "554457cb6728cf39f1323427e7b63dfbba842b68f85c76f9f8ed744c05f7fdbc",
        "size_in_bytes": 10877
      },
      {
        "_path": "site-packages/ordlookup/ws2_32.py",
        "path_type": "hardlink",
        "sha256": "c3fb9baeac37f472cecc61f1f7946d7e135cb40e8de152c429ae6316e761d74c",
        "sha256_in_prefix": "c3fb9baeac37f472cecc61f1f7946d7e135cb40e8de152c429ae6316e761d74c",
        "size_in_bytes": 3266
      },
      {
        "_path": "site-packages/pefile-2019.4.18.dist-info/INSTALLER",
        "path_type": "hardlink",
        "sha256": "d0edee15f91b406f3f99726e44eb990be6e34fd0345b52b910c568e0eef6a2a8",
        "sha256_in_prefix": "d0edee15f91b406f3f99726e44eb990be6e34fd0345b52b910c568e0eef6a2a8",
        "size_in_bytes": 5
      },
      {
        "_path": "site-packages/pefile-2019.4.18.dist-info/LICENSE",
        "path_type": "hardlink",
        "sha256": "417ab024c6aa78bb2c6ccebc7d93ff65f90d8e945653ee366bb69d7d6a9c25b1",
        "sha256_in_prefix": "417ab024c6aa78bb2c6ccebc7d93ff65f90d8e945653ee366bb69d7d6a9c25b1",
        "size_in_bytes": 1083
      },
      {
        "_path": "site-packages/pefile-2019.4.18.dist-info/METADATA",
        "path_type": "hardlink",
        "sha256": "e2b9d29a9ef0734b39c1d5265c548a3fc4262b4c57d36f96e1b74ca8cd1cd540",
        "sha256_in_prefix": "e2b9d29a9ef0734b39c1d5265c548a3fc4262b4c57d36f96e1b74ca8cd1cd540",
        "size_in_bytes": 1353
      },
      {
        "_path": "site-packages/pefile-2019.4.18.dist-info/RECORD",
        "path_type": "hardlink",
        "sha256": "5d28d75454b50f1a5c5b569f98fc2a517a9013a84e01b75fc2573f214554d802",
        "sha256_in_prefix": "5d28d75454b50f1a5c5b569f98fc2a517a9013a84e01b75fc2573f214554d802",
        "size_in_bytes": 975
      },
      {
        "_path": "site-packages/pefile-2019.4.18.dist-info/WHEEL",
        "path_type": "hardlink",
        "sha256": "ae121453793f815da20b2a4e34babecb0f2102f1ae5fe0680e02ffa2f0621d6d",
        "sha256_in_prefix": "ae121453793f815da20b2a4e34babecb0f2102f1ae5fe0680e02ffa2f0621d6d",
        "size_in_bytes": 93
      },
      {
        "_path": "site-packages/pefile-2019.4.18.dist-info/top_level.txt",
        "path_type": "hardlink",
        "sha256": "7bf125792b9950e40a7171c92ecdac49e1a4c46e0e6608542dc09cfefea441ba",
        "sha256_in_prefix": "7bf125792b9950e40a7171c92ecdac49e1a4c46e0e6608542dc09cfefea441ba",
        "size_in_bytes": 25
      },
      {
        "_path": "site-packages/pefile.py",
        "path_type": "hardlink",
        "sha256": "b6230d57b9ae594d919580f66c7a28ca26bbc227b4d88d2e96c084bbfacadda7",
        "sha256_in_prefix": "b6230d57b9ae594d919580f66c7a28ca26bbc227b4d88d2e96c084bbfacadda7",
        "size_in_bytes": 230141
      },
      {
        "_path": "site-packages/peutils.py",
        "path_type": "hardlink",
        "sha256": "312bb8b4f26eba661ba2544bd8a1fa5714eced618c712a0f2d6133a200f4f33a",
        "sha256_in_prefix": "312bb8b4f26eba661ba2544bd8a1fa5714eced618c712a0f2d6133a200f4f33a",
        "size_in_bytes": 18205
      },
      {
        "_path": "Lib/site-packages/ordlookup/__pycache__/__init__.cpython-38.pyc",
        "path_type": "pyc_file"
      },
      {
        "_path": "Lib/site-packages/ordlookup/__pycache__/oleaut32.cpython-38.pyc",
        "path_type": "pyc_file"
      },
      {
        "_path": "Lib/site-packages/ordlookup/__pycache__/ws2_32.cpython-38.pyc",
        "path_type": "pyc_file"
      },
      {
        "_path": "Lib/site-packages/__pycache__/pefile.cpython-38.pyc",
        "path_type": "pyc_file"
      },
      {
        "_path": "Lib/site-packages/__pycache__/peutils.cpython-38.pyc",
        "path_type": "pyc_file"
      }
    ],
    "paths_version": 1
  },
  "requested_spec": "None",
  "sha256": "080c62aa0b9c0328fdb561f80e2f3ce1915e06b826c6515f3add42da40213493",
  "size": 58459,
  "subdir": "noarch",
  "timestamp": 1561613171339,
  "track_features": "",
  "url": "https://repo.anaconda.com/pkgs/main/noarch/pefile-2019.4.18-py_0.conda",
  "version": "2019.4.18"
}