{
  "build": "pyh9f0ad1d_0",
  "build_number": 0,
  "channel": "https://conda.anaconda.org/conda-forge/noarch",
  "constrains": [],
  "depends": [
    "geographiclib <2,>=1.49",
    "python"
  ],
  "extracted_package_dir": "/Users/samueldelamotte/opt/miniconda3/pkgs/geopy-2.0.0-pyh9f0ad1d_0",
  "features": "",
  "files": [
    "lib/python3.8/site-packages/geopy-2.0.0.dist-info/AUTHORS",
    "lib/python3.8/site-packages/geopy-2.0.0.dist-info/INSTALLER",
    "lib/python3.8/site-packages/geopy-2.0.0.dist-info/LICENSE",
    "lib/python3.8/site-packages/geopy-2.0.0.dist-info/METADATA",
    "lib/python3.8/site-packages/geopy-2.0.0.dist-info/RECORD",
    "lib/python3.8/site-packages/geopy-2.0.0.dist-info/WHEEL",
    "lib/python3.8/site-packages/geopy-2.0.0.dist-info/direct_url.json",
    "lib/python3.8/site-packages/geopy-2.0.0.dist-info/top_level.txt",
    "lib/python3.8/site-packages/geopy/__init__.py",
    "lib/python3.8/site-packages/geopy/adapters.py",
    "lib/python3.8/site-packages/geopy/compat.py",
    "lib/python3.8/site-packages/geopy/distance.py",
    "lib/python3.8/site-packages/geopy/exc.py",
    "lib/python3.8/site-packages/geopy/extra/__init__.py",
    "lib/python3.8/site-packages/geopy/extra/rate_limiter.py",
    "lib/python3.8/site-packages/geopy/format.py",
    "lib/python3.8/site-packages/geopy/geocoders/__init__.py",
    "lib/python3.8/site-packages/geopy/geocoders/algolia.py",
    "lib/python3.8/site-packages/geopy/geocoders/arcgis.py",
    "lib/python3.8/site-packages/geopy/geocoders/azure.py",
    "lib/python3.8/site-packages/geopy/geocoders/baidu.py",
    "lib/python3.8/site-packages/geopy/geocoders/banfrance.py",
    "lib/python3.8/site-packages/geopy/geocoders/base.py",
    "lib/python3.8/site-packages/geopy/geocoders/bing.py",
    "lib/python3.8/site-packages/geopy/geocoders/databc.py",
    "lib/python3.8/site-packages/geopy/geocoders/geocodeearth.py",
    "lib/python3.8/site-packages/geopy/geocoders/geocodefarm.py",
    "lib/python3.8/site-packages/geopy/geocoders/geolake.py",
    "lib/python3.8/site-packages/geopy/geocoders/geonames.py",
    "lib/python3.8/site-packages/geopy/geocoders/googlev3.py",
    "lib/python3.8/site-packages/geopy/geocoders/here.py",
    "lib/python3.8/site-packages/geopy/geocoders/ignfrance.py",
    "lib/python3.8/site-packages/geopy/geocoders/mapbox.py",
    "lib/python3.8/site-packages/geopy/geocoders/mapquest.py",
    "lib/python3.8/site-packages/geopy/geocoders/maptiler.py",
    "lib/python3.8/site-packages/geopy/geocoders/nominatim.py",
    "lib/python3.8/site-packages/geopy/geocoders/opencage.py",
    "lib/python3.8/site-packages/geopy/geocoders/openmapquest.py",
    "lib/python3.8/site-packages/geopy/geocoders/osm.py",
    "lib/python3.8/site-packages/geopy/geocoders/pelias.py",
    "lib/python3.8/site-packages/geopy/geocoders/photon.py",
    "lib/python3.8/site-packages/geopy/geocoders/pickpoint.py",
    "lib/python3.8/site-packages/geopy/geocoders/smartystreets.py",
    "lib/python3.8/site-packages/geopy/geocoders/tomtom.py",
    "lib/python3.8/site-packages/geopy/geocoders/what3words.py",
    "lib/python3.8/site-packages/geopy/geocoders/yandex.py",
    "lib/python3.8/site-packages/geopy/location.py",
    "lib/python3.8/site-packages/geopy/point.py",
    "lib/python3.8/site-packages/geopy/timezone.py",
    "lib/python3.8/site-packages/geopy/units.py",
    "lib/python3.8/site-packages/geopy/util.py",
    "lib/python3.8/site-packages/geopy/__pycache__/__init__.cpython-38.pyc",
    "lib/python3.8/site-packages/geopy/__pycache__/adapters.cpython-38.pyc",
    "lib/python3.8/site-packages/geopy/__pycache__/compat.cpython-38.pyc",
    "lib/python3.8/site-packages/geopy/__pycache__/distance.cpython-38.pyc",
    "lib/python3.8/site-packages/geopy/__pycache__/exc.cpython-38.pyc",
    "lib/python3.8/site-packages/geopy/extra/__pycache__/__init__.cpython-38.pyc",
    "lib/python3.8/site-packages/geopy/extra/__pycache__/rate_limiter.cpython-38.pyc",
    "lib/python3.8/site-packages/geopy/__pycache__/format.cpython-38.pyc",
    "lib/python3.8/site-packages/geopy/geocoders/__pycache__/__init__.cpython-38.pyc",
    "lib/python3.8/site-packages/geopy/geocoders/__pycache__/algolia.cpython-38.pyc",
    "lib/python3.8/site-packages/geopy/geocoders/__pycache__/arcgis.cpython-38.pyc",
    "lib/python3.8/site-packages/geopy/geocoders/__pycache__/azure.cpython-38.pyc",
    "lib/python3.8/site-packages/geopy/geocoders/__pycache__/baidu.cpython-38.pyc",
    "lib/python3.8/site-packages/geopy/geocoders/__pycache__/banfrance.cpython-38.pyc",
    "lib/python3.8/site-packages/geopy/geocoders/__pycache__/base.cpython-38.pyc",
    "lib/python3.8/site-packages/geopy/geocoders/__pycache__/bing.cpython-38.pyc",
    "lib/python3.8/site-packages/geopy/geocoders/__pycache__/databc.cpython-38.pyc",
    "lib/python3.8/site-packages/geopy/geocoders/__pycache__/geocodeearth.cpython-38.pyc",
    "lib/python3.8/site-packages/geopy/geocoders/__pycache__/geocodefarm.cpython-38.pyc",
    "lib/python3.8/site-packages/geopy/geocoders/__pycache__/geolake.cpython-38.pyc",
    "lib/python3.8/site-packages/geopy/geocoders/__pycache__/geonames.cpython-38.pyc",
    "lib/python3.8/site-packages/geopy/geocoders/__pycache__/googlev3.cpython-38.pyc",
    "lib/python3.8/site-packages/geopy/geocoders/__pycache__/here.cpython-38.pyc",
    "lib/python3.8/site-packages/geopy/geocoders/__pycache__/ignfrance.cpython-38.pyc",
    "lib/python3.8/site-packages/geopy/geocoders/__pycache__/mapbox.cpython-38.pyc",
    "lib/python3.8/site-packages/geopy/geocoders/__pycache__/mapquest.cpython-38.pyc",
    "lib/python3.8/site-packages/geopy/geocoders/__pycache__/maptiler.cpython-38.pyc",
    "lib/python3.8/site-packages/geopy/geocoders/__pycache__/nominatim.cpython-38.pyc",
    "lib/python3.8/site-packages/geopy/geocoders/__pycache__/opencage.cpython-38.pyc",
    "lib/python3.8/site-packages/geopy/geocoders/__pycache__/openmapquest.cpython-38.pyc",
    "lib/python3.8/site-packages/geopy/geocoders/__pycache__/osm.cpython-38.pyc",
    "lib/python3.8/site-packages/geopy/geocoders/__pycache__/pelias.cpython-38.pyc",
    "lib/python3.8/site-packages/geopy/geocoders/__pycache__/photon.cpython-38.pyc",
    "lib/python3.8/site-packages/geopy/geocoders/__pycache__/pickpoint.cpython-38.pyc",
    "lib/python3.8/site-packages/geopy/geocoders/__pycache__/smartystreets.cpython-38.pyc",
    "lib/python3.8/site-packages/geopy/geocoders/__pycache__/tomtom.cpython-38.pyc",
    "lib/python3.8/site-packages/geopy/geocoders/__pycache__/what3words.cpython-38.pyc",
    "lib/python3.8/site-packages/geopy/geocoders/__pycache__/yandex.cpython-38.pyc",
    "lib/python3.8/site-packages/geopy/__pycache__/location.cpython-38.pyc",
    "lib/python3.8/site-packages/geopy/__pycache__/point.cpython-38.pyc",
    "lib/python3.8/site-packages/geopy/__pycache__/timezone.cpython-38.pyc",
    "lib/python3.8/site-packages/geopy/__pycache__/units.cpython-38.pyc",
    "lib/python3.8/site-packages/geopy/__pycache__/util.cpython-38.pyc"
  ],
  "fn": "geopy-2.0.0-pyh9f0ad1d_0.tar.bz2",
  "license": "MIT",
  "license_family": "MIT",
  "link": {
    "source": "/Users/samueldelamotte/opt/miniconda3/pkgs/geopy-2.0.0-pyh9f0ad1d_0",
    "type": 1
  },
  "md5": "2d3f63fb308193d2d862ba7743a32038",
  "name": "geopy",
  "noarch": "python",
  "package_tarball_full_path": "/Users/samueldelamotte/opt/miniconda3/pkgs/geopy-2.0.0-pyh9f0ad1d_0.tar.bz2",
  "package_type": "noarch_python",
  "paths_data": {
    "paths": [
      {
        "_path": "site-packages/geopy-2.0.0.dist-info/AUTHORS",
        "path_type": "hardlink",
        "sha256": "9f0a23d6a8f0c3f76f9cc4272e591461f33127f2cb2045410445ebda18a6f312",
        "sha256_in_prefix": "9f0a23d6a8f0c3f76f9cc4272e591461f33127f2cb2045410445ebda18a6f312",
        "size_in_bytes": 3870
      },
      {
        "_path": "site-packages/geopy-2.0.0.dist-info/INSTALLER",
        "path_type": "hardlink",
        "sha256": "d0edee15f91b406f3f99726e44eb990be6e34fd0345b52b910c568e0eef6a2a8",
        "sha256_in_prefix": "d0edee15f91b406f3f99726e44eb990be6e34fd0345b52b910c568e0eef6a2a8",
        "size_in_bytes": 5
      },
      {
        "_path": "site-packages/geopy-2.0.0.dist-info/LICENSE",
        "path_type": "hardlink",
        "sha256": "f09cbf1aec22dfc3d457594b619d0484a12498e9481bc126fb16dff6bf5aec16",
        "sha256_in_prefix": "f09cbf1aec22dfc3d457594b619d0484a12498e9481bc126fb16dff6bf5aec16",
        "size_in_bytes": 1076
      },
      {
        "_path": "site-packages/geopy-2.0.0.dist-info/METADATA",
        "path_type": "hardlink",
        "sha256": "346b70320fc3609aafa5373937ae9ade96728bcab7ec96cb19fcd3129ce53b21",
        "sha256_in_prefix": "346b70320fc3609aafa5373937ae9ade96728bcab7ec96cb19fcd3129ce53b21",
        "size_in_bytes": 6486
      },
      {
        "_path": "site-packages/geopy-2.0.0.dist-info/RECORD",
        "path_type": "hardlink",
        "sha256": "e753ebb50a4eb813247752cbc1d3180cc9c9755eb6865a153b133aff4a9809c7",
        "sha256_in_prefix": "e753ebb50a4eb813247752cbc1d3180cc9c9755eb6865a153b133aff4a9809c7",
        "size_in_bytes": 6375
      },
      {
        "_path": "site-packages/geopy-2.0.0.dist-info/WHEEL",
        "path_type": "hardlink",
        "sha256": "8389ccb3b77e5e5f7ec42f57a2f52bb031c65edf854f4135ed8aa8f760c47ef6",
        "sha256_in_prefix": "8389ccb3b77e5e5f7ec42f57a2f52bb031c65edf854f4135ed8aa8f760c47ef6",
        "size_in_bytes": 92
      },
      {
        "_path": "site-packages/geopy-2.0.0.dist-info/direct_url.json",
        "path_type": "hardlink",
        "sha256": "bce3d117a9e177cd5bf02e1768edfac66a0341e3bc1a3ad32c9e32c072d6ccd6",
        "sha256_in_prefix": "bce3d117a9e177cd5bf02e1768edfac66a0341e3bc1a3ad32c9e32c072d6ccd6",
        "size_in_bytes": 101
      },
      {
        "_path": "site-packages/geopy-2.0.0.dist-info/top_level.txt",
        "path_type": "hardlink",
        "sha256": "afeec7449e28ad689f595b4e29d2ec2c063e55fafbf028840f253b7e76764486",
        "sha256_in_prefix": "afeec7449e28ad689f595b4e29d2ec2c063e55fafbf028840f253b7e76764486",
        "size_in_bytes": 6
      },
      {
        "_path": "site-packages/geopy/__init__.py",
        "path_type": "hardlink",
        "sha256": "47627546a7d211c4a795ef67d754ef40cfb692101a87a930cff5984c2206754c",
        "sha256_in_prefix": "47627546a7d211c4a795ef67d754ef40cfb692101a87a930cff5984c2206754c",
        "size_in_bytes": 907
      },
      {
        "_path": "site-packages/geopy/adapters.py",
        "path_type": "hardlink",
        "sha256": "decaf239f770ceffc4e4c794cf1c605db70fdcf91bbd1e31a63cd05fa58797ad",
        "sha256_in_prefix": "decaf239f770ceffc4e4c794cf1c605db70fdcf91bbd1e31a63cd05fa58797ad",
        "size_in_bytes": 20325
      },
      {
        "_path": "site-packages/geopy/compat.py",
        "path_type": "hardlink",
        "sha256": "d1fd791192aa7f36dc9e440baf1e75499e675cc3e2205dfa67329a34d5289af8",
        "sha256_in_prefix": "d1fd791192aa7f36dc9e440baf1e75499e675cc3e2205dfa67329a34d5289af8",
        "size_in_bytes": 153
      },
      {
        "_path": "site-packages/geopy/distance.py",
        "path_type": "hardlink",
        "sha256": "a3a83f8a782f1ad5459f69f0454dbe8d5cf1ebac30ea87b1466552cf343e38bf",
        "sha256_in_prefix": "a3a83f8a782f1ad5459f69f0454dbe8d5cf1ebac30ea87b1466552cf343e38bf",
        "size_in_bytes": 15707
      },
      {
        "_path": "site-packages/geopy/exc.py",
        "path_type": "hardlink",
        "sha256": "54765b207345688e5453fa24449cc13bf81a0d10bf8c946edab016ac98c3d3ad",
        "sha256_in_prefix": "54765b207345688e5453fa24449cc13bf81a0d10bf8c946edab016ac98c3d3ad",
        "size_in_bytes": 2514
      },
      {
        "_path": "site-packages/geopy/extra/__init__.py",
        "path_type": "hardlink",
        "sha256": "c32a5417801b1200acbfeb18e40065362f307f70c0972f39195558cb2bd01972",
        "sha256_in_prefix": "c32a5417801b1200acbfeb18e40065362f307f70c0972f39195558cb2bd01972",
        "size_in_bytes": 122
      },
      {
        "_path": "site-packages/geopy/extra/rate_limiter.py",
        "path_type": "hardlink",
        "sha256": "e86db5d3192c88db3dc606e6e8c9f5eeb91fe36803223ceb89d681aab4696e50",
        "sha256_in_prefix": "e86db5d3192c88db3dc606e6e8c9f5eeb91fe36803223ceb89d681aab4696e50",
        "size_in_bytes": 14731
      },
      {
        "_path": "site-packages/geopy/format.py",
        "path_type": "hardlink",
        "sha256": "99f25655e97c75c28d6dd4f1d113f2dd828caef434b152ed46b531988091d207",
        "sha256_in_prefix": "99f25655e97c75c28d6dd4f1d113f2dd828caef434b152ed46b531988091d207",
        "size_in_bytes": 2904
      },
      {
        "_path": "site-packages/geopy/geocoders/__init__.py",
        "path_type": "hardlink",
        "sha256": "ed1af1a99acb8e934c5bc302a0c7f72851cbcc751860d1fb814d29f905cfbd45",
        "sha256_in_prefix": "ed1af1a99acb8e934c5bc302a0c7f72851cbcc751860d1fb814d29f905cfbd45",
        "size_in_bytes": 11470
      },
      {
        "_path": "site-packages/geopy/geocoders/algolia.py",
        "path_type": "hardlink",
        "sha256": "463d6e787b7a245b3e71ed2163b70f5d48fad26db7a06e05d059f4ea06a1d2af",
        "sha256_in_prefix": "463d6e787b7a245b3e71ed2163b70f5d48fad26db7a06e05d059f4ea06a1d2af",
        "size_in_bytes": 10387
      },
      {
        "_path": "site-packages/geopy/geocoders/arcgis.py",
        "path_type": "hardlink",
        "sha256": "51bb315b02908dd4ed2fb14f762e0b07a7ffe343461cb6d540537832bde53f06",
        "sha256_in_prefix": "51bb315b02908dd4ed2fb14f762e0b07a7ffe343461cb6d540537832bde53f06",
        "size_in_bytes": 12237
      },
      {
        "_path": "site-packages/geopy/geocoders/azure.py",
        "path_type": "hardlink",
        "sha256": "cf8197766d3e9ed73fe9be41fa0b36da58daecfc0f7bab8b9bba998de95057b6",
        "sha256_in_prefix": "cf8197766d3e9ed73fe9be41fa0b36da58daecfc0f7bab8b9bba998de95057b6",
        "size_in_bytes": 2254
      },
      {
        "_path": "site-packages/geopy/geocoders/baidu.py",
        "path_type": "hardlink",
        "sha256": "e3052d1d1a156c09d901a47d538c44f3f5228ec6d58b85c3afcafa6552d23c94",
        "sha256_in_prefix": "e3052d1d1a156c09d901a47d538c44f3f5228ec6d58b85c3afcafa6552d23c94",
        "size_in_bytes": 9257
      },
      {
        "_path": "site-packages/geopy/geocoders/banfrance.py",
        "path_type": "hardlink",
        "sha256": "1b77cde42bc009f23a010b09badfbe42b8d87773a19bb04b6dc5629f98e7ebfb",
        "sha256_in_prefix": "1b77cde42bc009f23a010b09badfbe42b8d87773a19bb04b6dc5629f98e7ebfb",
        "size_in_bytes": 5842
      },
      {
        "_path": "site-packages/geopy/geocoders/base.py",
        "path_type": "hardlink",
        "sha256": "4831ec7f35e0738ad4af4f618235c1bef7c0a47887fa29248a7ff61bb1fa4bf9",
        "sha256_in_prefix": "4831ec7f35e0738ad4af4f618235c1bef7c0a47887fa29248a7ff61bb1fa4bf9",
        "size_in_bytes": 16362
      },
      {
        "_path": "site-packages/geopy/geocoders/bing.py",
        "path_type": "hardlink",
        "sha256": "8aaed62707bc5d8c294aa7c0b0e4ff54798ce28464c1b7d1f26d95771fdca7bd",
        "sha256_in_prefix": "8aaed62707bc5d8c294aa7c0b0e4ff54798ce28464c1b7d1f26d95771fdca7bd",
        "size_in_bytes": 9319
      },
      {
        "_path": "site-packages/geopy/geocoders/databc.py",
        "path_type": "hardlink",
        "sha256": "3d2900d2ffa3746af7b32fbd059ea8f707d2db23b3702285ddf952e6f147c407",
        "sha256_in_prefix": "3d2900d2ffa3746af7b32fbd059ea8f707d2db23b3702285ddf952e6f147c407",
        "size_in_bytes": 4965
      },
      {
        "_path": "site-packages/geopy/geocoders/geocodeearth.py",
        "path_type": "hardlink",
        "sha256": "631fd9a0d0a28ce30e5e2d91b65d62ed7fc29ff5b66210d6dc1eb624a1611ae9",
        "sha256_in_prefix": "631fd9a0d0a28ce30e5e2d91b65d62ed7fc29ff5b66210d6dc1eb624a1611ae9",
        "size_in_bytes": 1707
      },
      {
        "_path": "site-packages/geopy/geocoders/geocodefarm.py",
        "path_type": "hardlink",
        "sha256": "d756fd37d4e7fa96a29b7b18b73a2440e6adb313501780634bbb3aa14adb8c1b",
        "sha256_in_prefix": "d756fd37d4e7fa96a29b7b18b73a2440e6adb313501780634bbb3aa14adb8c1b",
        "size_in_bytes": 7048
      },
      {
        "_path": "site-packages/geopy/geocoders/geolake.py",
        "path_type": "hardlink",
        "sha256": "dc6647dd5e767b9f5172442c6d7a6e9c3542206854e0bd30e0b1a574cbdc5047",
        "sha256_in_prefix": "dc6647dd5e767b9f5172442c6d7a6e9c3542206854e0bd30e0b1a574cbdc5047",
        "size_in_bytes": 5541
      },
      {
        "_path": "site-packages/geopy/geocoders/geonames.py",
        "path_type": "hardlink",
        "sha256": "25d8bb5f147fe7f2e37ece165b81e203fb9623e518d8cdcc6de0a6cca815944b",
        "sha256_in_prefix": "25d8bb5f147fe7f2e37ece165b81e203fb9623e518d8cdcc6de0a6cca815944b",
        "size_in_bytes": 12559
      },
      {
        "_path": "site-packages/geopy/geocoders/googlev3.py",
        "path_type": "hardlink",
        "sha256": "cd709ec2d8481099f49a0d384583d17191c387a20137d16f13b4128593b6a9df",
        "sha256_in_prefix": "cd709ec2d8481099f49a0d384583d17191c387a20137d16f13b4128593b6a9df",
        "size_in_bytes": 15736
      },
      {
        "_path": "site-packages/geopy/geocoders/here.py",
        "path_type": "hardlink",
        "sha256": "fc0a67ea5c7587441886d1f25ebefbee79b106fd45afa69e8d2176dd6b8bf843",
        "sha256_in_prefix": "fc0a67ea5c7587441886d1f25ebefbee79b106fd45afa69e8d2176dd6b8bf843",
        "size_in_bytes": 14731
      },
      {
        "_path": "site-packages/geopy/geocoders/ignfrance.py",
        "path_type": "hardlink",
        "sha256": "79a4a68cb31cba6671f72b447d43b8e53abdc240da78bad358d1b3eede4fec2d",
        "sha256_in_prefix": "79a4a68cb31cba6671f72b447d43b8e53abdc240da78bad358d1b3eede4fec2d",
        "size_in_bytes": 18147
      },
      {
        "_path": "site-packages/geopy/geocoders/mapbox.py",
        "path_type": "hardlink",
        "sha256": "8713e2d1c640af452f03444ff8ff871d92b7e71fda5fdcfcf31a8a4accc0a526",
        "sha256_in_prefix": "8713e2d1c640af452f03444ff8ff871d92b7e71fda5fdcfcf31a8a4accc0a526",
        "size_in_bytes": 6835
      },
      {
        "_path": "site-packages/geopy/geocoders/mapquest.py",
        "path_type": "hardlink",
        "sha256": "a617432488fdb742db9fed57fbe5e4c7953f6445188d4cc8e40e229b81a466ed",
        "sha256_in_prefix": "a617432488fdb742db9fed57fbe5e4c7953f6445188d4cc8e40e229b81a466ed",
        "size_in_bytes": 7092
      },
      {
        "_path": "site-packages/geopy/geocoders/maptiler.py",
        "path_type": "hardlink",
        "sha256": "22794b3e3afb677dfb24a7a6ee89cd4e56d5eb8056748e851dbe97335541aaf5",
        "sha256_in_prefix": "22794b3e3afb677dfb24a7a6ee89cd4e56d5eb8056748e851dbe97335541aaf5",
        "size_in_bytes": 7065
      },
      {
        "_path": "site-packages/geopy/geocoders/nominatim.py",
        "path_type": "hardlink",
        "sha256": "dad000dafdc3aa851046613b5dc7f21c40b77ccfee7e4344a81385134f95d0ae",
        "sha256_in_prefix": "dad000dafdc3aa851046613b5dc7f21c40b77ccfee7e4344a81385134f95d0ae",
        "size_in_bytes": 13413
      },
      {
        "_path": "site-packages/geopy/geocoders/opencage.py",
        "path_type": "hardlink",
        "sha256": "9399e0a5fd738a49610e44f7035fb97f6e56116aac85116a1b0cf21c2dcb8288",
        "sha256_in_prefix": "9399e0a5fd738a49610e44f7035fb97f6e56116aac85116a1b0cf21c2dcb8288",
        "size_in_bytes": 7893
      },
      {
        "_path": "site-packages/geopy/geocoders/openmapquest.py",
        "path_type": "hardlink",
        "sha256": "2b5f4487b8e93c9683827682bd315a20568abe4ca21140050d230442366f5f00",
        "sha256_in_prefix": "2b5f4487b8e93c9683827682bd315a20568abe4ca21140050d230442366f5f00",
        "size_in_bytes": 2561
      },
      {
        "_path": "site-packages/geopy/geocoders/osm.py",
        "path_type": "hardlink",
        "sha256": "f5560b2a2a44933399ce60befe61bdcf236bb061be75b87b3cdda9933d864646",
        "sha256_in_prefix": "f5560b2a2a44933399ce60befe61bdcf236bb061be75b87b3cdda9933d864646",
        "size_in_bytes": 297
      },
      {
        "_path": "site-packages/geopy/geocoders/pelias.py",
        "path_type": "hardlink",
        "sha256": "244c5130d7e3a9f3dd3816452cf8cb32051b97257128795fc613f4895e515536",
        "sha256_in_prefix": "244c5130d7e3a9f3dd3816452cf8cb32051b97257128795fc613f4895e515536",
        "size_in_bytes": 7545
      },
      {
        "_path": "site-packages/geopy/geocoders/photon.py",
        "path_type": "hardlink",
        "sha256": "d82f2bd8154a61967d59e3fc88f90531af5edd1aaec042d8ca478cda829f22a7",
        "sha256_in_prefix": "d82f2bd8154a61967d59e3fc88f90531af5edd1aaec042d8ca478cda829f22a7",
        "size_in_bytes": 8108
      },
      {
        "_path": "site-packages/geopy/geocoders/pickpoint.py",
        "path_type": "hardlink",
        "sha256": "9ce0db5b733bad84b124dafd6cd2325f6274cbe328cda1f14e3a8b83a3a5b183",
        "sha256_in_prefix": "9ce0db5b733bad84b124dafd6cd2325f6274cbe328cda1f14e3a8b83a3a5b183",
        "size_in_bytes": 2271
      },
      {
        "_path": "site-packages/geopy/geocoders/smartystreets.py",
        "path_type": "hardlink",
        "sha256": "4a8488f4333be43eac343c64b2ed3bb38f105aaa9a9a4740136e814f33110425",
        "sha256_in_prefix": "4a8488f4333be43eac343c64b2ed3bb38f105aaa9a9a4740136e814f33110425",
        "size_in_bytes": 4739
      },
      {
        "_path": "site-packages/geopy/geocoders/tomtom.py",
        "path_type": "hardlink",
        "sha256": "a0e06e35094e7a944db11ab70a5f08456685ecc9d0d3fafa24ccbd744539bd74",
        "sha256_in_prefix": "a0e06e35094e7a944db11ab70a5f08456685ecc9d0d3fafa24ccbd744539bd74",
        "size_in_bytes": 8205
      },
      {
        "_path": "site-packages/geopy/geocoders/what3words.py",
        "path_type": "hardlink",
        "sha256": "7ab35d1fa6509d24b0b67af9f1bba57b3a4b7af22abf035f5301fbb4adb2699d",
        "sha256_in_prefix": "7ab35d1fa6509d24b0b67af9f1bba57b3a4b7af22abf035f5301fbb4adb2699d",
        "size_in_bytes": 7378
      },
      {
        "_path": "site-packages/geopy/geocoders/yandex.py",
        "path_type": "hardlink",
        "sha256": "08710fd9ebea9c2ff1f2d20b020a6776c41888dd1035019a2411ada8660a7822",
        "sha256_in_prefix": "08710fd9ebea9c2ff1f2d20b020a6776c41888dd1035019a2411ada8660a7822",
        "size_in_bytes": 7388
      },
      {
        "_path": "site-packages/geopy/location.py",
        "path_type": "hardlink",
        "sha256": "5f226bf49342e7a42d1cf93673cc8563ccbba886a5178214da871574cdd21c73",
        "sha256_in_prefix": "5f226bf49342e7a42d1cf93673cc8563ccbba886a5178214da871574cdd21c73",
        "size_in_bytes": 3546
      },
      {
        "_path": "site-packages/geopy/point.py",
        "path_type": "hardlink",
        "sha256": "535712457f247c239206bcfbcb1c2d56c749dfb4ff8a21787f022a35e571c524",
        "sha256_in_prefix": "535712457f247c239206bcfbcb1c2d56c749dfb4ff8a21787f022a35e571c524",
        "size_in_bytes": 16677
      },
      {
        "_path": "site-packages/geopy/timezone.py",
        "path_type": "hardlink",
        "sha256": "cf588bdbb2d284673b7271c9f299c296f1677901f29ebb79e968d0982aa88738",
        "sha256_in_prefix": "cf588bdbb2d284673b7271c9f299c296f1677901f29ebb79e968d0982aa88738",
        "size_in_bytes": 2469
      },
      {
        "_path": "site-packages/geopy/units.py",
        "path_type": "hardlink",
        "sha256": "8d17c3a10c79d0be7826c00fd95e7029aa58727cec2b2571186d4bdc8e826d4d",
        "sha256_in_prefix": "8d17c3a10c79d0be7826c00fd95e7029aa58727cec2b2571186d4bdc8e826d4d",
        "size_in_bytes": 2950
      },
      {
        "_path": "site-packages/geopy/util.py",
        "path_type": "hardlink",
        "sha256": "1388baa125c1c30dbc62f47763e576141280a5479230572b0343939063d62604",
        "sha256_in_prefix": "1388baa125c1c30dbc62f47763e576141280a5479230572b0343939063d62604",
        "size_in_bytes": 526
      },
      {
        "_path": "lib/python3.8/site-packages/geopy/__pycache__/__init__.cpython-38.pyc",
        "path_type": "pyc_file"
      },
      {
        "_path": "lib/python3.8/site-packages/geopy/__pycache__/adapters.cpython-38.pyc",
        "path_type": "pyc_file"
      },
      {
        "_path": "lib/python3.8/site-packages/geopy/__pycache__/compat.cpython-38.pyc",
        "path_type": "pyc_file"
      },
      {
        "_path": "lib/python3.8/site-packages/geopy/__pycache__/distance.cpython-38.pyc",
        "path_type": "pyc_file"
      },
      {
        "_path": "lib/python3.8/site-packages/geopy/__pycache__/exc.cpython-38.pyc",
        "path_type": "pyc_file"
      },
      {
        "_path": "lib/python3.8/site-packages/geopy/extra/__pycache__/__init__.cpython-38.pyc",
        "path_type": "pyc_file"
      },
      {
        "_path": "lib/python3.8/site-packages/geopy/extra/__pycache__/rate_limiter.cpython-38.pyc",
        "path_type": "pyc_file"
      },
      {
        "_path": "lib/python3.8/site-packages/geopy/__pycache__/format.cpython-38.pyc",
        "path_type": "pyc_file"
      },
      {
        "_path": "lib/python3.8/site-packages/geopy/geocoders/__pycache__/__init__.cpython-38.pyc",
        "path_type": "pyc_file"
      },
      {
        "_path": "lib/python3.8/site-packages/geopy/geocoders/__pycache__/algolia.cpython-38.pyc",
        "path_type": "pyc_file"
      },
      {
        "_path": "lib/python3.8/site-packages/geopy/geocoders/__pycache__/arcgis.cpython-38.pyc",
        "path_type": "pyc_file"
      },
      {
        "_path": "lib/python3.8/site-packages/geopy/geocoders/__pycache__/azure.cpython-38.pyc",
        "path_type": "pyc_file"
      },
      {
        "_path": "lib/python3.8/site-packages/geopy/geocoders/__pycache__/baidu.cpython-38.pyc",
        "path_type": "pyc_file"
      },
      {
        "_path": "lib/python3.8/site-packages/geopy/geocoders/__pycache__/banfrance.cpython-38.pyc",
        "path_type": "pyc_file"
      },
      {
        "_path": "lib/python3.8/site-packages/geopy/geocoders/__pycache__/base.cpython-38.pyc",
        "path_type": "pyc_file"
      },
      {
        "_path": "lib/python3.8/site-packages/geopy/geocoders/__pycache__/bing.cpython-38.pyc",
        "path_type": "pyc_file"
      },
      {
        "_path": "lib/python3.8/site-packages/geopy/geocoders/__pycache__/databc.cpython-38.pyc",
        "path_type": "pyc_file"
      },
      {
        "_path": "lib/python3.8/site-packages/geopy/geocoders/__pycache__/geocodeearth.cpython-38.pyc",
        "path_type": "pyc_file"
      },
      {
        "_path": "lib/python3.8/site-packages/geopy/geocoders/__pycache__/geocodefarm.cpython-38.pyc",
        "path_type": "pyc_file"
      },
      {
        "_path": "lib/python3.8/site-packages/geopy/geocoders/__pycache__/geolake.cpython-38.pyc",
        "path_type": "pyc_file"
      },
      {
        "_path": "lib/python3.8/site-packages/geopy/geocoders/__pycache__/geonames.cpython-38.pyc",
        "path_type": "pyc_file"
      },
      {
        "_path": "lib/python3.8/site-packages/geopy/geocoders/__pycache__/googlev3.cpython-38.pyc",
        "path_type": "pyc_file"
      },
      {
        "_path": "lib/python3.8/site-packages/geopy/geocoders/__pycache__/here.cpython-38.pyc",
        "path_type": "pyc_file"
      },
      {
        "_path": "lib/python3.8/site-packages/geopy/geocoders/__pycache__/ignfrance.cpython-38.pyc",
        "path_type": "pyc_file"
      },
      {
        "_path": "lib/python3.8/site-packages/geopy/geocoders/__pycache__/mapbox.cpython-38.pyc",
        "path_type": "pyc_file"
      },
      {
        "_path": "lib/python3.8/site-packages/geopy/geocoders/__pycache__/mapquest.cpython-38.pyc",
        "path_type": "pyc_file"
      },
      {
        "_path": "lib/python3.8/site-packages/geopy/geocoders/__pycache__/maptiler.cpython-38.pyc",
        "path_type": "pyc_file"
      },
      {
        "_path": "lib/python3.8/site-packages/geopy/geocoders/__pycache__/nominatim.cpython-38.pyc",
        "path_type": "pyc_file"
      },
      {
        "_path": "lib/python3.8/site-packages/geopy/geocoders/__pycache__/opencage.cpython-38.pyc",
        "path_type": "pyc_file"
      },
      {
        "_path": "lib/python3.8/site-packages/geopy/geocoders/__pycache__/openmapquest.cpython-38.pyc",
        "path_type": "pyc_file"
      },
      {
        "_path": "lib/python3.8/site-packages/geopy/geocoders/__pycache__/osm.cpython-38.pyc",
        "path_type": "pyc_file"
      },
      {
        "_path": "lib/python3.8/site-packages/geopy/geocoders/__pycache__/pelias.cpython-38.pyc",
        "path_type": "pyc_file"
      },
      {
        "_path": "lib/python3.8/site-packages/geopy/geocoders/__pycache__/photon.cpython-38.pyc",
        "path_type": "pyc_file"
      },
      {
        "_path": "lib/python3.8/site-packages/geopy/geocoders/__pycache__/pickpoint.cpython-38.pyc",
        "path_type": "pyc_file"
      },
      {
        "_path": "lib/python3.8/site-packages/geopy/geocoders/__pycache__/smartystreets.cpython-38.pyc",
        "path_type": "pyc_file"
      },
      {
        "_path": "lib/python3.8/site-packages/geopy/geocoders/__pycache__/tomtom.cpython-38.pyc",
        "path_type": "pyc_file"
      },
      {
        "_path": "lib/python3.8/site-packages/geopy/geocoders/__pycache__/what3words.cpython-38.pyc",
        "path_type": "pyc_file"
      },
      {
        "_path": "lib/python3.8/site-packages/geopy/geocoders/__pycache__/yandex.cpython-38.pyc",
        "path_type": "pyc_file"
      },
      {
        "_path": "lib/python3.8/site-packages/geopy/__pycache__/location.cpython-38.pyc",
        "path_type": "pyc_file"
      },
      {
        "_path": "lib/python3.8/site-packages/geopy/__pycache__/point.cpython-38.pyc",
        "path_type": "pyc_file"
      },
      {
        "_path": "lib/python3.8/site-packages/geopy/__pycache__/timezone.cpython-38.pyc",
        "path_type": "pyc_file"
      },
      {
        "_path": "lib/python3.8/site-packages/geopy/__pycache__/units.cpython-38.pyc",
        "path_type": "pyc_file"
      },
      {
        "_path": "lib/python3.8/site-packages/geopy/__pycache__/util.cpython-38.pyc",
        "path_type": "pyc_file"
      }
    ],
    "paths_version": 1
  },
  "requested_spec": "geopy",
  "sha256": "76bb42d454a21610895d2725d15c864ba9616db5898034c9d2d158d4df073e7e",
  "size": 64795,
  "subdir": "noarch",
  "timestamp": 1593296711707,
  "track_features": "",
  "url": "https://conda.anaconda.org/conda-forge/noarch/geopy-2.0.0-pyh9f0ad1d_0.tar.bz2",
  "version": "2.0.0"
}