{
  "build": "py_0",
  "build_number": 0,
  "channel": "https://repo.anaconda.com/pkgs/main/noarch",
  "constrains": [],
  "depends": [
    "python"
  ],
  "extracted_package_dir": "/Users/samueldelamotte/opt/miniconda3/pkgs/six-1.15.0-py_0",
  "features": "",
  "files": [
    "lib/python3.8/site-packages/six-1.15.0.dist-info/INSTALLER",
    "lib/python3.8/site-packages/six-1.15.0.dist-info/LICENSE",
    "lib/python3.8/site-packages/six-1.15.0.dist-info/METADATA",
    "lib/python3.8/site-packages/six-1.15.0.dist-info/RECORD",
    "lib/python3.8/site-packages/six-1.15.0.dist-info/WHEEL",
    "lib/python3.8/site-packages/six-1.15.0.dist-info/top_level.txt",
    "lib/python3.8/site-packages/six.py",
    "lib/python3.8/site-packages/__pycache__/six.cpython-38.pyc"
  ],
  "fn": "six-1.15.0-py_0.conda",
  "legacy_bz2_md5": "0d41d5bff9a456f76f0ef718dc7a573a",
  "license": "MIT",
  "license_family": "MIT",
  "link": {
    "source": "/Users/samueldelamotte/opt/miniconda3/pkgs/six-1.15.0-py_0",
    "type": 1
  },
  "md5": "54c2e03874b7bba2404be8ee23148927",
  "name": "six",
  "noarch": "python",
  "package_tarball_full_path": "/Users/samueldelamotte/opt/miniconda3/pkgs/six-1.15.0-py_0.conda",
  "package_type": "noarch_python",
  "paths_data": {
    "paths": [
      {
        "_path": "site-packages/six-1.15.0.dist-info/INSTALLER",
        "path_type": "hardlink",
        "sha256": "d0edee15f91b406f3f99726e44eb990be6e34fd0345b52b910c568e0eef6a2a8",
        "sha256_in_prefix": "d0edee15f91b406f3f99726e44eb990be6e34fd0345b52b910c568e0eef6a2a8",
        "size_in_bytes": 5
      },
      {
        "_path": "site-packages/six-1.15.0.dist-info/LICENSE",
        "path_type": "hardlink",
        "sha256": "8bb850c565aa389fdc16f3a46965ad23d82adff60f2393fc2762b63185e8e6c9",
        "sha256_in_prefix": "8bb850c565aa389fdc16f3a46965ad23d82adff60f2393fc2762b63185e8e6c9",
        "size_in_bytes": 1066
      },
      {
        "_path": "site-packages/six-1.15.0.dist-info/METADATA",
        "path_type": "hardlink",
        "sha256": "5baae5ca878c6475e1eacacff4d5cdb26d2b8c07ffebad2b7bc59d1f94c14fc1",
        "sha256_in_prefix": "5baae5ca878c6475e1eacacff4d5cdb26d2b8c07ffebad2b7bc59d1f94c14fc1",
        "size_in_bytes": 1795
      },
      {
        "_path": "site-packages/six-1.15.0.dist-info/RECORD",
        "path_type": "hardlink",
        "sha256": "cefdacb302fb6b63969dbd5a6e42e9c2882c8c76bbf3bc49e122b0630f7d9d33",
        "sha256_in_prefix": "cefdacb302fb6b63969dbd5a6e42e9c2882c8c76bbf3bc49e122b0630f7d9d33",
        "size_in_bytes": 560
      },
      {
        "_path": "site-packages/six-1.15.0.dist-info/WHEEL",
        "path_type": "hardlink",
        "sha256": "9064fbe0b5b245466b2f85602e1ebf835d8879597ff6ef5956169dae05d95046",
        "sha256_in_prefix": "9064fbe0b5b245466b2f85602e1ebf835d8879597ff6ef5956169dae05d95046",
        "size_in_bytes": 110
      },
      {
        "_path": "site-packages/six-1.15.0.dist-info/top_level.txt",
        "path_type": "hardlink",
        "sha256": "fe2547fe2604b445e70fc9d819062960552f9145bdb043b51986e478a4806a2b",
        "sha256_in_prefix": "fe2547fe2604b445e70fc9d819062960552f9145bdb043b51986e478a4806a2b",
        "size_in_bytes": 4
      },
      {
        "_path": "site-packages/six.py",
        "path_type": "hardlink",
        "sha256": "53867fcafe77e16e423728d8f62f15d4e5d8d928c09f2f32d8be6f0cb8614e13",
        "sha256_in_prefix": "53867fcafe77e16e423728d8f62f15d4e5d8d928c09f2f32d8be6f0cb8614e13",
        "size_in_bytes": 34159
      },
      {
        "_path": "lib/python3.8/site-packages/__pycache__/six.cpython-38.pyc",
        "path_type": "pyc_file"
      }
    ],
    "paths_version": 1
  },
  "requested_spec": "None",
  "sha256": "cfce10e051764353543125d2e7cd161de8433e94ae2a8bc99bdfa1234364fb14",
  "size": 13430,
  "subdir": "noarch",
  "timestamp": 1591384766747,
  "track_features": "",
  "url": "https://repo.anaconda.com/pkgs/main/noarch/six-1.15.0-py_0.conda",
  "version": "1.15.0"
}