{
  "build": "py38h1de35cc_0",
  "build_number": 0,
  "channel": "https://repo.anaconda.com/pkgs/main/osx-64",
  "constrains": [],
  "depends": [
    "python >=3.8,<3.9.0a0"
  ],
  "extracted_package_dir": "/Users/samueldelamotte/opt/miniconda3/pkgs/wrapt-1.11.2-py38h1de35cc_0",
  "features": "",
  "files": [
    "lib/python3.8/__pycache__/_sysconfigdata_x86_64_apple_darwin13_4_0.cpython-38.pyc",
    "lib/python3.8/site-packages/wrapt-1.11.2.dist-info/INSTALLER",
    "lib/python3.8/site-packages/wrapt-1.11.2.dist-info/LICENSE",
    "lib/python3.8/site-packages/wrapt-1.11.2.dist-info/METADATA",
    "lib/python3.8/site-packages/wrapt-1.11.2.dist-info/RECORD",
    "lib/python3.8/site-packages/wrapt-1.11.2.dist-info/WHEEL",
    "lib/python3.8/site-packages/wrapt-1.11.2.dist-info/top_level.txt",
    "lib/python3.8/site-packages/wrapt/__init__.py",
    "lib/python3.8/site-packages/wrapt/__pycache__/__init__.cpython-38.pyc",
    "lib/python3.8/site-packages/wrapt/__pycache__/decorators.cpython-38.pyc",
    "lib/python3.8/site-packages/wrapt/__pycache__/importer.cpython-38.pyc",
    "lib/python3.8/site-packages/wrapt/__pycache__/wrappers.cpython-38.pyc",
    "lib/python3.8/site-packages/wrapt/_wrappers.cpython-38-darwin.so",
    "lib/python3.8/site-packages/wrapt/decorators.py",
    "lib/python3.8/site-packages/wrapt/importer.py",
    "lib/python3.8/site-packages/wrapt/wrappers.py"
  ],
  "fn": "wrapt-1.11.2-py38h1de35cc_0.conda",
  "legacy_bz2_md5": "2adbaf45b079378f057771d9b85c31b1",
  "license": "BSD 2-Clause",
  "link": {
    "source": "/Users/samueldelamotte/opt/miniconda3/pkgs/wrapt-1.11.2-py38h1de35cc_0",
    "type": 1
  },
  "md5": "98b6ca19f0c515a487ed3ddc2e9817fc",
  "name": "wrapt",
  "package_tarball_full_path": "/Users/samueldelamotte/opt/miniconda3/pkgs/wrapt-1.11.2-py38h1de35cc_0.conda",
  "paths_data": {
    "paths": [
      {
        "_path": "lib/python3.8/__pycache__/_sysconfigdata_x86_64_apple_darwin13_4_0.cpython-38.pyc",
        "path_type": "hardlink",
        "sha256": "68453b8f7070c023bd5e8e7ffebe1f277a8a06a0fc7302b947dbdb45593cecdd",
        "sha256_in_prefix": "68453b8f7070c023bd5e8e7ffebe1f277a8a06a0fc7302b947dbdb45593cecdd",
        "size_in_bytes": 34938
      },
      {
        "_path": "lib/python3.8/site-packages/wrapt-1.11.2.dist-info/INSTALLER",
        "path_type": "hardlink",
        "sha256": "d0edee15f91b406f3f99726e44eb990be6e34fd0345b52b910c568e0eef6a2a8",
        "sha256_in_prefix": "d0edee15f91b406f3f99726e44eb990be6e34fd0345b52b910c568e0eef6a2a8",
        "size_in_bytes": 5
      },
      {
        "_path": "lib/python3.8/site-packages/wrapt-1.11.2.dist-info/LICENSE",
        "path_type": "hardlink",
        "sha256": "e37c13f84fb3c9a54161b0fcf75f4d302fb86ce42cd6106147bda79e4197d9f2",
        "sha256_in_prefix": "e37c13f84fb3c9a54161b0fcf75f4d302fb86ce42cd6106147bda79e4197d9f2",
        "size_in_bytes": 1304
      },
      {
        "_path": "lib/python3.8/site-packages/wrapt-1.11.2.dist-info/METADATA",
        "path_type": "hardlink",
        "sha256": "0e815ab72654b812a9f38deb625380da380a303f9ff807402a21b3f80d3fc9b1",
        "sha256_in_prefix": "0e815ab72654b812a9f38deb625380da380a303f9ff807402a21b3f80d3fc9b1",
        "size_in_bytes": 6439
      },
      {
        "_path": "lib/python3.8/site-packages/wrapt-1.11.2.dist-info/RECORD",
        "path_type": "hardlink",
        "sha256": "3c345ba25d1de343974cdb55535de930293c6b6b17de6ea931d297c7658a88ae",
        "sha256_in_prefix": "3c345ba25d1de343974cdb55535de930293c6b6b17de6ea931d297c7658a88ae",
        "size_in_bytes": 1053
      },
      {
        "_path": "lib/python3.8/site-packages/wrapt-1.11.2.dist-info/WHEEL",
        "path_type": "hardlink",
        "sha256": "4368f06ae57b49d5e56f6d1ccfe6e1f6f9fe050e2d940d4818d923fc65a7b1ef",
        "sha256_in_prefix": "4368f06ae57b49d5e56f6d1ccfe6e1f6f9fe050e2d940d4818d923fc65a7b1ef",
        "size_in_bytes": 109
      },
      {
        "_path": "lib/python3.8/site-packages/wrapt-1.11.2.dist-info/top_level.txt",
        "path_type": "hardlink",
        "sha256": "25fee472e5edc2350933038bd10cc02c38365a24a25e21fd4e128c8cdeb80d6d",
        "sha256_in_prefix": "25fee472e5edc2350933038bd10cc02c38365a24a25e21fd4e128c8cdeb80d6d",
        "size_in_bytes": 6
      },
      {
        "_path": "lib/python3.8/site-packages/wrapt/__init__.py",
        "path_type": "hardlink",
        "sha256": "195a73ddfc8fe4fd71611dd73fee887caaf4dbc711a6f176c5a1f6ffe4fc505a",
        "sha256_in_prefix": "195a73ddfc8fe4fd71611dd73fee887caaf4dbc711a6f176c5a1f6ffe4fc505a",
        "size_in_bytes": 658
      },
      {
        "_path": "lib/python3.8/site-packages/wrapt/__pycache__/__init__.cpython-38.pyc",
        "path_type": "hardlink",
        "sha256": "296483f5338099baeed7b5101cf8db629c4682fdec6f81fc19a2142f0953c0a4",
        "sha256_in_prefix": "296483f5338099baeed7b5101cf8db629c4682fdec6f81fc19a2142f0953c0a4",
        "size_in_bytes": 946
      },
      {
        "_path": "lib/python3.8/site-packages/wrapt/__pycache__/decorators.cpython-38.pyc",
        "path_type": "hardlink",
        "sha256": "38480fb9c127907b3419da393e7c0fb3236a851cdd24c682edd34dfe1b57be22",
        "sha256_in_prefix": "38480fb9c127907b3419da393e7c0fb3236a851cdd24c682edd34dfe1b57be22",
        "size_in_bytes": 9040
      },
      {
        "_path": "lib/python3.8/site-packages/wrapt/__pycache__/importer.cpython-38.pyc",
        "path_type": "hardlink",
        "sha256": "665c46b6933711d08913a90ce427da44c2fbf964d537a4f76cfc7c81a04992eb",
        "sha256_in_prefix": "665c46b6933711d08913a90ce427da44c2fbf964d537a4f76cfc7c81a04992eb",
        "size_in_bytes": 4256
      },
      {
        "_path": "lib/python3.8/site-packages/wrapt/__pycache__/wrappers.cpython-38.pyc",
        "path_type": "hardlink",
        "sha256": "74aa4c4a92a379aabe17440a516852ae023deb5cc2be79e4070a4a4e490449d4",
        "sha256_in_prefix": "74aa4c4a92a379aabe17440a516852ae023deb5cc2be79e4070a4a4e490449d4",
        "size_in_bytes": 24040
      },
      {
        "_path": "lib/python3.8/site-packages/wrapt/_wrappers.cpython-38-darwin.so",
        "file_mode": "binary",
        "path_type": "hardlink",
        "prefix_placeholder": "/opt/concourse/worker/volumes/live/3c6d9722-e63c-4936-6a03-7c470ea8f9f0/volume/wrapt_1573201207547/_h_env_placehold_placehold_placehold_placehold_placehold_placehold_placehold_placehold_placehold_placehold_placehold_placehold_placehold_placehold_placehold",
        "sha256": "17d0dc4f84577c3e0a420e0a62ce2f6e68cc9acb6d5020d596912226d08e219d",
        "sha256_in_prefix": "e1ee3f599d3214c9b8386e7fada485c6225dffbf9d501a8ef7f5e5b27faf8737",
        "size_in_bytes": 42200
      },
      {
        "_path": "lib/python3.8/site-packages/wrapt/decorators.py",
        "path_type": "hardlink",
        "sha256": "fa4a22ac68947fde935b0dfcdf19548925aa461918daf752a9f03fa9bc1116cb",
        "sha256_in_prefix": "fa4a22ac68947fde935b0dfcdf19548925aa461918daf752a9f03fa9bc1116cb",
        "size_in_bytes": 20291
      },
      {
        "_path": "lib/python3.8/site-packages/wrapt/importer.py",
        "path_type": "hardlink",
        "sha256": "b474ed152fa723accd78f8e1db24acc90f6483f7f6c78129efec128f79b823ec",
        "sha256_in_prefix": "b474ed152fa723accd78f8e1db24acc90f6483f7f6c78129efec128f79b823ec",
        "size_in_bytes": 7926
      },
      {
        "_path": "lib/python3.8/site-packages/wrapt/wrappers.py",
        "path_type": "hardlink",
        "sha256": "a25a0b55e23427e9ff73f7411fe80ed0ced4a916fbeab246050156a6feeeceaa",
        "sha256_in_prefix": "a25a0b55e23427e9ff73f7411fe80ed0ced4a916fbeab246050156a6feeeceaa",
        "size_in_bytes": 33657
      }
    ],
    "paths_version": 1
  },
  "requested_spec": "None",
  "sha256": "700aecf528af466f3d6841a80713b6045b19968d4675676d75f2103c1e28b304",
  "size": 50689,
  "subdir": "osx-64",
  "timestamp": 1573201291301,
  "track_features": "",
  "url": "https://repo.anaconda.com/pkgs/main/osx-64/wrapt-1.11.2-py38h1de35cc_0.conda",
  "version": "1.11.2"
}